Assignment2/Stage7/wave.vcd
$date
  Fri Mar 25 01:03:34 2022
$end
$version
  GHDL v0
$end
$timescale
  1 fs
$end
$scope module standard $end
$upscope $end
$scope module std_logic_1164 $end
$upscope $end
$scope module numeric_std $end
$upscope $end
$scope module mytypes $end
$upscope $end
$scope module testbench $end
$var reg 1 ! clk $end
$var reg 1 " reset $end
$scope module uut $end
$var reg 1 # clk $end
$var reg 1 $ reset $end
$var reg 32 % pcin[31:0] $end
$var reg 32 & pcout[31:0] $end
$comment instr_class is not handled $end
$comment op is not handled $end
$comment dp_subclass is not handled $end
$comment dp_operand_src is not handled $end
$comment load_store is not handled $end
$comment dt_offset_sign is not handled $end
$comment store_instr is not handled $end
$comment load_instr is not handled $end
$comment mul_acc is not handled $end
$var reg 4 ' rad1[3:0] $end
$var reg 4 ( rad2[3:0] $end
$var reg 32 ) wd[31:0] $end
$var reg 32 * rd1[31:0] $end
$var reg 32 + rd[31:0] $end
$var reg 32 , rd2[31:0] $end
$var reg 32 - alu2[31:0] $end
$var reg 32 . alu1[31:0] $end
$var reg 32 / result[31:0] $end
$var reg 1 0 rw $end
$var reg 4 1 mw[3:0] $end
$var reg 1 2 cout $end
$var reg 1 3 cin $end
$var reg 1 4 zf $end
$var reg 1 5 nf $end
$var reg 1 6 vf $end
$var reg 1 7 cf $end
$var reg 1 8 zflag $end
$var reg 1 9 nflag $end
$var reg 1 : vflag $end
$var reg 1 ; cflag $end
$var reg 1 < p $end
$var reg 12 = offset[11:0] $end
$var reg 8 > immd[7:0] $end
$var reg 7 ? addr[6:0] $end
$var reg 4 @ addw[3:0] $end
$comment opalu is not handled $end
$var reg 32 A a[31:0] $end
$var reg 32 B b[31:0] $end
$var reg 32 C ir[31:0] $end
$var reg 32 D dr[31:0] $end
$var reg 32 E res[31:0] $end
$var reg 64 F res_64[63:0] $end
$var reg 32 G rm_val[31:0] $end
$var reg 32 H rn_val[31:0] $end
$var reg 32 I rs_val[31:0] $end
$var reg 32 J rd_val[31:0] $end
$var integer 32 K curr $end
$var reg 8 L s_ext[7:0] $end
$var reg 24 M s_offset[23:0] $end
$var reg 32 N c[31:0] $end
$var reg 32 O shift_data[31:0] $end
$var reg 5 P shift_amt[4:0] $end
$comment shift_typ is not handled $end
$comment shift_ty is not handled $end
$comment dt_operand_src is not handled $end
$comment shift_operand_src is not handled $end
$var reg 32 Q oupt[31:0] $end
$var reg 64 R mul_res[63:0] $end
$var reg 1 S cout_s $end
$var reg 32 T rin[31:0] $end
$var reg 32 U memin[31:0] $end
$var reg 1 V w $end
$var reg 1 W pi $end
$var reg 4 X mw_pm[3:0] $end
$var reg 2 Y adr2[1:0] $end
$scope module dut1 $end
$var reg 32 Z instruction[31:0] $end
$comment instr_class is not handled $end
$comment operation is not handled $end
$comment dp_subclass is not handled $end
$comment dp_operand_src is not handled $end
$comment dt_operand_src is not handled $end
$comment load_store is not handled $end
$comment dt_offset_sign is not handled $end
$comment load_instr is not handled $end
$comment store_instr is not handled $end
$comment shift_operand_src is not handled $end
$comment shift_typ is not handled $end
$comment mul_acc is not handled $end
$upscope $end
$scope module dut2 $end
$var reg 4 [ rd1[3:0] $end
$var reg 4 \ rd2[3:0] $end
$var reg 1 ] clk $end
$var reg 32 ^ data[31:0] $end
$var reg 4 _ wad[3:0] $end
$var reg 1 ` wn $end
$var reg 32 a dd1[31:0] $end
$var reg 32 b dd2[31:0] $end
$comment reg is not handled $end
$upscope $end
$scope module dut3 $end
$var reg 32 c a[31:0] $end
$var reg 32 d b[31:0] $end
$comment opcode is not handled $end
$var reg 32 e res[31:0] $end
$var reg 1 f cin $end
$var reg 1 g cout $end
$upscope $end
$scope module dut4 $end
$var reg 1 h msba $end
$var reg 1 i msbb $end
$var reg 1 j cout $end
$var reg 32 k res[31:0] $end
$var reg 64 l res_64[63:0] $end
$var reg 1 m shiftout $end
$comment instr is not handled $end
$comment mul_acc is not handled $end
$comment dp_subclass is not handled $end
$var reg 1 n sbit $end
$var reg 1 o zflag $end
$var reg 1 p nflag $end
$var reg 1 q vflag $end
$var reg 1 r cflag $end
$upscope $end
$scope module dut5 $end
$var reg 7 s addr[6:0] $end
$var reg 1 t clk $end
$var reg 32 u din[31:0] $end
$var reg 32 v dout[31:0] $end
$var reg 4 w wn[3:0] $end
$comment dmem is not handled $end
$upscope $end
$scope module dut6 $end
$var reg 4 x condition[3:0] $end
$var reg 1 y zflag $end
$var reg 1 z vflag $end
$var reg 1 { cflag $end
$var reg 1 | nflag $end
$var reg 1 } predicate $end
$upscope $end
$scope module dut7 $end
$var reg 32 !" inp[31:0] $end
$var reg 5 "" amt[4:0] $end
$comment typ is not handled $end
$var reg 1 #" carry_in $end
$var reg 32 $" oupt[31:0] $end
$var reg 1 %" carry_out $end
$var reg 32 &" ouptl[31:0] $end
$var reg 1 '" carry_outl $end
$var reg 32 (" ouptr[31:0] $end
$var reg 1 )" carry_outr $end
$scope module dutl $end
$var reg 32 *" inp[31:0] $end
$var reg 5 +" amt[4:0] $end
$var reg 32 ," oupt[31:0] $end
$var reg 1 -" carry_in $end
$var reg 1 ." carry_out $end
$var reg 32 /" out0[31:0] $end
$var reg 32 0" out1[31:0] $end
$var reg 32 1" out2[31:0] $end
$var reg 32 2" out3[31:0] $end
$var reg 32 3" out4[31:0] $end
$upscope $end
$scope module dutr $end
$var reg 32 4" inp[31:0] $end
$var reg 5 5" amt[4:0] $end
$comment typ is not handled $end
$var reg 32 6" oupt[31:0] $end
$var reg 1 7" carry_in $end
$var reg 1 8" carry_out $end
$var reg 32 9" out0[31:0] $end
$var reg 32 :" out1[31:0] $end
$var reg 32 ;" out2[31:0] $end
$var reg 32 <" out3[31:0] $end
$var reg 32 =" out4[31:0] $end
$var reg 32 >" sig[31:0] $end
$upscope $end
$upscope $end
$scope module dut8 $end
$var reg 32 ?" rout[31:0] $end
$var reg 32 @" memout[31:0] $end
$comment load_instr is not handled $end
$comment store_instr is not handled $end
$var integer 32 A" ctrl_state $end
$var reg 2 B" adr2[1:0] $end
$var reg 32 C" rin[31:0] $end
$var reg 32 D" memin[31:0] $end
$var reg 4 E" mw[3:0] $end
$var reg 32 F" a[31:0] $end
$var reg 32 G" b[31:0] $end
$var reg 32 H" c[31:0] $end
$var reg 32 I" d[31:0] $end
$upscope $end
$scope module dut9 $end
$var reg 32 J" rd_val[31:0] $end
$var reg 32 K" rn_val[31:0] $end
$var reg 32 L" rs_val[31:0] $end
$var reg 32 M" rm_val[31:0] $end
$comment mul_acc is not handled $end
$var reg 64 N" result[63:0] $end
$var reg 64 O" p_s[63:0] $end
$var reg 64 P" p_u[63:0] $end
$var reg 64 Q" res[63:0] $end
$upscope $end
$upscope $end
$upscope $end
$enddefinitions $end
#0
U!
1"
U#
1$
b00000000000000000000000000000000 %
bUUUUUUUUUUUUUUUUUUUUUUUUUUUUUUUU &
b0000 '
b0000 (
b00000000000000000000000000000000 )
bUUUUUUUUUUUUUUUUUUUUUUUUUUUUUUUU *
b11100011101000000000000000000010 +
bUUUUUUUUUUUUUUUUUUUUUUUUUUUUUUUU ,
b00000000000000000000000000000100 -
b00000000000000000000000000000000 .
b00000000000000000000000000000100 /
00
b0000 1
02
03
04
05
06
07
08
09
0:
0;
0<
b000000000000 =
b00000000 >
b1000000 ?
b0000 @
b00000000000000000000000000000000 A
b00000000000000000000000000000000 B
b00000000000000000000000000000000 C
b00000000000000000000000000000000 D
b00000000000000000000000000000000 E
b0000000000000000000000000000000000000000000000000000000000000000 F
b00000000000000000000000000000000 G
b00000000000000000000000000000000 H
b00000000000000000000000000000000 I
b00000000000000000000000000000000 J
b0 K
b00000000 L
b000000000000000000000000 M
bUUUUUUUUUUUUUUUUUUUUUUUUUUUUUUUU N
b00000000000000000000000000000000 O
b00000 P
b00000000000000000000000000000000 Q
b0000000000000000000000000000000000000000000000000000000000000000 R
0S
b00000000000000000000000000000000 T
b00000000000000000000000000000000 U
0V
0W
b1111 X
b00 Y
b00000000000000000000000000000000 Z
b0000 [
b0000 \
U]
b00000000000000000000000000000000 ^
b0000 _
0`
bUUUUUUUUUUUUUUUUUUUUUUUUUUUUUUUU a
bUUUUUUUUUUUUUUUUUUUUUUUUUUUUUUUU b
b00000000000000000000000000000000 c
b00000000000000000000000000000100 d
b00000000000000000000000000000100 e
0f
0g
Uh
0i
0j
b00000000000000000000000000000100 k
b0000000000000000000000000000000000000000000000000000000000000000 l
0m
0n
0o
0p
0q
0r
b1000000 s
Ut
b00000000000000000000000000000000 u
b11100011101000000000000000000010 v
b0000 w
b0000 x
0y
0z
0{
0|
0}
b00000000000000000000000000000000 !"
b00000 ""
0#"
b00000000000000000000000000000000 $"
0%"
b00000000000000000000000000000000 &"
0'"
b00000000000000000000000000000000 ("
0)"
b00000000000000000000000000000000 *"
b00000 +"
b00000000000000000000000000000000 ,"
0-"
0."
b00000000000000000000000000000000 /"
b00000000000000000000000000000000 0"
b00000000000000000000000000000000 1"
b00000000000000000000000000000000 2"
b00000000000000000000000000000000 3"
b00000000000000000000000000000000 4"
b00000 5"
b00000000000000000000000000000000 6"
07"
08"
b00000000000000000000000000000000 9"
b00000000000000000000000000000000 :"
b00000000000000000000000000000000 ;"
b00000000000000000000000000000000 <"
b00000000000000000000000000000000 ="
b00000000000000000000000000000000 >"
b00000000000000000000000000000000 ?"
b00000000000000000000000000000000 @"
b0 A"
b00 B"
b00000000000000000000000000000000 C"
b00000000000000000000000000000000 D"
b1111 E"
b00000000000000000000000000000000 F"
b00000000000000000000000000000000 G"
b00000000000000000000000000000000 H"
b00000000000000000000000000000000 I"
b00000000000000000000000000000000 J"
b00000000000000000000000000000000 K"
b00000000000000000000000000000000 L"
b00000000000000000000000000000000 M"
b0000000000000000000000000000000000000000000000000000000000000000 N"
b0000000000000000000000000000000000000000000000000000000000000000 O"
b0000000000000000000000000000000000000000000000000000000000000000 P"
b0000000000000000000000000000000000000000000000000000000000000000 Q"
#1000000
0!
0"
0#
0$
0]
0t
#2000000
1!
1#
b00000000000000000000000000000100 &
b0010 (
b00000000000000000000000000000000 +
b00000000000000000000000000000000 -
b00000000000000000000000000000000 /
1<
b000000000010 =
b00000010 >
b0000000 ?
b11100011101000000000000000000010 C
b1 K
b11111111 L
b101000000000000000000010 M
1V
1W
b11100011101000000000000000000010 Z
b0010 \
1]
b00000000000000000000000000000000 d
b00000000000000000000000000000000 e
b00000000000000000000000000000000 k
b0000000 s
1t
b00000000000000000000000000000000 v
b1110 x
1}
b1 A"
#3000000
0!
0#
0]
0t
#4000000
1!
1#
b0000 (
bUUUUUUUUUUUUUUUUUUUUUUUUUUUUUUUU -
bUUUUUUUUUUUUUUUUUUUUUUUUUUUUUUUU .
bUUUUUUUUUUUUUUUUUUUUUUUUUUUUUUUU /
bUUUUUUUUUUUUUUUUUUUUUUUUUUUUUUUU A
bUUUUUUUUUUUUUUUUUUUUUUUUUUUUUUUU B
b10111 K
b00000000000000000000000000000010 O
b00000000000000000000000000000010 Q
bUUUUUUUUUUUUUUUUUUUUUUUUUUUUUUUU U
b0000 \
1]
bUUUUUUUUUUUUUUUUUUUUUUUUUUUUUUUU c
bUUUUUUUUUUUUUUUUUUUUUUUUUUUUUUUU d
bUUUUUUUUUUUUUUUUUUUUUUUUUUUUUUUU e
Ui
bUUUUUUUUUUUUUUUUUUUUUUUUUUUUUUUU k
1t
bUUUUUUUUUUUUUUUUUUUUUUUUUUUUUUUU u
b00000000000000000000000000000010 !"
b00000000000000000000000000000010 $"
b00000000000000000000000000000010 &"
b00000000000000000000000000000010 ("
b00000000000000000000000000000010 *"
b00000000000000000000000000000010 ,"
b00000000000000000000000000000010 /"
b00000000000000000000000000000010 0"
b00000000000000000000000000000010 1"
b00000000000000000000000000000010 2"
b00000000000000000000000000000010 3"
b00000000000000000000000000000010 4"
b00000000000000000000000000000010 6"
b00000000000000000000000000000010 9"
b00000000000000000000000000000010 :"
b00000000000000000000000000000010 ;"
b00000000000000000000000000000010 <"
b00000000000000000000000000000010 ="
bUUUUUUUUUUUUUUUUUUUUUUUUUUUUUUUU ?"
b10111 A"
bUUUUUUUUUUUUUUUUUUUUUUUUUUUUUUUU D"
#5000000
0!
0#
0]
0t
#6000000
1!
1#
b00000000000000000000000000000010 -
b00000000000000000000000000000010 /
b00000000000000000000000000000010 B
b11110 K
b00000000000000000000000000000010 U
1]
b00000000000000000000000000000010 d
b00000000000000000000000000000010 e
0i
b00000000000000000000000000000010 k
1t
b00000000000000000000000000000010 u
b00000000000000000000000000000010 ?"
b11110 A"
b00000000000000000000000000000010 D"
#7000000
0!
0#
0]
0t
#8000000
1!
1#
b00000000000000000000000000000010 )
10
b00000000000000000000000000000010 E
b101000 K
b10 Y
1]
b00000000000000000000000000000010 ^
1`
1t
b101000 A"
b10 B"
#9000000
0!
0#
0]
0t
#10000000
1!
1#
b00000000000000000000000000000100 %
b00000000000000000000000000000010 *
b11100011101000000001000000000101 +
b00000000000000000000000000000010 ,
b00000000000000000000000000000100 -
b00000000000000000000000000000100 .
b00000000000000000000000000001000 /
00
b1000001 ?
b0 K
1]
0`
b00000000000000000000000000000010 a
b00000000000000000000000000000010 b
b00000000000000000000000000000100 c
b00000000000000000000000000000100 d
b00000000000000000000000000001000 e
0h
b00000000000000000000000000001000 k
b1000001 s
1t
b11100011101000000001000000000101 v
b0 A"
#11000000
0!
0#
0]
0t
#12000000
1!
1#
b00000000000000000000000000001000 &
b0101 (
b00000000000000000000000000000000 +
bUUUUUUUUUUUUUUUUUUUUUUUUUUUUUUUU ,
b00000000000000000000000000000010 -
bUUUUUUUUUUUUUUUUUUUUUUUUUUUUUUUU .
b00000000000000000000000000000010 /
b000000000101 =
b00000101 >
b0000000 ?
b0001 @
b11100011101000000001000000000101 C
b1 K
b101000000001000000000101 M
b11100011101000000001000000000101 Z
b0101 \
1]
b0001 _
bUUUUUUUUUUUUUUUUUUUUUUUUUUUUUUUU b
bUUUUUUUUUUUUUUUUUUUUUUUUUUUUUUUU c
b00000000000000000000000000000010 d
b00000000000000000000000000000010 e
b00000000000000000000000000000010 k
b0000000 s
1t
b00000000000000000000000000000000 v
b1 A"
#13000000
0!
0#
0]
0t
#14000000
1!
1#
b0001 (
bUUUUUUUUUUUUUUUUUUUUUUUUUUUUUUUU -
b00000000000000000000000000000010 .
bUUUUUUUUUUUUUUUUUUUUUUUUUUUUUUUU /
b00000000000000000000000000000010 A
bUUUUUUUUUUUUUUUUUUUUUUUUUUUUUUUU B
b10111 K
b00000000000000000000000000000101 O
b00000000000000000000000000000101 Q
bUUUUUUUUUUUUUUUUUUUUUUUUUUUUUUUU U
b0001 \
1]
b00000000000000000000000000000010 c
bUUUUUUUUUUUUUUUUUUUUUUUUUUUUUUUU d
bUUUUUUUUUUUUUUUUUUUUUUUUUUUUUUUU e
Ui
bUUUUUUUUUUUUUUUUUUUUUUUUUUUUUUUU k
1t
bUUUUUUUUUUUUUUUUUUUUUUUUUUUUUUUU u
b00000000000000000000000000000101 !"
b00000000000000000000000000000101 $"
b00000000000000000000000000000101 &"
b00000000000000000000000000000101 ("
b00000000000000000000000000000101 *"
b00000000000000000000000000000101 ,"
b00000000000000000000000000000101 /"
b00000000000000000000000000000101 0"
b00000000000000000000000000000101 1"
b00000000000000000000000000000101 2"
b00000000000000000000000000000101 3"
b00000000000000000000000000000101 4"
b00000000000000000000000000000101 6"
b00000000000000000000000000000101 9"
b00000000000000000000000000000101 :"
b00000000000000000000000000000101 ;"
b00000000000000000000000000000101 <"
b00000000000000000000000000000101 ="
bUUUUUUUUUUUUUUUUUUUUUUUUUUUUUUUU ?"
b10111 A"
bUUUUUUUUUUUUUUUUUUUUUUUUUUUUUUUU D"
#15000000
0!
0#
0]
0t
#16000000
1!
1#
b00000000000000000000000000000101 -
b00000000000000000000000000000101 /
b00000000000000000000000000000101 B
b11110 K
b00000000000000000000000000000101 U
1]
b00000000000000000000000000000101 d
b00000000000000000000000000000101 e
0i
b00000000000000000000000000000101 k
1t
b00000000000000000000000000000101 u
b00000000000000000000000000000101 ?"
b11110 A"
b00000000000000000000000000000101 D"
#17000000
0!
0#
0]
0t
#18000000
1!
1#
b00000000000000000000000000000101 )
10
b0000001 ?
b00000000000000000000000000000101 E
b101000 K
b01 Y
1]
b00000000000000000000000000000101 ^
1`
b0000001 s
1t
b101000 A"
b01 B"
#19000000
0!
0#
0]
0t
#20000000
1!
1#
b00000000000000000000000000001000 %
b11100011101000000010000000001010 +
b00000000000000000000000000000101 ,
b00000000000000000000000000000100 -
b00000000000000000000000000001000 .
b00000000000000000000000000001100 /
00
b1000010 ?
b0 K
1]
0`
b00000000000000000000000000000101 b
b00000000000000000000000000001000 c
b00000000000000000000000000000100 d
b00000000000000000000000000001100 e
b00000000000000000000000000001100 k
b1000010 s
1t
b11100011101000000010000000001010 v
b0 A"
#21000000
0!
0#
0]
0t
#22000000
1!
1#
b00000000000000000000000000001100 &
b1010 (
b00000000000000000000000000000000 +
bUUUUUUUUUUUUUUUUUUUUUUUUUUUUUUUU ,
b00000000000000000000000000000101 -
b00000000000000000000000000000010 .
b00000000000000000000000000000101 /
b000000001010 =
b00001010 >
b0000001 ?
b0010 @
b11100011101000000010000000001010 C
b1 K
b101000000010000000001010 M
b11100011101000000010000000001010 Z
b1010 \
1]
b0010 _
bUUUUUUUUUUUUUUUUUUUUUUUUUUUUUUUU b
b00000000000000000000000000000010 c
b00000000000000000000000000000101 d
b00000000000000000000000000000101 e
b00000000000000000000000000000101 k
b0000001 s
1t
b00000000000000000000000000000000 v
b1 A"
#23000000
0!
0#
0]
0t
#24000000
1!
1#
b0010 (
bUUUUUUUUUUUUUUUUUUUUUUUUUUUUUUUU -
bUUUUUUUUUUUUUUUUUUUUUUUUUUUUUUUU /
bUUUUUUUUUUUUUUUUUUUUUUUUUUUUUUUU B
b10111 K
b00000000000000000000000000001010 O
b00000000000000000000000000001010 Q
bUUUUUUUUUUUUUUUUUUUUUUUUUUUUUUUU U
b0010 \
1]
bUUUUUUUUUUUUUUUUUUUUUUUUUUUUUUUU d
bUUUUUUUUUUUUUUUUUUUUUUUUUUUUUUUU e
Ui
bUUUUUUUUUUUUUUUUUUUUUUUUUUUUUUUU k
1t
bUUUUUUUUUUUUUUUUUUUUUUUUUUUUUUUU u
b00000000000000000000000000001010 !"
b00000000000000000000000000001010 $"
b00000000000000000000000000001010 &"
b00000000000000000000000000001010 ("
b00000000000000000000000000001010 *"
b00000000000000000000000000001010 ,"
b00000000000000000000000000001010 /"
b00000000000000000000000000001010 0"
b00000000000000000000000000001010 1"
b00000000000000000000000000001010 2"
b00000000000000000000000000001010 3"
b00000000000000000000000000001010 4"
b00000000000000000000000000001010 6"
b00000000000000000000000000001010 9"
b00000000000000000000000000001010 :"
b00000000000000000000000000001010 ;"
b00000000000000000000000000001010 <"
b00000000000000000000000000001010 ="
bUUUUUUUUUUUUUUUUUUUUUUUUUUUUUUUU ?"
b10111 A"
bUUUUUUUUUUUUUUUUUUUUUUUUUUUUUUUU D"
#25000000
0!
0#
0]
0t
#26000000
1!
1#
b00000000000000000000000000001010 -
b00000000000000000000000000001010 /
b00000000000000000000000000001010 B
b11110 K
b00000000000000000000000000001010 U
1]
b00000000000000000000000000001010 d
b00000000000000000000000000001010 e
0i
b00000000000000000000000000001010 k
1t
b00000000000000000000000000001010 u
b00000000000000000000000000001010 ?"
b11110 A"
b00000000000000000000000000001010 D"
#27000000
0!
0#
0]
0t
#28000000
1!
1#
b00000000000000000000000000001010 )
10
b0000010 ?
b00000000000000000000000000001010 E
b101000 K
b10 Y
1]
b00000000000000000000000000001010 ^
1`
b0000010 s
1t
b101000 A"
b10 B"
#29000000
0!
0#
0]
0t
#30000000
1!
1#
b00000000000000000000000000001100 %
b11100011101000000011000000000000 +
b00000000000000000000000000001010 ,
b00000000000000000000000000000100 -
b00000000000000000000000000001100 .
b00000000000000000000000000010000 /
00
b1000011 ?
b0 K
1]
0`
b00000000000000000000000000001010 b
b00000000000000000000000000001100 c
b00000000000000000000000000000100 d
b00000000000000000000000000010000 e
b00000000000000000000000000010000 k
b1000011 s
1t
b11100011101000000011000000000000 v
b0 A"
#31000000
0!
0#
0]
0t
#32000000
1!
1#
b00000000000000000000000000010000 &
b0000 (
b00000000000000000000000000000000 +
b00000000000000000000000000000010 ,
b00000000000000000000000000001010 -
b00000000000000000000000000000010 .
b00000000000000000000000000001010 /
b000000000000 =
b00000000 >
b0000010 ?
b0011 @
b11100011101000000011000000000000 C
b1 K
b101000000011000000000000 M
b11100011101000000011000000000000 Z
b0000 \
1]
b0011 _
b00000000000000000000000000000010 b
b00000000000000000000000000000010 c
b00000000000000000000000000001010 d
b00000000000000000000000000001010 e
b00000000000000000000000000001010 k
b0000010 s
1t
b00000000000000000000000000000000 v
b1 A"
#33000000
0!
0#
0]
0t
#34000000
1!
1#
b0011 (
bUUUUUUUUUUUUUUUUUUUUUUUUUUUUUUUU ,
b00000000000000000000000000000010 -
b00000000000000000000000000000010 /
b00000000000000000000000000000010 B
b10111 K
b00000000000000000000000000000000 O
b00000000000000000000000000000000 Q
b00000000000000000000000000000010 U
b0011 \
1]
bUUUUUUUUUUUUUUUUUUUUUUUUUUUUUUUU b
b00000000000000000000000000000010 d
b00000000000000000000000000000010 e
b00000000000000000000000000000010 k
1t
b00000000000000000000000000000010 u
b00000000000000000000000000000000 !"
b00000000000000000000000000000000 $"
b00000000000000000000000000000000 &"
b00000000000000000000000000000000 ("
b00000000000000000000000000000000 *"
b00000000000000000000000000000000 ,"
b00000000000000000000000000000000 /"
b00000000000000000000000000000000 0"
b00000000000000000000000000000000 1"
b00000000000000000000000000000000 2"
b00000000000000000000000000000000 3"
b00000000000000000000000000000000 4"
b00000000000000000000000000000000 6"
b00000000000000000000000000000000 9"
b00000000000000000000000000000000 :"
b00000000000000000000000000000000 ;"
b00000000000000000000000000000000 <"
b00000000000000000000000000000000 ="
b00000000000000000000000000000010 ?"
b10111 A"
b00000000000000000000000000000010 D"
#35000000
0!
0#
0]
0t
#36000000
1!
1#
b00000000000000000000000000000000 -
b00000000000000000000000000000000 /
b00000000000000000000000000000000 B
b11110 K
b00000000000000000000000000000000 U
1]
b00000000000000000000000000000000 d
b00000000000000000000000000000000 e
b00000000000000000000000000000000 k
1t
b00000000000000000000000000000000 u
b00000000000000000000000000000000 ?"
b11110 A"
b00000000000000000000000000000000 D"
#37000000
0!
0#
0]
0t
#38000000
1!
1#
b00000000000000000000000000000000 )
10
b0000000 ?
b00000000000000000000000000000000 E
b101000 K
b00 Y
1]
b00000000000000000000000000000000 ^
1`
b0000000 s
1t
b101000 A"
b00 B"
#39000000
0!
0#
0]
0t
#40000000
1!
1#
b00000000000000000000000000010000 %
b11100000111000110010000010010001 +
b00000000000000000000000000000000 ,
b00000000000000000000000000000100 -
b00000000000000000000000000010000 .
b00000000000000000000000000010100 /
00
b1000100 ?
b0 K
1]
0`
b00000000000000000000000000000000 b
b00000000000000000000000000010000 c
b00000000000000000000000000000100 d
b00000000000000000000000000010100 e
b00000000000000000000000000010100 k
b1000100 s
1t
b11100000111000110010000010010001 v
b0 A"
#41000000
0!
0#
0]
0t
#42000000
1!
1#
b00000000000000000000000000010100 &
b0011 '
b0001 (
b00000000000000000000000000000000 *
b00000000000000000000000000000000 +
b00000000000000000000000000000101 ,
b00000000000000000000000000000000 -
b00000000000000000000000000000010 .
b11111111111111111111111111111101 /
b000010010001 =
b10010001 >
b0000000 ?
b0010 @
b11100000111000110010000010010001 C
b1 K
b111000110010000010010001 M
b00001 P
0W
b10 Y
b11100000111000110010000010010001 Z
b0011 [
b0001 \
1]
b0010 _
b00000000000000000000000000000000 a
b00000000000000000000000000000101 b
b00000000000000000000000000000010 c
b00000000000000000000000000000000 d
b11111111111111111111111111111101 e
b11111111111111111111111111111101 k
b0000000 s
1t
b00000000000000000000000000000000 v
b00001 ""
b00001 +"
b00001 5"
b1 A"
b10 B"
#43000000
0!
0#
0]
0t
#44000000
1!
1#
b0001 '
b0000 (
b00000000000000000000000000000101 *
b00000000000000000000000000000010 ,
b00000000000000000000000000000101 -
b00000000000000000000000000000000 .
b00000000000000000000000000000100 /
12
b00000000000000000000000000000000 A
b00000000000000000000000000000101 B
b11010 K
b00000000000000000000000000000101 O
b00000000000000000000000000001010 Q
b00000000000000000000000000000101 U
b00 Y
b0001 [
b0000 \
1]
b00000000000000000000000000000101 a
b00000000000000000000000000000010 b
b00000000000000000000000000000000 c
b00000000000000000000000000000101 d
b00000000000000000000000000000100 e
1g
1j
b00000000000000000000000000000100 k
1t
b00000000000000000000000000000101 u
b00000000000000000000000000000101 !"
b00000000000000000000000000001010 $"
b00000000000000000000000000001010 &"
b00000000000000000000000000000101 ("
b00000000000000000000000000000101 *"
b00000000000000000000000000001010 ,"
b00000000000000000000000000001010 /"
b00000000000000000000000000001010 0"
b00000000000000000000000000001010 1"
b00000000000000000000000000001010 2"
b00000000000000000000000000001010 3"
b00000000000000000000000000000101 4"
b00000000000000000000000000000101 6"
b00000000000000000000000000000101 9"
b00000000000000000000000000000101 :"
b00000000000000000000000000000101 ;"
b00000000000000000000000000000101 <"
b00000000000000000000000000000101 ="
b00000000000000000000000000000101 ?"
b11010 A"
b00 B"
b00000000000000000000000000000101 D"
#45000000
0!
0#
0]
0t
#46000000
1!
1#
b0011 '
b0010 (
b00000000000000000000000000000000 *
b00000000000000000000000000001010 ,
b00000000000000000000000000000101 G
b00000000000000000000000000000010 I
b100001 K
b0000000000000000000000000000000000000000000000000000000000001010 R
b0011 [
b0010 \
1]
b00000000000000000000000000000000 a
b00000000000000000000000000001010 b
b0000000000000000000000000000000000000000000000000000000000001010 l
1t
b100001 A"
b00000000000000000000000000000010 L"
b00000000000000000000000000000101 M"
b0000000000000000000000000000000000000000000000000000000000001010 N"
b0000000000000000000000000000000000000000000000000000000000001010 O"
b0000000000000000000000000000000000000000000000000000000000001010 P"
b0000000000000000000000000000000000000000000000000000000000001010 Q"
#47000000
0!
0#
0]
0t
#48000000
1!
1#
b00000000000000000000000000001010 H
b101011 K
b0000000000000000000000000000000000000000000000000000000000010100 R
1]
b0000000000000000000000000000000000000000000000000000000000010100 l
1t
b101011 A"
b00000000000000000000000000001010 K"
b0000000000000000000000000000000000000000000000000000000000010100 N"
#49000000
0!
0#
0]
0t
#50000000
1!
1#
10
b0011 @
b0000000000000000000000000000000000000000000000000000000000010100 F
b110011 K
1]
b0011 _
1`
1t
b110011 A"
#51000000
0!
0#
0]
0t
#52000000
1!
1#
b00000000000000000000000000010100 )
b0010 @
b110 K
1]
b00000000000000000000000000010100 ^
b0010 _
1t
b110 A"
#53000000
0!
0#
0]
0t
#54000000
1!
1#
b00000000000000000000000000010100 %
b00000000000000000000000000000000 )
b11100000101000110010000010010001 +
b00000000000000000000000000010100 ,
b00000000000000000000000000000100 -
b00000000000000000000000000010100 .
b00000000000000000000000000011000 /
00
02
b1000101 ?
b0 K
1]
b00000000000000000000000000000000 ^
0`
b00000000000000000000000000010100 b
b00000000000000000000000000010100 c
b00000000000000000000000000000100 d
b00000000000000000000000000011000 e
0g
0j
b00000000000000000000000000011000 k
b1000101 s
1t
b11100000101000110010000010010001 v
b0 A"
#55000000
0!
0#
0]
0t
#56000000
1!
1#
b00000000000000000000000000011000 &
b0001 (
b00000000000000000000000000000000 +
b00000000000000000000000000000101 ,
b00000000000000000000000000000101 -
b00000000000000000000000000000000 .
b00000000000000000000000000000101 /
02
b0000000 ?
b11100000101000110010000010010001 C
b1 K
b101000110010000010010001 M
b11100000101000110010000010010001 Z
b0001 \
1]
b00000000000000000000000000000101 b
b00000000000000000000000000000000 c
b00000000000000000000000000000101 d
b00000000000000000000000000000101 e
0g
0j
b00000000000000000000000000000101 k
b0000000 s
1t
b00000000000000000000000000000000 v
b1 A"
#57000000
0!
0#
0]
0t
#58000000
1!
1#
b0001 '
b0000 (
b00000000000000000000000000000101 *
b00000000000000000000000000000010 ,
b11010 K
b0001 [
b0000 \
1]
b00000000000000000000000000000101 a
b00000000000000000000000000000010 b
1t
b11010 A"
#59000000
0!
0#
0]
0t
#60000000
1!
1#
b0011 '
b0010 (
b00000000000000000000000000000000 *
b00000000000000000000000000010100 ,
b100001 K
b0011 [
b0010 \
1]
b00000000000000000000000000000000 a
b00000000000000000000000000010100 b
1t
b100001 A"
#61000000
0!
0#
0]
0t
#62000000
1!
1#
b00000000000000000000000000010100 H
b101011 K
b0000000000000000000000000000000000000000000000000000000000011110 R
1]
b0000000000000000000000000000000000000000000000000000000000011110 l
1t
b101011 A"
b00000000000000000000000000010100 K"
b0000000000000000000000000000000000000000000000000000000000011110 N"
#63000000
0!
0#
0]
0t
#64000000
1!
1#
10
b0011 @
b0000000000000000000000000000000000000000000000000000000000011110 F
b110011 K
1]
b0011 _
1`
1t
b110011 A"
#65000000
0!
0#
0]
0t
#66000000
1!
1#
b00000000000000000000000000011110 )
b0010 @
b110 K
1]
b00000000000000000000000000011110 ^
b0010 _
1t
b110 A"
#67000000
0!
0#
0]
0t
#68000000
1!
1#
b00000000000000000000000000011000 %
b00000000000000000000000000000000 )
b00000000000000000000000000011110 ,
b00000000000000000000000000000100 -
b00000000000000000000000000011000 .
b00000000000000000000000000011100 /
00
b1000110 ?
b0 K
1]
b00000000000000000000000000000000 ^
0`
b00000000000000000000000000011110 b
b00000000000000000000000000011000 c
b00000000000000000000000000000100 d
b00000000000000000000000000011100 e
b00000000000000000000000000011100 k
b1000110 s
1t
b0 A"
#69000000
0!
0#
0]
0t
