Assignment2/Stage7/wave.vcd
$date
  Thu Mar 24 23:27:45 2022
$end
$version
  GHDL v0
$end
$timescale
  1 fs
$end
$scope module standard $end
$upscope $end
$scope module std_logic_1164 $end
$upscope $end
$scope module numeric_std $end
$upscope $end
$scope module mytypes $end
$upscope $end
$scope module testbench $end
$var reg 1 ! clk $end
$var reg 1 " reset $end
$scope module uut $end
$var reg 1 # clk $end
$var reg 1 $ reset $end
$var reg 32 % pcin[31:0] $end
$var reg 32 & pcout[31:0] $end
$comment instr_class is not handled $end
$comment op is not handled $end
$comment dp_subclass is not handled $end
$comment dp_operand_src is not handled $end
$comment load_store is not handled $end
$comment dt_offset_sign is not handled $end
$comment store_instr is not handled $end
$comment load_instr is not handled $end
$comment mul_acc is not handled $end
$var reg 4 ' rad1[3:0] $end
$var reg 4 ( rad2[3:0] $end
$var reg 32 ) wd[31:0] $end
$var reg 32 * rd1[31:0] $end
$var reg 32 + rd[31:0] $end
$var reg 32 , rd2[31:0] $end
$var reg 32 - alu2[31:0] $end
$var reg 32 . alu1[31:0] $end
$var reg 32 / result[31:0] $end
$var reg 1 0 rw $end
$var reg 4 1 mw[3:0] $end
$var reg 1 2 cout $end
$var reg 1 3 cin $end
$var reg 1 4 zf $end
$var reg 1 5 nf $end
$var reg 1 6 vf $end
$var reg 1 7 cf $end
$var reg 1 8 zflag $end
$var reg 1 9 nflag $end
$var reg 1 : vflag $end
$var reg 1 ; cflag $end
$var reg 1 < p $end
$var reg 12 = offset[11:0] $end
$var reg 8 > immd[7:0] $end
$var reg 7 ? addr[6:0] $end
$var reg 4 @ addw[3:0] $end
$comment opalu is not handled $end
$var reg 32 A a[31:0] $end
$var reg 32 B b[31:0] $end
$var reg 32 C ir[31:0] $end
$var reg 32 D dr[31:0] $end
$var reg 32 E res[31:0] $end
$var reg 64 F res_64[63:0] $end
$var reg 32 G rm_val[31:0] $end
$var reg 32 H rn_val[31:0] $end
$var reg 32 I rs_val[31:0] $end
$var reg 32 J rd_val[31:0] $end
$var integer 32 K curr $end
$var reg 8 L s_ext[7:0] $end
$var reg 24 M s_offset[23:0] $end
$var reg 32 N c[31:0] $end
$var reg 32 O shift_data[31:0] $end
$var reg 5 P shift_amt[4:0] $end
$comment shift_typ is not handled $end
$comment shift_ty is not handled $end
$comment dt_operand_src is not handled $end
$comment shift_operand_src is not handled $end
$var reg 32 Q oupt[31:0] $end
$var reg 64 R mul_res[63:0] $end
$var reg 1 S cout_s $end
$var reg 32 T rin[31:0] $end
$var reg 32 U memin[31:0] $end
$var reg 1 V w $end
$var reg 1 W pi $end
$var reg 4 X mw_pm[3:0] $end
$var reg 2 Y adr2[1:0] $end
$scope module dut1 $end
$var reg 32 Z instruction[31:0] $end
$comment instr_class is not handled $end
$comment operation is not handled $end
$comment dp_subclass is not handled $end
$comment dp_operand_src is not handled $end
$comment dt_operand_src is not handled $end
$comment load_store is not handled $end
$comment dt_offset_sign is not handled $end
$comment load_instr is not handled $end
$comment store_instr is not handled $end
$comment shift_operand_src is not handled $end
$comment shift_typ is not handled $end
$comment mul_acc is not handled $end
$upscope $end
$scope module dut2 $end
$var reg 4 [ rd1[3:0] $end
$var reg 4 \ rd2[3:0] $end
$var reg 1 ] clk $end
$var reg 32 ^ data[31:0] $end
$var reg 4 _ wad[3:0] $end
$var reg 1 ` wn $end
$var reg 32 a dd1[31:0] $end
$var reg 32 b dd2[31:0] $end
$comment reg is not handled $end
$upscope $end
$scope module dut3 $end
$var reg 32 c a[31:0] $end
$var reg 32 d b[31:0] $end
$comment opcode is not handled $end
$var reg 32 e res[31:0] $end
$var reg 1 f cin $end
$var reg 1 g cout $end
$upscope $end
$scope module dut4 $end
$var reg 1 h msba $end
$var reg 1 i msbb $end
$var reg 1 j cout $end
$var reg 32 k res[31:0] $end
$var reg 64 l res_64[63:0] $end
$var reg 1 m shiftout $end
$comment instr is not handled $end
$comment mul_acc is not handled $end
$comment dp_subclass is not handled $end
$var reg 1 n sbit $end
$var reg 1 o zflag $end
$var reg 1 p nflag $end
$var reg 1 q vflag $end
$var reg 1 r cflag $end
$upscope $end
$scope module dut5 $end
$var reg 7 s addr[6:0] $end
$var reg 1 t clk $end
$var reg 32 u din[31:0] $end
$var reg 32 v dout[31:0] $end
$var reg 4 w wn[3:0] $end
$comment dmem is not handled $end
$upscope $end
$scope module dut6 $end
$var reg 4 x condition[3:0] $end
$var reg 1 y zflag $end
$var reg 1 z vflag $end
$var reg 1 { cflag $end
$var reg 1 | nflag $end
$var reg 1 } predicate $end
$upscope $end
$scope module dut7 $end
$var reg 32 !" inp[31:0] $end
$var reg 5 "" amt[4:0] $end
$comment typ is not handled $end
$var reg 1 #" carry_in $end
$var reg 32 $" oupt[31:0] $end
$var reg 1 %" carry_out $end
$var reg 32 &" ouptl[31:0] $end
$var reg 1 '" carry_outl $end
$var reg 32 (" ouptr[31:0] $end
$var reg 1 )" carry_outr $end
$scope module dutl $end
$var reg 32 *" inp[31:0] $end
$var reg 5 +" amt[4:0] $end
$var reg 32 ," oupt[31:0] $end
$var reg 1 -" carry_in $end
$var reg 1 ." carry_out $end
$var reg 32 /" out0[31:0] $end
$var reg 32 0" out1[31:0] $end
$var reg 32 1" out2[31:0] $end
$var reg 32 2" out3[31:0] $end
$var reg 32 3" out4[31:0] $end
$upscope $end
$scope module dutr $end
$var reg 32 4" inp[31:0] $end
$var reg 5 5" amt[4:0] $end
$comment typ is not handled $end
$var reg 32 6" oupt[31:0] $end
$var reg 1 7" carry_in $end
$var reg 1 8" carry_out $end
$var reg 32 9" out0[31:0] $end
$var reg 32 :" out1[31:0] $end
$var reg 32 ;" out2[31:0] $end
$var reg 32 <" out3[31:0] $end
$var reg 32 =" out4[31:0] $end
$var reg 32 >" sig[31:0] $end
$upscope $end
$upscope $end
$scope module dut8 $end
$var reg 32 ?" rout[31:0] $end
$var reg 32 @" memout[31:0] $end
$comment load_instr is not handled $end
$comment store_instr is not handled $end
$var integer 32 A" ctrl_state $end
$var reg 2 B" adr2[1:0] $end
$var reg 32 C" rin[31:0] $end
$var reg 32 D" memin[31:0] $end
$var reg 4 E" mw[3:0] $end
$var reg 32 F" a[31:0] $end
$var reg 32 G" b[31:0] $end
$var reg 32 H" c[31:0] $end
$var reg 32 I" d[31:0] $end
$upscope $end
$scope module dut9 $end
$var reg 32 J" rd_val[31:0] $end
$var reg 32 K" rn_val[31:0] $end
$var reg 32 L" rs_val[31:0] $end
$var reg 32 M" rm_val[31:0] $end
$comment mul_acc is not handled $end
$var reg 64 N" result[63:0] $end
$var reg 64 O" p_s[63:0] $end
$var reg 64 P" p_u[63:0] $end
$var reg 64 Q" res[63:0] $end
$upscope $end
$upscope $end
$upscope $end
$enddefinitions $end
#0
U!
1"
U#
1$
b00000000000000000000000000000000 %
bUUUUUUUUUUUUUUUUUUUUUUUUUUUUUUUU &
b0000 '
b0000 (
b00000000000000000000000000000000 )
bUUUUUUUUUUUUUUUUUUUUUUUUUUUUUUUU *
b11100011101000000000000000000000 +
bUUUUUUUUUUUUUUUUUUUUUUUUUUUUUUUU ,
b00000000000000000000000000000100 -
b00000000000000000000000000000000 .
b00000000000000000000000000000100 /
00
b0000 1
02
03
04
05
06
07
08
09
0:
0;
0<
b000000000000 =
b00000000 >
b1000000 ?
b0000 @
b00000000000000000000000000000000 A
b00000000000000000000000000000000 B
b00000000000000000000000000000000 C
b00000000000000000000000000000000 D
b00000000000000000000000000000000 E
b0000000000000000000000000000000000000000000000000000000000000000 F
b00000000000000000000000000000000 G
b00000000000000000000000000000000 H
b00000000000000000000000000000000 I
b00000000000000000000000000000000 J
b0 K
b00000000 L
b000000000000000000000000 M
bUUUUUUUUUUUUUUUUUUUUUUUUUUUUUUUU N
b00000000000000000000000000000000 O
b00000 P
b00000000000000000000000000000000 Q
b0000000000000000000000000000000000000000000000000000000000000000 R
0S
b00000000000000000000000000000000 T
b00000000000000000000000000000000 U
0V
0W
b1111 X
b00 Y
b00000000000000000000000000000000 Z
b0000 [
b0000 \
U]
b00000000000000000000000000000000 ^
b0000 _
0`
bUUUUUUUUUUUUUUUUUUUUUUUUUUUUUUUU a
bUUUUUUUUUUUUUUUUUUUUUUUUUUUUUUUU b
b00000000000000000000000000000000 c
b00000000000000000000000000000100 d
b00000000000000000000000000000100 e
0f
0g
Uh
0i
0j
b00000000000000000000000000000100 k
b0000000000000000000000000000000000000000000000000000000000000000 l
0m
0n
0o
0p
0q
0r
b1000000 s
Ut
b00000000000000000000000000000000 u
b11100011101000000000000000000000 v
b0000 w
b0000 x
0y
0z
0{
0|
0}
b00000000000000000000000000000000 !"
b00000 ""
0#"
b00000000000000000000000000000000 $"
0%"
b00000000000000000000000000000000 &"
0'"
b00000000000000000000000000000000 ("
0)"
b00000000000000000000000000000000 *"
b00000 +"
b00000000000000000000000000000000 ,"
0-"
0."
b00000000000000000000000000000000 /"
b00000000000000000000000000000000 0"
b00000000000000000000000000000000 1"
b00000000000000000000000000000000 2"
b00000000000000000000000000000000 3"
b00000000000000000000000000000000 4"
b00000 5"
b00000000000000000000000000000000 6"
07"
08"
b00000000000000000000000000000000 9"
b00000000000000000000000000000000 :"
b00000000000000000000000000000000 ;"
b00000000000000000000000000000000 <"
b00000000000000000000000000000000 ="
b00000000000000000000000000000000 >"
b00000000000000000000000000000000 ?"
b00000000000000000000000000000000 @"
b0 A"
b00 B"
b00000000000000000000000000000000 C"
b00000000000000000000000000000000 D"
b1111 E"
b00000000000000000000000000000000 F"
b00000000000000000000000000000000 G"
b00000000000000000000000000000000 H"
b00000000000000000000000000000000 I"
b00000000000000000000000000000000 J"
b00000000000000000000000000000000 K"
b00000000000000000000000000000000 L"
b00000000000000000000000000000000 M"
b0000000000000000000000000000000000000000000000000000000000000000 N"
b0000000000000000000000000000000000000000000000000000000000000000 O"
b0000000000000000000000000000000000000000000000000000000000000000 P"
b0000000000000000000000000000000000000000000000000000000000000000 Q"
#1000000
0!
0"
0#
0$
0]
0t
#2000000
1!
1#
b00000000000000000000000000000100 &
b00000000000000000000000000000000 +
b00000000000000000000000000000000 -
b00000000000000000000000000000000 /
1<
b0000000 ?
b11100011101000000000000000000000 C
b1 K
b11111111 L
b101000000000000000000000 M
1V
1W
b11100011101000000000000000000000 Z
1]
b00000000000000000000000000000000 d
b00000000000000000000000000000000 e
b00000000000000000000000000000000 k
b0000000 s
1t
b00000000000000000000000000000000 v
b1110 x
1}
b1 A"
#3000000
0!
0#
0]
0t
#4000000
1!
1#
bUUUUUUUUUUUUUUUUUUUUUUUUUUUUUUUU -
bUUUUUUUUUUUUUUUUUUUUUUUUUUUUUUUU .
bUUUUUUUUUUUUUUUUUUUUUUUUUUUUUUUU /
bUUUUUUUUUUUUUUUUUUUUUUUUUUUUUUUU A
bUUUUUUUUUUUUUUUUUUUUUUUUUUUUUUUU B
b10111 K
bUUUUUUUUUUUUUUUUUUUUUUUUUUUUUUUU U
1]
bUUUUUUUUUUUUUUUUUUUUUUUUUUUUUUUU c
bUUUUUUUUUUUUUUUUUUUUUUUUUUUUUUUU d
bUUUUUUUUUUUUUUUUUUUUUUUUUUUUUUUU e
Ui
bUUUUUUUUUUUUUUUUUUUUUUUUUUUUUUUU k
1t
bUUUUUUUUUUUUUUUUUUUUUUUUUUUUUUUU u
bUUUUUUUUUUUUUUUUUUUUUUUUUUUUUUUU ?"
b10111 A"
bUUUUUUUUUUUUUUUUUUUUUUUUUUUUUUUU D"
#5000000
0!
0#
0]
0t
#6000000
1!
1#
b00000000000000000000000000000000 -
b00000000000000000000000000000000 /
b00000000000000000000000000000000 B
b11110 K
b00000000000000000000000000000000 U
1]
b00000000000000000000000000000000 d
b00000000000000000000000000000000 e
0i
b00000000000000000000000000000000 k
1t
b00000000000000000000000000000000 u
b00000000000000000000000000000000 ?"
b11110 A"
b00000000000000000000000000000000 D"
#7000000
0!
0#
0]
0t
#8000000
1!
1#
10
b101000 K
1]
1`
1t
b101000 A"
#9000000
0!
0#
0]
0t
#10000000
1!
1#
b00000000000000000000000000000100 %
b00000000000000000000000000000000 *
b11100011101000000001000000000000 +
b00000000000000000000000000000000 ,
b00000000000000000000000000000100 -
b00000000000000000000000000000100 .
b00000000000000000000000000001000 /
00
b1000001 ?
b0 K
1]
0`
b00000000000000000000000000000000 a
b00000000000000000000000000000000 b
b00000000000000000000000000000100 c
b00000000000000000000000000000100 d
b00000000000000000000000000001000 e
0h
b00000000000000000000000000001000 k
b1000001 s
1t
b11100011101000000001000000000000 v
b0 A"
#11000000
0!
0#
0]
0t
#12000000
1!
1#
b00000000000000000000000000001000 &
b00000000000000000000000000000000 +
b00000000000000000000000000000000 -
bUUUUUUUUUUUUUUUUUUUUUUUUUUUUUUUU .
b00000000000000000000000000000000 /
b0000000 ?
b0001 @
b11100011101000000001000000000000 C
b1 K
b101000000001000000000000 M
b11100011101000000001000000000000 Z
1]
b0001 _
bUUUUUUUUUUUUUUUUUUUUUUUUUUUUUUUU c
b00000000000000000000000000000000 d
b00000000000000000000000000000000 e
b00000000000000000000000000000000 k
b0000000 s
1t
b00000000000000000000000000000000 v
b1 A"
#13000000
0!
0#
0]
0t
#14000000
1!
1#
b0001 (
bUUUUUUUUUUUUUUUUUUUUUUUUUUUUUUUU ,
b00000000000000000000000000000000 .
b00000000000000000000000000000000 A
b10111 K
b0001 \
1]
bUUUUUUUUUUUUUUUUUUUUUUUUUUUUUUUU b
b00000000000000000000000000000000 c
1t
b10111 A"
#15000000
0!
0#
0]
0t
#16000000
1!
1#
b11110 K
1]
1t
b11110 A"
#17000000
0!
0#
0]
0t
#18000000
1!
1#
10
b101000 K
1]
1`
1t
b101000 A"
#19000000
0!
0#
0]
0t
#20000000
1!
1#
b00000000000000000000000000001000 %
b11100011101000000011000000000000 +
b00000000000000000000000000000000 ,
b00000000000000000000000000000100 -
b00000000000000000000000000001000 .
b00000000000000000000000000001100 /
00
b1000010 ?
b0 K
1]
0`
b00000000000000000000000000000000 b
b00000000000000000000000000001000 c
b00000000000000000000000000000100 d
b00000000000000000000000000001100 e
b00000000000000000000000000001100 k
b1000010 s
1t
b11100011101000000011000000000000 v
b0 A"
#21000000
0!
0#
0]
0t
#22000000
1!
1#
b00000000000000000000000000001100 &
b0000 (
b00000000000000000000000000000000 +
b00000000000000000000000000000000 -
b00000000000000000000000000000000 .
b00000000000000000000000000000000 /
b0000000 ?
b0011 @
b11100011101000000011000000000000 C
b1 K
b101000000011000000000000 M
b11100011101000000011000000000000 Z
b0000 \
1]
b0011 _
b00000000000000000000000000000000 c
b00000000000000000000000000000000 d
b00000000000000000000000000000000 e
b00000000000000000000000000000000 k
b0000000 s
1t
b00000000000000000000000000000000 v
b1 A"
#23000000
0!
0#
0]
0t
#24000000
1!
1#
b0011 (
bUUUUUUUUUUUUUUUUUUUUUUUUUUUUUUUU ,
b10111 K
b0011 \
1]
bUUUUUUUUUUUUUUUUUUUUUUUUUUUUUUUU b
1t
b10111 A"
#25000000
0!
0#
0]
0t
#26000000
1!
1#
b11110 K
1]
1t
b11110 A"
#27000000
0!
0#
0]
0t
#28000000
1!
1#
10
b101000 K
1]
1`
1t
b101000 A"
#29000000
0!
0#
0]
0t
#30000000
1!
1#
b00000000000000000000000000001100 %
b11100000100000000000000000000001 +
b00000000000000000000000000000000 ,
b00000000000000000000000000000100 -
b00000000000000000000000000001100 .
b00000000000000000000000000010000 /
00
b1000011 ?
b0 K
1]
0`
b00000000000000000000000000000000 b
b00000000000000000000000000001100 c
b00000000000000000000000000000100 d
b00000000000000000000000000010000 e
b00000000000000000000000000010000 k
b1000011 s
1t
b11100000100000000000000000000001 v
b0 A"
#31000000
0!
0#
0]
0t
#32000000
1!
1#
b00000000000000000000000000010000 &
b0001 (
b00000000000000000000000000000000 +
b00000000000000000000000000000000 -
b00000000000000000000000000000000 .
b00000000000000000000000000000000 /
b000000000001 =
b00000001 >
b0000000 ?
b0000 @
b11100000100000000000000000000001 C
b1 K
b100000000000000000000001 M
0V
0W
b11100000100000000000000000000001 Z
b0001 \
1]
b0000 _
b00000000000000000000000000000000 c
b00000000000000000000000000000000 d
b00000000000000000000000000000000 e
b00000000000000000000000000000000 k
b0000000 s
1t
b00000000000000000000000000000000 v
b1 A"
#33000000
0!
0#
0]
0t
#34000000
1!
1#
b0000 (
b10100 K
b0000 \
1]
1t
b10100 A"
#35000000
0!
0#
0]
0t
#36000000
1!
1#
b11110 K
1]
1t
b11110 A"
#37000000
0!
0#
0]
0t
#38000000
1!
1#
10
b101000 K
1]
1`
1t
b101000 A"
#39000000
0!
0#
0]
0t
#40000000
1!
1#
b00000000000000000000000000010000 %
b11100010100000010001000000000001 +
b00000000000000000000000000000100 -
b00000000000000000000000000010000 .
b00000000000000000000000000010100 /
00
b1000100 ?
b0 K
1]
0`
b00000000000000000000000000010000 c
b00000000000000000000000000000100 d
b00000000000000000000000000010100 e
b00000000000000000000000000010100 k
b1000100 s
1t
b11100010100000010001000000000001 v
b0 A"
#41000000
0!
0#
0]
0t
#42000000
1!
1#
b00000000000000000000000000010100 &
b0001 '
b0001 (
b00000000000000000000000000000000 +
b00000000000000000000000000000000 -
b00000000000000000000000000000000 .
b00000000000000000000000000000000 /
b0000000 ?
b0001 @
b11100010100000010001000000000001 C
b1 K
b100000010001000000000001 M
b11100010100000010001000000000001 Z
b0001 [
b0001 \
1]
b0001 _
b00000000000000000000000000000000 c
b00000000000000000000000000000000 d
b00000000000000000000000000000000 e
b00000000000000000000000000000000 k
b0000000 s
1t
b00000000000000000000000000000000 v
b1 A"
#43000000
0!
0#
0]
0t
#44000000
1!
1#
b10111 K
b00000000000000000000000000000001 O
b00000000000000000000000000000001 Q
1]
1t
b00000000000000000000000000000001 !"
b00000000000000000000000000000001 $"
b00000000000000000000000000000001 &"
b00000000000000000000000000000001 ("
b00000000000000000000000000000001 *"
b00000000000000000000000000000001 ,"
b00000000000000000000000000000001 /"
b00000000000000000000000000000001 0"
b00000000000000000000000000000001 1"
b00000000000000000000000000000001 2"
b00000000000000000000000000000001 3"
b00000000000000000000000000000001 4"
b00000000000000000000000000000001 6"
b00000000000000000000000000000001 9"
b00000000000000000000000000000001 :"
b00000000000000000000000000000001 ;"
b00000000000000000000000000000001 <"
b00000000000000000000000000000001 ="
b10111 A"
#45000000
0!
0#
0]
0t
#46000000
1!
1#
b00000000000000000000000000000001 -
b00000000000000000000000000000001 /
b00000000000000000000000000000001 B
b11110 K
b00000000000000000000000000000001 U
1]
b00000000000000000000000000000001 d
b00000000000000000000000000000001 e
b00000000000000000000000000000001 k
1t
b00000000000000000000000000000001 u
b00000000000000000000000000000001 ?"
b11110 A"
b00000000000000000000000000000001 D"
#47000000
0!
0#
0]
0t
#48000000
1!
1#
b00000000000000000000000000000001 )
10
b00000000000000000000000000000001 E
b101000 K
1]
b00000000000000000000000000000001 ^
1`
1t
b101000 A"
#49000000
0!
0#
0]
0t
#50000000
1!
1#
b00000000000000000000000000010100 %
b00000000000000000000000000000001 *
b11100101100000110000000000000000 +
b00000000000000000000000000000001 ,
b00000000000000000000000000000100 -
b00000000000000000000000000010100 .
b00000000000000000000000000011000 /
00
b1000101 ?
b0 K
1]
0`
b00000000000000000000000000000001 a
b00000000000000000000000000000001 b
b00000000000000000000000000010100 c
b00000000000000000000000000000100 d
b00000000000000000000000000011000 e
b00000000000000000000000000011000 k
b1000101 s
1t
b11100101100000110000000000000000 v
b0 A"
#51000000
0!
0#
0]
0t
#52000000
1!
1#
b00000000000000000000000000011000 &
b0011 '
b0000 (
b00000000000000000000000000000000 *
b00000000000000000000000000000000 +
b00000000000000000000000000000000 ,
b00000000000000000000000000000001 -
b00000000000000000000000000000000 .
b00000000000000000000000000000001 /
b000000000000 =
b00000000 >
b0000000 ?
b0000 @
b11100101100000110000000000000000 C
b1 K
b100000110000000000000000 M
1W
b01 Y
b11100101100000110000000000000000 Z
b0011 [
b0000 \
1]
b0000 _
b00000000000000000000000000000000 a
b00000000000000000000000000000000 b
b00000000000000000000000000000000 c
b00000000000000000000000000000001 d
b00000000000000000000000000000001 e
b00000000000000000000000000000001 k
b0000000 s
1t
b00000000000000000000000000000000 v
b1 A"
b01 B"
#53000000
0!
0#
0]
0t
#54000000
1!
1#
b00000000000000000000000000000000 -
b00000000000000000000000000000000 /
b00000000000000000000000000000000 B
b11001 K
b00000000000000000000000000000000 O
b00000000000000000000000000000000 Q
b00000000000000000000000000000000 U
1]
b00000000000000000000000000000000 d
b00000000000000000000000000000000 e
b00000000000000000000000000000000 k
1t
b00000000000000000000000000000000 u
b00000000000000000000000000000000 !"
b00000000000000000000000000000000 $"
b00000000000000000000000000000000 &"
b00000000000000000000000000000000 ("
b00000000000000000000000000000000 *"
b00000000000000000000000000000000 ,"
b00000000000000000000000000000000 /"
b00000000000000000000000000000000 0"
b00000000000000000000000000000000 1"
b00000000000000000000000000000000 2"
b00000000000000000000000000000000 3"
b00000000000000000000000000000000 4"
b00000000000000000000000000000000 6"
b00000000000000000000000000000000 9"
b00000000000000000000000000000000 :"
b00000000000000000000000000000000 ;"
b00000000000000000000000000000000 <"
b00000000000000000000000000000000 ="
b00000000000000000000000000000000 ?"
b11001 A"
b00000000000000000000000000000000 D"
#55000000
0!
0#
0]
0t
#56000000
1!
1#
b11111 K
b00000000000000000000000000000000 N
1]
1t
b11111 A"
#57000000
0!
0#
0]
0t
#58000000
1!
1#
b00000000000000000000000000000000 )
b1111 1
b00000000000000000000000000000000 E
b101001 K
b00 Y
1]
b00000000000000000000000000000000 ^
1t
b1111 w
b101001 A"
b00 B"
#59000000
0!
0#
0]
0t
#60000000
1!
1#
b00000000000000000000000000011000 %
b11100101100100110000000000000000 +
b00000000000000000000000000000100 -
b00000000000000000000000000011000 .
b00000000000000000000000000011100 /
b0000 1
b1000110 ?
b0 K
1]
b00000000000000000000000000011000 c
b00000000000000000000000000000100 d
b00000000000000000000000000011100 e
b00000000000000000000000000011100 k
b1000110 s
1t
b11100101100100110000000000000000 v
b0000 w
b0 A"
#61000000
0!
0#
0]
0t
#62000000
1!
1#
b00000000000000000000000000011100 &
b00000000000000000000000000000000 +
b00000000000000000000000000000000 -
b00000000000000000000000000000000 .
b00000000000000000000000000000000 /
b0000000 ?
b11100101100100110000000000000000 C
b1 K
b100100110000000000000000 M
b11100101100100110000000000000000 Z
1]
b00000000000000000000000000000000 c
b00000000000000000000000000000000 d
b00000000000000000000000000000000 e
b00000000000000000000000000000000 k
1n
b0000000 s
1t
b00000000000000000000000000000000 v
b1 A"
#63000000
0!
0#
0]
0t
#64000000
1!
1#
b11001 K
1]
1t
b11001 A"
#65000000
0!
0#
0]
0t
#66000000
1!
1#
b11111 K
1]
1t
b11111 A"
#67000000
0!
0#
0]
0t
#68000000
1!
1#
b101010 K
1]
1t
b101010 A"
#69000000
0!
0#
0]
0t
#70000000
1!
1#
10
b110010 K
1]
1`
1t
b110010 A"
#71000000
0!
0#
0]
0t
#72000000
1!
1#
b00000000000000000000000000011100 %
b11100000000101000000000110010000 +
b00000000000000000000000000000100 -
b00000000000000000000000000011100 .
b00000000000000000000000000100000 /
00
b1000111 ?
b0 K
1]
0`
b00000000000000000000000000011100 c
b00000000000000000000000000000100 d
b00000000000000000000000000100000 e
b00000000000000000000000000100000 k
b1000111 s
1t
b11100000000101000000000110010000 v
b0 A"
#73000000
0!
0#
0]
0t
#74000000
1!
1#
b00000000000000000000000000100000 &
b0100 '
bUUUUUUUUUUUUUUUUUUUUUUUUUUUUUUUU *
b00000000000000000000000000000000 +
b00000000000000000000000000000000 -
b00000000000000000000000000000000 .
b00000000000000000000000000000000 /
14
b000110010000 =
b10010000 >
b0000000 ?
b11100000000101000000000110010000 C
b1 K
b00000000 L
b000101000000000110010000 M
b00011 P
0W
b11100000000101000000000110010000 Z
b0100 [
1]
bUUUUUUUUUUUUUUUUUUUUUUUUUUUUUUUU a
b00000000000000000000000000000000 c
b00000000000000000000000000000000 d
b00000000000000000000000000000000 e
Uh
b00000000000000000000000000000000 k
1o
b0000000 s
1t
b00000000000000000000000000000000 v
b00011 ""
b00011 +"
b00011 5"
b1 A"
#75000000
0!
0#
0]
0t
#76000000
1!
1#
b0000 '
b0001 (
b00000000000000000000000000000000 *
b00000000000000000000000000000001 ,
bUUUUUUUUUUUUUUUUUUUUUUUUUUUUUUUU .
bUUUUUUU ?
bUUUUUUUUUUUUUUUUUUUUUUUUUUUUUUUU A
b11010 K
bUU Y
b0000 [
b0001 \
1]
b00000000000000000000000000000000 a
b00000000000000000000000000000001 b
bUUUUUUUUUUUUUUUUUUUUUUUUUUUUUUUU c
0h
bUUUUUUU s
1t
b11010 A"
bUU B"
#77000000
0!
0#
0]
0t
#78000000
1!
1#
b0100 '
b0000 (
bUUUUUUUUUUUUUUUUUUUUUUUUUUUUUUUU *
b00000000000000000000000000000000 ,
b00000000000000000000000000000001 I
b100001 K
b0100 [
b0000 \
1]
bUUUUUUUUUUUUUUUUUUUUUUUUUUUUUUUU a
b00000000000000000000000000000000 b
Uh
1t
b100001 A"
b00000000000000000000000000000001 L"
#79000000
0!
0#
0]
0t
#80000000
1!
1#
bUUUUUUUUUUUUUUUUUUUUUUUUUUUUUUUU J
b101011 K
1]
1t
b101011 A"
bUUUUUUUUUUUUUUUUUUUUUUUUUUUUUUUU J"
#81000000
0!
0#
0]
0t
#82000000
1!
1#
18
b0100 @
b110011 K
1]
b0100 _
1t
1y
b110011 A"
#83000000
0!
0#
0]
0t
#84000000
1!
1#
10
b110 K
1]
1`
1t
b110 A"
#85000000
0!
0#
0]
0t
#86000000
1!
1#
b00000000000000000000000000100000 %
b00000000000000000000000000000000 *
b11100011010100010000000000000011 +
b00000000000000000000000000000100 -
b00000000000000000000000000100000 .
b00000000000000000000000000100100 /
00
b1001000 ?
b0000 @
b0 K
1]
b0000 _
0`
b00000000000000000000000000000000 a
b00000000000000000000000000100000 c
b00000000000000000000000000000100 d
b00000000000000000000000000100100 e
0h
b00000000000000000000000000100100 k
b1001000 s
1t
b11100011010100010000000000000011 v
b0 A"
#87000000
0!
0#
0]
0t
#88000000
1!
1#
b00000000000000000000000000100100 &
b0001 '
b0011 (
b00000000000000000000000000000001 *
b00000000000000000000000000000000 +
b00000000000000000000000000000000 -
bUUUUUUUUUUUUUUUUUUUUUUUUUUUUUUUU .
bXXXXXXXXXXXXXXXXXXXXXXXXXXXXXXXX /
X2
04
X5
X6
X7
b000000000011 =
b00000011 >
b0000000 ?
b11100011010100010000000000000011 C
b1 K
b010100010000000000000011 M
b00000 P
bXXXXXXXXXXXXXXXXXXXXXXXXXXXXXXXXXXXXXXXXXXXXXXXXXXXXXXXXXXXXXXXX R
1W
b00 Y
b11100011010100010000000000000011 Z
b0001 [
b0011 \
1]
b00000000000000000000000000000001 a
bUUUUUUUUUUUUUUUUUUUUUUUUUUUUUUUU c
b00000000000000000000000000000000 d
bXXXXXXXXXXXXXXXXXXXXXXXXXXXXXXXX e
Xg
Xj
bXXXXXXXXXXXXXXXXXXXXXXXXXXXXXXXX k
bXXXXXXXXXXXXXXXXXXXXXXXXXXXXXXXXXXXXXXXXXXXXXXXXXXXXXXXXXXXXXXXX l
0o
Xp
Xq
Xr
b0000000 s
1t
b00000000000000000000000000000000 v
b00000 ""
b00000 +"
b00000 5"
b1 A"
b00 B"
bXXXXXXXXXXXXXXXXXXXXXXXXXXXXXXXXXXXXXXXXXXXXXXXXXXXXXXXXXXXXXXXX N"
#89000000
0!
0#
0]
0t
#90000000
1!
1#
b0000 (
b00000000000000000000000000000001 .
b00000000000000000000000000000001 /
12
05
06
17
b00000000000000000000000000000001 A
b10111 K
b00000000000000000000000000000011 O
b00000000000000000000000000000011 Q
b0000 \
1]
b00000000000000000000000000000001 c
b00000000000000000000000000000001 e
1g
1j
b00000000000000000000000000000001 k
0p
0q
1r
1t
b00000000000000000000000000000011 !"
b00000000000000000000000000000011 $"
b00000000000000000000000000000011 &"
b00000000000000000000000000000011 ("
b00000000000000000000000000000011 *"
b00000000000000000000000000000011 ,"
b00000000000000000000000000000011 /"
b00000000000000000000000000000011 0"
b00000000000000000000000000000011 1"
b00000000000000000000000000000011 2"
b00000000000000000000000000000011 3"
b00000000000000000000000000000011 4"
b00000000000000000000000000000011 6"
b00000000000000000000000000000011 9"
b00000000000000000000000000000011 :"
b00000000000000000000000000000011 ;"
b00000000000000000000000000000011 <"
b00000000000000000000000000000011 ="
b10111 A"
#91000000
0!
0#
0]
0t
#92000000
1!
1#
b00000000000000000000000000000011 -
b11111111111111111111111111111110 /
02
15
16
07
b00000000000000000000000000000011 B
b11110 K
b00000000000000000000000000000011 U
1]
b00000000000000000000000000000011 d
b11111111111111111111111111111110 e
0g
0j
b11111111111111111111111111111110 k
1p
1q
0r
1t
b00000000000000000000000000000011 u
b00000000000000000000000000000011 ?"
b11110 A"
b00000000000000000000000000000011 D"
#93000000
0!
0#
0]
0t
#94000000
1!
1#
b11111111111111111111111111111110 )
08
19
1:
b1111111 ?
b11111111111111111111111111111110 E
b101000 K
b10 Y
1]
b11111111111111111111111111111110 ^
b1111111 s
1t
0y
1z
1|
b101000 A"
b10 B"
#95000000
0!
0#
0]
0t
#96000000
1!
1#
b00000000000000000000000000100100 %
b00011010111111111111111111111000 +
b00000000000000000000000000000100 -
b00000000000000000000000000100100 .
b00000000000000000000000000101000 /
05
06
b1001001 ?
b0 K
1]
b00000000000000000000000000100100 c
b00000000000000000000000000000100 d
b00000000000000000000000000101000 e
b00000000000000000000000000101000 k
0p
0q
b1001001 s
1t
b00011010111111111111111111111000 v
b0 A"
#97000000
0!
0#
0]
0t
