Assignment2/Stage7/wave.vcd
$date
  Thu Mar 24 22:10:07 2022
$end
$version
  GHDL v0
$end
$timescale
  1 fs
$end
$scope module standard $end
$upscope $end
$scope module std_logic_1164 $end
$upscope $end
$scope module numeric_std $end
$upscope $end
$scope module mytypes $end
$upscope $end
$scope module testbench $end
$var reg 1 ! clk $end
$var reg 1 " reset $end
$scope module uut $end
$var reg 1 # clk $end
$var reg 1 $ reset $end
$var reg 32 % pcin[31:0] $end
$var reg 32 & pcout[31:0] $end
$comment instr_class is not handled $end
$comment op is not handled $end
$comment dp_subclass is not handled $end
$comment dp_operand_src is not handled $end
$comment load_store is not handled $end
$comment dt_offset_sign is not handled $end
$comment store_instr is not handled $end
$comment load_instr is not handled $end
$comment mul_acc is not handled $end
$var reg 4 ' rad1[3:0] $end
$var reg 4 ( rad2[3:0] $end
$var reg 1 ) sbit $end
$var reg 32 * wd[31:0] $end
$var reg 32 + rd1[31:0] $end
$var reg 32 , rd[31:0] $end
$var reg 32 - rd2[31:0] $end
$var reg 32 . alu2[31:0] $end
$var reg 32 / alu1[31:0] $end
$var reg 32 0 result[31:0] $end
$var reg 1 1 rw $end
$var reg 4 2 mw[3:0] $end
$var reg 1 3 cout $end
$var reg 1 4 cin $end
$var reg 1 5 zf $end
$var reg 1 6 nf $end
$var reg 1 7 vf $end
$var reg 1 8 cf $end
$var reg 1 9 zflag $end
$var reg 1 : nflag $end
$var reg 1 ; vflag $end
$var reg 1 < cflag $end
$var reg 1 = p $end
$var reg 12 > offset[11:0] $end
$var reg 8 ? immd[7:0] $end
$var reg 7 @ addr[6:0] $end
$var reg 4 A addw[3:0] $end
$comment opalu is not handled $end
$var reg 32 B a[31:0] $end
$var reg 32 C b[31:0] $end
$var reg 32 D ir[31:0] $end
$var reg 32 E dr[31:0] $end
$var reg 32 F res[31:0] $end
$var reg 64 G res_64[63:0] $end
$var reg 32 H rm_val[31:0] $end
$var reg 32 I rn_val[31:0] $end
$var reg 32 J rs_val[31:0] $end
$var reg 32 K rd_val[31:0] $end
$var integer 32 L curr $end
$var reg 8 M s_ext[7:0] $end
$var reg 24 N s_offset[23:0] $end
$var reg 32 O c[31:0] $end
$var reg 32 P shift_data[31:0] $end
$var reg 5 Q shift_amt[4:0] $end
$comment shift_typ is not handled $end
$comment shift_ty is not handled $end
$comment dt_operand_src is not handled $end
$comment shift_operand_src is not handled $end
$var reg 32 R oupt[31:0] $end
$var reg 64 S mul_res[63:0] $end
$var reg 1 T cout_s $end
$var reg 32 U rin[31:0] $end
$var reg 32 V memin[31:0] $end
$var reg 1 W w $end
$var reg 1 X pi $end
$var reg 4 Y mw_pm[3:0] $end
$var reg 2 Z adr2[1:0] $end
$scope module dut1 $end
$var reg 32 [ instruction[31:0] $end
$comment instr_class is not handled $end
$comment operation is not handled $end
$comment dp_subclass is not handled $end
$comment dp_operand_src is not handled $end
$comment dt_operand_src is not handled $end
$comment load_store is not handled $end
$comment dt_offset_sign is not handled $end
$comment load_instr is not handled $end
$comment store_instr is not handled $end
$comment shift_operand_src is not handled $end
$comment shift_typ is not handled $end
$comment mul_acc is not handled $end
$upscope $end
$scope module dut2 $end
$var reg 4 \ rd1[3:0] $end
$var reg 4 ] rd2[3:0] $end
$var reg 1 ^ clk $end
$var reg 32 _ data[31:0] $end
$var reg 4 ` wad[3:0] $end
$var reg 1 a wn $end
$var reg 32 b dd1[31:0] $end
$var reg 32 c dd2[31:0] $end
$comment reg is not handled $end
$upscope $end
$scope module dut3 $end
$var reg 32 d a[31:0] $end
$var reg 32 e b[31:0] $end
$comment opcode is not handled $end
$var reg 32 f res[31:0] $end
$var reg 1 g cin $end
$var reg 1 h cout $end
$upscope $end
$scope module dut4 $end
$var reg 1 i msba $end
$var reg 1 j msbb $end
$var reg 1 k cout $end
$var reg 32 l res[31:0] $end
$var reg 1 m shiftout $end
$var reg 32 n instr[31:0] $end
$comment dp_subclass is not handled $end
$var reg 1 o sbit $end
$var reg 1 p zflag $end
$var reg 1 q nflag $end
$var reg 1 r vflag $end
$var reg 1 s cflag $end
$upscope $end
$scope module dut5 $end
$var reg 7 t addr[6:0] $end
$var reg 1 u clk $end
$var reg 32 v din[31:0] $end
$var reg 32 w dout[31:0] $end
$var reg 4 x wn[3:0] $end
$comment dmem is not handled $end
$upscope $end
$scope module dut6 $end
$var reg 4 y condition[3:0] $end
$var reg 1 z zflag $end
$var reg 1 { vflag $end
$var reg 1 | cflag $end
$var reg 1 } nflag $end
$var reg 1 !" predicate $end
$upscope $end
$scope module dut7 $end
$var reg 32 "" inp[31:0] $end
$var reg 5 #" amt[4:0] $end
$comment typ is not handled $end
$var reg 1 $" carry_in $end
$var reg 32 %" oupt[31:0] $end
$var reg 1 &" carry_out $end
$var reg 32 '" ouptl[31:0] $end
$var reg 1 (" carry_outl $end
$var reg 32 )" ouptr[31:0] $end
$var reg 1 *" carry_outr $end
$scope module dutl $end
$var reg 32 +" inp[31:0] $end
$var reg 5 ," amt[4:0] $end
$var reg 32 -" oupt[31:0] $end
$var reg 1 ." carry_in $end
$var reg 1 /" carry_out $end
$var reg 32 0" out0[31:0] $end
$var reg 32 1" out1[31:0] $end
$var reg 32 2" out2[31:0] $end
$var reg 32 3" out3[31:0] $end
$var reg 32 4" out4[31:0] $end
$upscope $end
$scope module dutr $end
$var reg 32 5" inp[31:0] $end
$var reg 5 6" amt[4:0] $end
$comment typ is not handled $end
$var reg 32 7" oupt[31:0] $end
$var reg 1 8" carry_in $end
$var reg 1 9" carry_out $end
$var reg 32 :" out0[31:0] $end
$var reg 32 ;" out1[31:0] $end
$var reg 32 <" out2[31:0] $end
$var reg 32 =" out3[31:0] $end
$var reg 32 >" out4[31:0] $end
$var reg 32 ?" sig[31:0] $end
$upscope $end
$upscope $end
$scope module dut8 $end
$var reg 32 @" rout[31:0] $end
$var reg 32 A" memout[31:0] $end
$comment load_instr is not handled $end
$comment store_instr is not handled $end
$var integer 32 B" ctrl_state $end
$var reg 2 C" adr2[1:0] $end
$var reg 32 D" rin[31:0] $end
$var reg 32 E" memin[31:0] $end
$var reg 4 F" mw[3:0] $end
$var reg 32 G" a[31:0] $end
$var reg 32 H" b[31:0] $end
$var reg 32 I" c[31:0] $end
$var reg 32 J" d[31:0] $end
$upscope $end
$scope module dut9 $end
$var reg 32 K" rd_val[31:0] $end
$var reg 32 L" rn_val[31:0] $end
$var reg 32 M" rs_val[31:0] $end
$var reg 32 N" rm_val[31:0] $end
$comment mul_acc is not handled $end
$var reg 64 O" result[63:0] $end
$var reg 64 P" p_s[63:0] $end
$var reg 64 Q" p_u[63:0] $end
$var reg 64 R" res[63:0] $end
$upscope $end
$upscope $end
$upscope $end
$enddefinitions $end
#0
U!
1"
U#
1$
b00000000000000000000000000000000 %
bUUUUUUUUUUUUUUUUUUUUUUUUUUUUUUUU &
bUUUU '
bUUUU (
0)
bUUUUUUUUUUUUUUUUUUUUUUUUUUUUUUUU *
bUUUUUUUUUUUUUUUUUUUUUUUUUUUUUUUU +
b11100011101000000000000000000010 ,
bUUUUUUUUUUUUUUUUUUUUUUUUUUUUUUUU -
b00000000000000000000000000000100 .
b00000000000000000000000000000000 /
b00000000000000000000000000000100 0
01
b0000 2
03
04
05
06
07
08
09
0:
0;
0<
1=
bUUUUUUUUUUUU >
bUUUUUUUU ?
b1000000 @
bUUUU A
bUUUUUUUUUUUUUUUUUUUUUUUUUUUUUUUU B
bUUUUUUUUUUUUUUUUUUUUUUUUUUUUUUUU C
bUUUUUUUUUUUUUUUUUUUUUUUUUUUUUUUU D
bUUUUUUUUUUUUUUUUUUUUUUUUUUUUUUUU E
bUUUUUUUUUUUUUUUUUUUUUUUUUUUUUUUU F
bUUUUUUUUUUUUUUUUUUUUUUUUUUUUUUUUUUUUUUUUUUUUUUUUUUUUUUUUUUUUUUUU G
bUUUUUUUUUUUUUUUUUUUUUUUUUUUUUUUU H
bUUUUUUUUUUUUUUUUUUUUUUUUUUUUUUUU I
bUUUUUUUUUUUUUUUUUUUUUUUUUUUUUUUU J
bUUUUUUUUUUUUUUUUUUUUUUUUUUUUUUUU K
b0 L
b00000000 M
bUUUUUUUUUUUUUUUUUUUUUUUU N
bUUUUUUUUUUUUUUUUUUUUUUUUUUUUUUUU O
bUUUUUUUUUUUUUUUUUUUUUUUUUUUUUUUU P
bUUUUU Q
bUUUUUUUUUUUUUUUUUUUUUUUUUUUUUUUU R
bXXXXXXXXXXXXXXXXXXXXXXXXXXXXXXXXXXXXXXXXXXXXXXXXXXXXXXXXXXXXXXXX S
0T
bUUUUUUUUUUUUUUUUUUUUUUUUUUUUUUUU U
bUUUUUUUUUUUUUUUUUUUUUUUUUUUUUUUU V
UW
UX
b1111 Y
bUU Z
bUUUUUUUUUUUUUUUUUUUUUUUUUUUUUUUU [
bUUUU \
bUUUU ]
U^
bUUUUUUUUUUUUUUUUUUUUUUUUUUUUUUUU _
bUUUU `
0a
bUUUUUUUUUUUUUUUUUUUUUUUUUUUUUUUU b
bUUUUUUUUUUUUUUUUUUUUUUUUUUUUUUUU c
b00000000000000000000000000000000 d
b00000000000000000000000000000100 e
b00000000000000000000000000000100 f
0g
0h
Ui
0j
0k
b00000000000000000000000000000100 l
0m
bUUUUUUUUUUUUUUUUUUUUUUUUUUUUUUUU n
Uo
0p
0q
0r
0s
b1000000 t
Uu
bUUUUUUUUUUUUUUUUUUUUUUUUUUUUUUUU v
b11100011101000000000000000000010 w
b0000 x
bUUUU y
0z
0{
0|
0}
1!"
bUUUUUUUUUUUUUUUUUUUUUUUUUUUUUUUU ""
bUUUUU #"
0$"
bUUUUUUUUUUUUUUUUUUUUUUUUUUUUUUUU %"
0&"
bUUUUUUUUUUUUUUUUUUUUUUUUUUUUUUUU '"
0("
bUUUUUUUUUUUUUUUUUUUUUUUUUUUUUUUU )"
0*"
bUUUUUUUUUUUUUUUUUUUUUUUUUUUUUUUU +"
bUUUUU ,"
bUUUUUUUUUUUUUUUUUUUUUUUUUUUUUUUU -"
0."
0/"
bUUUUUUUUUUUUUUUUUUUUUUUUUUUUUUUU 0"
bUUUUUUUUUUUUUUUUUUUUUUUUUUUUUUUU 1"
bUUUUUUUUUUUUUUUUUUUUUUUUUUUUUUUU 2"
bUUUUUUUUUUUUUUUUUUUUUUUUUUUUUUUU 3"
bUUUUUUUUUUUUUUUUUUUUUUUUUUUUUUUU 4"
bUUUUUUUUUUUUUUUUUUUUUUUUUUUUUUUU 5"
bUUUUU 6"
bUUUUUUUUUUUUUUUUUUUUUUUUUUUUUUUU 7"
08"
09"
bUUUUUUUUUUUUUUUUUUUUUUUUUUUUUUUU :"
bUUUUUUUUUUUUUUUUUUUUUUUUUUUUUUUU ;"
bUUUUUUUUUUUUUUUUUUUUUUUUUUUUUUUU <"
bUUUUUUUUUUUUUUUUUUUUUUUUUUUUUUUU ="
bUUUUUUUUUUUUUUUUUUUUUUUUUUUUUUUU >"
bUUUUUUUUUUUUUUUUUUUUUUUUUUUUUUUU ?"
bUUUUUUUUUUUUUUUUUUUUUUUUUUUUUUUU @"
bUUUUUUUUUUUUUUUUUUUUUUUUUUUUUUUU A"
b0 B"
bUU C"
bUUUUUUUUUUUUUUUUUUUUUUUUUUUUUUUU D"
bUUUUUUUUUUUUUUUUUUUUUUUUUUUUUUUU E"
b1111 F"
bUUUUUUUUUUUUUUUUUUUUUUUUUUUUUUUU G"
bUUUUUUUUUUUUUUUUUUUUUUUUUUUUUUUU H"
bUUUUUUUUUUUUUUUUUUUUUUUUUUUUUUUU I"
bUUUUUUUUUUUUUUUUUUUUUUUUUUUUUUUU J"
bUUUUUUUUUUUUUUUUUUUUUUUUUUUUUUUU K"
bUUUUUUUUUUUUUUUUUUUUUUUUUUUUUUUU L"
bUUUUUUUUUUUUUUUUUUUUUUUUUUUUUUUU M"
bUUUUUUUUUUUUUUUUUUUUUUUUUUUUUUUU N"
bXXXXXXXXXXXXXXXXXXXXXXXXXXXXXXXXXXXXXXXXXXXXXXXXXXXXXXXXXXXXXXXX O"
b0000000000000000000000000000000000000000000000000000000000000000 P"
b0000000000000000000000000000000000000000000000000000000000000000 Q"
b0000000000000000000000000000000000000000000000000000000000000000 R"
#1000000
0!
0"
0#
0$
0^
0u
#2000000
1!
1#
b00000000000000000000000000000100 &
b0000 '
b0010 (
b00000000000000000000000000000000 ,
bUUUUUUUUUUUUUUUUUUUUUUUUUUUUUUUU .
bUUUUUUUUUUUUUUUUUUUUUUUUUUUUUUUU /
bUUUUUUUUUUUUUUUUUUUUUUUUUUUUUUUU 0
b000000000010 >
b00000010 ?
bUUUUUUU @
b0000 A
b11100011101000000000000000000010 D
b1 L
b11111111 M
b101000000000000000000010 N
b00000 Q
1W
1X
b11100011101000000000000000000010 [
b0000 \
b0010 ]
1^
b0000 `
bUUUUUUUUUUUUUUUUUUUUUUUUUUUUUUUU d
bUUUUUUUUUUUUUUUUUUUUUUUUUUUUUUUU e
bUUUUUUUUUUUUUUUUUUUUUUUUUUUUUUUU f
Uj
bUUUUUUUUUUUUUUUUUUUUUUUUUUUUUUUU l
b11100011101000000000000000000010 n
0o
bUUUUUUU t
1u
b00000000000000000000000000000000 w
b1110 y
b00000 #"
b00000 ,"
b00000 6"
b1 B"
#3000000
0!
0#
0^
0u
#4000000
1!
1#
b0000 (
b10111 L
b00000000000000000000000000000010 P
b00000000000000000000000000000010 R
b0000 ]
1^
1u
b00000000000000000000000000000010 ""
b00000000000000000000000000000010 %"
b00000000000000000000000000000010 '"
b00000000000000000000000000000010 )"
b00000000000000000000000000000010 +"
b00000000000000000000000000000010 -"
b00000000000000000000000000000010 0"
b00000000000000000000000000000010 1"
b00000000000000000000000000000010 2"
b00000000000000000000000000000010 3"
b00000000000000000000000000000010 4"
b00000000000000000000000000000010 5"
b00000000000000000000000000000010 7"
b00000000000000000000000000000010 :"
b00000000000000000000000000000010 ;"
b00000000000000000000000000000010 <"
b00000000000000000000000000000010 ="
b00000000000000000000000000000010 >"
b00000000000000000000000000000000 ?"
b10111 B"
#5000000
0!
0#
0^
0u
#6000000
1!
1#
b00000000000000000000000000000010 .
b00000000000000000000000000000010 0
b00000000000000000000000000000010 C
b11110 L
b00000000000000000000000000000010 V
1^
b00000000000000000000000000000010 e
b00000000000000000000000000000010 f
0j
b00000000000000000000000000000010 l
1u
b00000000000000000000000000000010 v
b00000000000000000000000000000010 @"
b11110 B"
b00000000000000000000000000000010 E"
#7000000
0!
0#
0^
0u
#8000000
1!
1#
b00000000000000000000000000000010 *
11
b0000000 @
b00000000000000000000000000000010 F
b101000 L
b10 Z
1^
b00000000000000000000000000000010 _
1a
b0000000 t
1u
b101000 B"
b10 C"
#9000000
0!
0#
0^
0u
#10000000
1!
1#
b00000000000000000000000000000100 %
b00000000000000000000000000000010 +
b11100011101000000001000000000101 ,
b00000000000000000000000000000010 -
b00000000000000000000000000000100 .
b00000000000000000000000000000100 /
b00000000000000000000000000001000 0
01
b1000001 @
b0 L
1^
0a
b00000000000000000000000000000010 b
b00000000000000000000000000000010 c
b00000000000000000000000000000100 d
b00000000000000000000000000000100 e
b00000000000000000000000000001000 f
0i
b00000000000000000000000000001000 l
b1000001 t
1u
b11100011101000000001000000000101 w
b0 B"
#11000000
0!
0#
0^
0u
#12000000
1!
1#
b00000000000000000000000000001000 &
b0101 (
b00000000000000000000000000000000 ,
bUUUUUUUUUUUUUUUUUUUUUUUUUUUUUUUU -
b00000000000000000000000000000010 .
bUUUUUUUUUUUUUUUUUUUUUUUUUUUUUUUU /
b00000000000000000000000000000010 0
b000000000101 >
b00000101 ?
b0000000 @
b0001 A
b11100011101000000001000000000101 D
b1 L
b101000000001000000000101 N
b11100011101000000001000000000101 [
b0101 ]
1^
b0001 `
bUUUUUUUUUUUUUUUUUUUUUUUUUUUUUUUU c
bUUUUUUUUUUUUUUUUUUUUUUUUUUUUUUUU d
b00000000000000000000000000000010 e
b00000000000000000000000000000010 f
b00000000000000000000000000000010 l
b11100011101000000001000000000101 n
b0000000 t
1u
b00000000000000000000000000000000 w
b1 B"
#13000000
0!
0#
0^
0u
#14000000
1!
1#
b0001 (
bUUUUUUUUUUUUUUUUUUUUUUUUUUUUUUUU .
b00000000000000000000000000000010 /
bUUUUUUUUUUUUUUUUUUUUUUUUUUUUUUUU 0
b00000000000000000000000000000010 B
bUUUUUUUUUUUUUUUUUUUUUUUUUUUUUUUU C
b10111 L
b00000000000000000000000000000101 P
b00000000000000000000000000000101 R
bUUUUUUUUUUUUUUUUUUUUUUUUUUUUUUUU V
b0001 ]
1^
b00000000000000000000000000000010 d
bUUUUUUUUUUUUUUUUUUUUUUUUUUUUUUUU e
bUUUUUUUUUUUUUUUUUUUUUUUUUUUUUUUU f
Uj
bUUUUUUUUUUUUUUUUUUUUUUUUUUUUUUUU l
1u
bUUUUUUUUUUUUUUUUUUUUUUUUUUUUUUUU v
b00000000000000000000000000000101 ""
b00000000000000000000000000000101 %"
b00000000000000000000000000000101 '"
b00000000000000000000000000000101 )"
b00000000000000000000000000000101 +"
b00000000000000000000000000000101 -"
b00000000000000000000000000000101 0"
b00000000000000000000000000000101 1"
b00000000000000000000000000000101 2"
b00000000000000000000000000000101 3"
b00000000000000000000000000000101 4"
b00000000000000000000000000000101 5"
b00000000000000000000000000000101 7"
b00000000000000000000000000000101 :"
b00000000000000000000000000000101 ;"
b00000000000000000000000000000101 <"
b00000000000000000000000000000101 ="
b00000000000000000000000000000101 >"
bUUUUUUUUUUUUUUUUUUUUUUUUUUUUUUUU @"
b10111 B"
bUUUUUUUUUUUUUUUUUUUUUUUUUUUUUUUU E"
#15000000
0!
0#
0^
0u
#16000000
1!
1#
b00000000000000000000000000000101 .
b00000000000000000000000000000101 0
b00000000000000000000000000000101 C
b11110 L
b00000000000000000000000000000101 V
1^
b00000000000000000000000000000101 e
b00000000000000000000000000000101 f
0j
b00000000000000000000000000000101 l
1u
b00000000000000000000000000000101 v
b00000000000000000000000000000101 @"
b11110 B"
b00000000000000000000000000000101 E"
#17000000
0!
0#
0^
0u
#18000000
1!
1#
b00000000000000000000000000000101 *
11
b0000001 @
b00000000000000000000000000000101 F
b101000 L
b01 Z
1^
b00000000000000000000000000000101 _
1a
b0000001 t
1u
b101000 B"
b01 C"
#19000000
0!
0#
0^
0u
#20000000
1!
1#
b00000000000000000000000000001000 %
b11100011101000000010000000001010 ,
b00000000000000000000000000000101 -
b00000000000000000000000000000100 .
b00000000000000000000000000001000 /
b00000000000000000000000000001100 0
01
b1000010 @
b0 L
1^
0a
b00000000000000000000000000000101 c
b00000000000000000000000000001000 d
b00000000000000000000000000000100 e
b00000000000000000000000000001100 f
b00000000000000000000000000001100 l
b1000010 t
1u
b11100011101000000010000000001010 w
b0 B"
#21000000
0!
0#
0^
0u
#22000000
1!
1#
b00000000000000000000000000001100 &
b1010 (
b00000000000000000000000000000000 ,
bUUUUUUUUUUUUUUUUUUUUUUUUUUUUUUUU -
b00000000000000000000000000000101 .
b00000000000000000000000000000010 /
b00000000000000000000000000000101 0
b000000001010 >
b00001010 ?
b0000001 @
b0010 A
b11100011101000000010000000001010 D
b1 L
b101000000010000000001010 N
b11100011101000000010000000001010 [
b1010 ]
1^
b0010 `
bUUUUUUUUUUUUUUUUUUUUUUUUUUUUUUUU c
b00000000000000000000000000000010 d
b00000000000000000000000000000101 e
b00000000000000000000000000000101 f
b00000000000000000000000000000101 l
b11100011101000000010000000001010 n
b0000001 t
1u
b00000000000000000000000000000000 w
b1 B"
#23000000
0!
0#
0^
0u
#24000000
1!
1#
b0010 (
bUUUUUUUUUUUUUUUUUUUUUUUUUUUUUUUU .
bUUUUUUUUUUUUUUUUUUUUUUUUUUUUUUUU 0
bUUUUUUUUUUUUUUUUUUUUUUUUUUUUUUUU C
b10111 L
b00000000000000000000000000001010 P
b00000000000000000000000000001010 R
bUUUUUUUUUUUUUUUUUUUUUUUUUUUUUUUU V
b0010 ]
1^
bUUUUUUUUUUUUUUUUUUUUUUUUUUUUUUUU e
bUUUUUUUUUUUUUUUUUUUUUUUUUUUUUUUU f
Uj
bUUUUUUUUUUUUUUUUUUUUUUUUUUUUUUUU l
1u
bUUUUUUUUUUUUUUUUUUUUUUUUUUUUUUUU v
b00000000000000000000000000001010 ""
b00000000000000000000000000001010 %"
b00000000000000000000000000001010 '"
b00000000000000000000000000001010 )"
b00000000000000000000000000001010 +"
b00000000000000000000000000001010 -"
b00000000000000000000000000001010 0"
b00000000000000000000000000001010 1"
b00000000000000000000000000001010 2"
b00000000000000000000000000001010 3"
b00000000000000000000000000001010 4"
b00000000000000000000000000001010 5"
b00000000000000000000000000001010 7"
b00000000000000000000000000001010 :"
b00000000000000000000000000001010 ;"
b00000000000000000000000000001010 <"
b00000000000000000000000000001010 ="
b00000000000000000000000000001010 >"
bUUUUUUUUUUUUUUUUUUUUUUUUUUUUUUUU @"
b10111 B"
bUUUUUUUUUUUUUUUUUUUUUUUUUUUUUUUU E"
#25000000
0!
0#
0^
0u
#26000000
1!
1#
b00000000000000000000000000001010 .
b00000000000000000000000000001010 0
b00000000000000000000000000001010 C
b11110 L
b00000000000000000000000000001010 V
1^
b00000000000000000000000000001010 e
b00000000000000000000000000001010 f
0j
b00000000000000000000000000001010 l
1u
b00000000000000000000000000001010 v
b00000000000000000000000000001010 @"
b11110 B"
b00000000000000000000000000001010 E"
#27000000
0!
0#
0^
0u
#28000000
1!
1#
b00000000000000000000000000001010 *
11
b0000010 @
b00000000000000000000000000001010 F
b101000 L
b10 Z
1^
b00000000000000000000000000001010 _
1a
b0000010 t
1u
b101000 B"
b10 C"
#29000000
0!
0#
0^
0u
#30000000
1!
1#
b00000000000000000000000000001100 %
b11100011101000000011000000000000 ,
b00000000000000000000000000001010 -
b00000000000000000000000000000100 .
b00000000000000000000000000001100 /
b00000000000000000000000000010000 0
01
b1000011 @
b0 L
1^
0a
b00000000000000000000000000001010 c
b00000000000000000000000000001100 d
b00000000000000000000000000000100 e
b00000000000000000000000000010000 f
b00000000000000000000000000010000 l
b1000011 t
1u
b11100011101000000011000000000000 w
b0 B"
#31000000
0!
0#
0^
0u
#32000000
1!
1#
b00000000000000000000000000010000 &
b0000 (
b00000000000000000000000000000000 ,
b00000000000000000000000000000010 -
b00000000000000000000000000001010 .
b00000000000000000000000000000010 /
b00000000000000000000000000001010 0
b000000000000 >
b00000000 ?
b0000010 @
b0011 A
b11100011101000000011000000000000 D
b1 L
b101000000011000000000000 N
b11100011101000000011000000000000 [
b0000 ]
1^
b0011 `
b00000000000000000000000000000010 c
b00000000000000000000000000000010 d
b00000000000000000000000000001010 e
b00000000000000000000000000001010 f
b00000000000000000000000000001010 l
b11100011101000000011000000000000 n
b0000010 t
1u
b00000000000000000000000000000000 w
b1 B"
#33000000
0!
0#
0^
0u
#34000000
1!
1#
b0011 (
bUUUUUUUUUUUUUUUUUUUUUUUUUUUUUUUU -
b00000000000000000000000000000010 .
b00000000000000000000000000000010 0
b00000000000000000000000000000010 C
b10111 L
b00000000000000000000000000000000 P
b00000000000000000000000000000000 R
b00000000000000000000000000000010 V
b0011 ]
1^
bUUUUUUUUUUUUUUUUUUUUUUUUUUUUUUUU c
b00000000000000000000000000000010 e
b00000000000000000000000000000010 f
b00000000000000000000000000000010 l
1u
b00000000000000000000000000000010 v
b00000000000000000000000000000000 ""
b00000000000000000000000000000000 %"
b00000000000000000000000000000000 '"
b00000000000000000000000000000000 )"
b00000000000000000000000000000000 +"
b00000000000000000000000000000000 -"
b00000000000000000000000000000000 0"
b00000000000000000000000000000000 1"
b00000000000000000000000000000000 2"
b00000000000000000000000000000000 3"
b00000000000000000000000000000000 4"
b00000000000000000000000000000000 5"
b00000000000000000000000000000000 7"
b00000000000000000000000000000000 :"
b00000000000000000000000000000000 ;"
b00000000000000000000000000000000 <"
b00000000000000000000000000000000 ="
b00000000000000000000000000000000 >"
b00000000000000000000000000000010 @"
b10111 B"
b00000000000000000000000000000010 E"
#35000000
0!
0#
0^
0u
#36000000
1!
1#
b00000000000000000000000000000000 .
b00000000000000000000000000000000 0
b00000000000000000000000000000000 C
b11110 L
b00000000000000000000000000000000 V
1^
b00000000000000000000000000000000 e
b00000000000000000000000000000000 f
b00000000000000000000000000000000 l
1u
b00000000000000000000000000000000 v
b00000000000000000000000000000000 @"
b11110 B"
b00000000000000000000000000000000 E"
#37000000
0!
0#
0^
0u
#38000000
1!
1#
b00000000000000000000000000000000 *
11
b0000000 @
b00000000000000000000000000000000 F
b101000 L
b00 Z
1^
b00000000000000000000000000000000 _
1a
b0000000 t
1u
b101000 B"
b00 C"
#39000000
0!
0#
0^
0u
#40000000
1!
1#
b00000000000000000000000000010000 %
b11100000111000110010000010010001 ,
b00000000000000000000000000000000 -
b00000000000000000000000000000100 .
b00000000000000000000000000010000 /
b00000000000000000000000000010100 0
01
b1000100 @
b0 L
1^
0a
b00000000000000000000000000000000 c
b00000000000000000000000000010000 d
b00000000000000000000000000000100 e
b00000000000000000000000000010100 f
b00000000000000000000000000010100 l
b1000100 t
1u
b11100000111000110010000010010001 w
b0 B"
#41000000
0!
0#
0^
0u
#42000000
1!
1#
b00000000000000000000000000010100 &
b0011 '
b0001 (
b00000000000000000000000000000000 +
b00000000000000000000000000000000 ,
b00000000000000000000000000000101 -
b00000000000000000000000000000000 .
b00000000000000000000000000000010 /
b11111111111111111111111111111101 0
b000010010001 >
b10010001 ?
b0000000 @
b0010 A
b11100000111000110010000010010001 D
b1 L
b111000110010000010010001 N
b00001 Q
0X
b10 Z
b11100000111000110010000010010001 [
b0011 \
b0001 ]
1^
b0010 `
b00000000000000000000000000000000 b
b00000000000000000000000000000101 c
b00000000000000000000000000000010 d
b00000000000000000000000000000000 e
b11111111111111111111111111111101 f
b11111111111111111111111111111101 l
b11100000111000110010000010010001 n
b0000000 t
1u
b00000000000000000000000000000000 w
b00001 #"
b00001 ,"
b00001 6"
b1 B"
b10 C"
#43000000
0!
0#
0^
0u
#44000000
1!
1#
b0001 '
b0000 (
b00000000000000000000000000000101 +
b00000000000000000000000000000010 -
b00000000000000000000000000000101 .
b00000000000000000000000000000000 /
b00000000000000000000000000000100 0
13
b00000000000000000000000000000000 B
b00000000000000000000000000000101 C
b11010 L
b00000000000000000000000000000101 P
b00000000000000000000000000001010 R
b00000000000000000000000000000101 V
b00 Z
b0001 \
b0000 ]
1^
b00000000000000000000000000000101 b
b00000000000000000000000000000010 c
b00000000000000000000000000000000 d
b00000000000000000000000000000101 e
b00000000000000000000000000000100 f
1h
1k
b00000000000000000000000000000100 l
1u
b00000000000000000000000000000101 v
b00000000000000000000000000000101 ""
b00000000000000000000000000001010 %"
b00000000000000000000000000001010 '"
b00000000000000000000000000000101 )"
b00000000000000000000000000000101 +"
b00000000000000000000000000001010 -"
b00000000000000000000000000001010 0"
b00000000000000000000000000001010 1"
b00000000000000000000000000001010 2"
b00000000000000000000000000001010 3"
b00000000000000000000000000001010 4"
b00000000000000000000000000000101 5"
b00000000000000000000000000000101 7"
b00000000000000000000000000000101 :"
b00000000000000000000000000000101 ;"
b00000000000000000000000000000101 <"
b00000000000000000000000000000101 ="
b00000000000000000000000000000101 >"
b00000000000000000000000000000101 @"
b11010 B"
b00 C"
b00000000000000000000000000000101 E"
#45000000
0!
0#
0^
0u
#46000000
1!
1#
b0011 '
b0010 (
b00000000000000000000000000000000 +
b00000000000000000000000000001010 -
b00000000000000000000000000000101 H
b00000000000000000000000000000010 J
b100001 L
b0011 \
b0010 ]
1^
b00000000000000000000000000000000 b
b00000000000000000000000000001010 c
1u
b100001 B"
b00000000000000000000000000000010 M"
b00000000000000000000000000000101 N"
b0000000000000000000000000000000000000000000000000000000000001010 P"
b0000000000000000000000000000000000000000000000000000000000001010 Q"
b0000000000000000000000000000000000000000000000000000000000001010 R"
#47000000
0!
0#
0^
0u
#48000000
1!
1#
b00000000000000000000000000001010 I
b00000000000000000000000000000000 K
b101011 L
b0000000000000000000000000000000000000000000000000000000000010100 S
1^
1u
b101011 B"
b00000000000000000000000000000000 K"
b00000000000000000000000000001010 L"
b0000000000000000000000000000000000000000000000000000000000010100 O"
#49000000
0!
0#
0^
0u
#50000000
1!
1#
11
b0011 A
b0000000000000000000000000000000000000000000000000000000000010100 G
b110011 L
1^
b0011 `
1a
1u
b110011 B"
#51000000
0!
0#
0^
0u
#52000000
1!
1#
b00000000000000000000000000010100 *
b0010 A
b110 L
1^
b00000000000000000000000000010100 _
b0010 `
1u
b110 B"
#53000000
0!
0#
0^
0u
#54000000
1!
1#
b00000000000000000000000000010100 %
b00000000000000000000000000000000 *
b11100000101000110010000010010001 ,
b00000000000000000000000000010100 -
b00000000000000000000000000000100 .
b00000000000000000000000000010100 /
b00000000000000000000000000011000 0
01
03
b1000101 @
b0 L
1^
b00000000000000000000000000000000 _
0a
b00000000000000000000000000010100 c
b00000000000000000000000000010100 d
b00000000000000000000000000000100 e
b00000000000000000000000000011000 f
0h
0k
b00000000000000000000000000011000 l
b1000101 t
1u
b11100000101000110010000010010001 w
b0 B"
#55000000
0!
0#
0^
0u
#56000000
1!
1#
b00000000000000000000000000011000 &
b0001 (
b00000000000000000000000000000000 ,
b00000000000000000000000000000101 -
b00000000000000000000000000000101 .
b00000000000000000000000000000000 /
b00000000000000000000000000000101 0
03
b0000000 @
b11100000101000110010000010010001 D
b1 L
b101000110010000010010001 N
b11100000101000110010000010010001 [
b0001 ]
1^
b00000000000000000000000000000101 c
b00000000000000000000000000000000 d
b00000000000000000000000000000101 e
b00000000000000000000000000000101 f
0h
0k
b00000000000000000000000000000101 l
b11100000101000110010000010010001 n
b0000000 t
1u
b00000000000000000000000000000000 w
b1 B"
#57000000
0!
0#
0^
0u
