Assignment2/Stage6/wave.vcd
$date
  Sat Mar 19 16:42:05 2022
$end
$version
  GHDL v0
$end
$timescale
  1 fs
$end
$scope module standard $end
$upscope $end
$scope module std_logic_1164 $end
$upscope $end
$scope module numeric_std $end
$upscope $end
$scope module mytypes $end
$upscope $end
$scope module testbench $end
$var reg 1 ! clk $end
$var reg 1 " reset $end
$scope module uut $end
$var reg 1 # clk $end
$var reg 1 $ reset $end
$var reg 32 % pcin[31:0] $end
$var reg 32 & pcout[31:0] $end
$comment instr_class is not handled $end
$comment op is not handled $end
$comment dp_subclass is not handled $end
$comment dp_operand_src is not handled $end
$comment load_store is not handled $end
$comment dt_offset_sign is not handled $end
$comment store_instr is not handled $end
$comment load_instr is not handled $end
$var reg 4 ' rad2[3:0] $end
$var reg 1 ( sbit $end
$var reg 32 ) wd[31:0] $end
$var reg 32 * rd1[31:0] $end
$var reg 32 + rd[31:0] $end
$var reg 32 , rd2[31:0] $end
$var reg 32 - alu2[31:0] $end
$var reg 32 . alu1[31:0] $end
$var reg 32 / result[31:0] $end
$var reg 1 0 rw $end
$var reg 4 1 mw[3:0] $end
$var reg 1 2 cout $end
$var reg 1 3 cin $end
$var reg 1 4 zf $end
$var reg 1 5 nf $end
$var reg 1 6 vf $end
$var reg 1 7 cf $end
$var reg 1 8 zflag $end
$var reg 1 9 nflag $end
$var reg 1 : vflag $end
$var reg 1 ; cflag $end
$var reg 1 < p $end
$var reg 12 = offset[11:0] $end
$var reg 8 > immd[7:0] $end
$var reg 7 ? addr[6:0] $end
$comment opalu is not handled $end
$var reg 32 @ a[31:0] $end
$var reg 32 A b[31:0] $end
$var reg 32 B ir[31:0] $end
$var reg 32 C dr[31:0] $end
$var reg 32 D res[31:0] $end
$var integer 32 E curr $end
$var reg 8 F s_ext[7:0] $end
$var reg 24 G s_offset[23:0] $end
$var reg 32 H c[31:0] $end
$var reg 32 I shift_data[31:0] $end
$var reg 5 J shift_amt[4:0] $end
$comment shift_typ is not handled $end
$comment shift_ty is not handled $end
$comment dt_operand_src is not handled $end
$comment shift_operand_src is not handled $end
$var reg 32 K oupt[31:0] $end
$var reg 1 L cout_s $end
$var reg 32 M rin[31:0] $end
$var reg 32 N memin[31:0] $end
$var reg 1 O w $end
$var reg 1 P pi $end
$var reg 4 Q mw_pm[3:0] $end
$var reg 2 R adr2[1:0] $end
$scope module dut1 $end
$var reg 32 S instruction[31:0] $end
$comment instr_class is not handled $end
$comment operation is not handled $end
$comment dp_subclass is not handled $end
$comment dp_operand_src is not handled $end
$comment dt_operand_src is not handled $end
$comment load_store is not handled $end
$comment dt_offset_sign is not handled $end
$comment load_instr is not handled $end
$comment store_instr is not handled $end
$comment shift_operand_src is not handled $end
$comment shift_typ is not handled $end
$upscope $end
$scope module dut2 $end
$var reg 4 T rd1[3:0] $end
$var reg 4 U rd2[3:0] $end
$var reg 1 V clk $end
$var reg 32 W data[31:0] $end
$var reg 4 X wad[3:0] $end
$var reg 1 Y wn $end
$var reg 32 Z dd1[31:0] $end
$var reg 32 [ dd2[31:0] $end
$comment reg is not handled $end
$upscope $end
$scope module dut3 $end
$var reg 32 \ a[31:0] $end
$var reg 32 ] b[31:0] $end
$comment opcode is not handled $end
$var reg 32 ^ res[31:0] $end
$var reg 1 _ cin $end
$var reg 1 ` cout $end
$upscope $end
$scope module dut4 $end
$var reg 1 a msba $end
$var reg 1 b msbb $end
$var reg 1 c cout $end
$var reg 32 d res[31:0] $end
$var reg 1 e shiftout $end
$var reg 32 f instr[31:0] $end
$comment dp_subclass is not handled $end
$var reg 1 g sbit $end
$var reg 1 h zflag $end
$var reg 1 i nflag $end
$var reg 1 j vflag $end
$var reg 1 k cflag $end
$upscope $end
$scope module dut5 $end
$var reg 7 l addr[6:0] $end
$var reg 1 m clk $end
$var reg 32 n din[31:0] $end
$var reg 32 o dout[31:0] $end
$var reg 4 p wn[3:0] $end
$comment dmem is not handled $end
$upscope $end
$scope module dut6 $end
$var reg 4 q condition[3:0] $end
$var reg 1 r zflag $end
$var reg 1 s vflag $end
$var reg 1 t cflag $end
$var reg 1 u nflag $end
$var reg 1 v predicate $end
$upscope $end
$scope module dut7 $end
$var reg 32 w inp[31:0] $end
$var reg 5 x amt[4:0] $end
$comment typ is not handled $end
$var reg 1 y carry_in $end
$var reg 32 z oupt[31:0] $end
$var reg 1 { carry_out $end
$var reg 32 | ouptl[31:0] $end
$var reg 1 } carry_outl $end
$var reg 32 !" ouptr[31:0] $end
$var reg 1 "" carry_outr $end
$scope module dutl $end
$var reg 32 #" inp[31:0] $end
$var reg 5 $" amt[4:0] $end
$var reg 32 %" oupt[31:0] $end
$var reg 1 &" carry_in $end
$var reg 1 '" carry_out $end
$var reg 32 (" out0[31:0] $end
$var reg 32 )" out1[31:0] $end
$var reg 32 *" out2[31:0] $end
$var reg 32 +" out3[31:0] $end
$var reg 32 ," out4[31:0] $end
$upscope $end
$scope module dutr $end
$var reg 32 -" inp[31:0] $end
$var reg 5 ." amt[4:0] $end
$comment typ is not handled $end
$var reg 32 /" oupt[31:0] $end
$var reg 1 0" carry_in $end
$var reg 1 1" carry_out $end
$var reg 32 2" out0[31:0] $end
$var reg 32 3" out1[31:0] $end
$var reg 32 4" out2[31:0] $end
$var reg 32 5" out3[31:0] $end
$var reg 32 6" out4[31:0] $end
$var reg 32 7" sig[31:0] $end
$upscope $end
$upscope $end
$scope module dut8 $end
$var reg 32 8" rout[31:0] $end
$var reg 32 9" memout[31:0] $end
$comment load_instr is not handled $end
$comment store_instr is not handled $end
$var integer 32 :" ctrl_state $end
$var reg 2 ;" adr2[1:0] $end
$var reg 32 <" rin[31:0] $end
$var reg 32 =" memin[31:0] $end
$var reg 4 >" mw[3:0] $end
$var reg 32 ?" a[31:0] $end
$var reg 32 @" b[31:0] $end
$var reg 32 A" c[31:0] $end
$var reg 32 B" d[31:0] $end
$upscope $end
$upscope $end
$upscope $end
$enddefinitions $end
#0
U!
1"
U#
1$
b00000000000000000000000000000000 %
bUUUUUUUUUUUUUUUUUUUUUUUUUUUUUUUU &
bUUUU '
0(
bUUUUUUUUUUUUUUUUUUUUUUUUUUUUUUUU )
bUUUUUUUUUUUUUUUUUUUUUUUUUUUUUUUU *
b11100011111000000000000000000000 +
bUUUUUUUUUUUUUUUUUUUUUUUUUUUUUUUU ,
b00000000000000000000000000000100 -
b00000000000000000000000000000000 .
b00000000000000000000000000000100 /
00
b0000 1
02
03
04
05
06
07
08
09
0:
0;
1<
bUUUUUUUUUUUU =
bUUUUUUUU >
b1000000 ?
bUUUUUUUUUUUUUUUUUUUUUUUUUUUUUUUU @
bUUUUUUUUUUUUUUUUUUUUUUUUUUUUUUUU A
bUUUUUUUUUUUUUUUUUUUUUUUUUUUUUUUU B
bUUUUUUUUUUUUUUUUUUUUUUUUUUUUUUUU C
bUUUUUUUUUUUUUUUUUUUUUUUUUUUUUUUU D
b0 E
b00000000 F
bUUUUUUUUUUUUUUUUUUUUUUUU G
bUUUUUUUUUUUUUUUUUUUUUUUUUUUUUUUU H
bUUUUUUUUUUUUUUUUUUUUUUUUUUUUUUUU I
bUUUUU J
bUUUUUUUUUUUUUUUUUUUUUUUUUUUUUUUU K
0L
bUUUUUUUUUUUUUUUUUUUUUUUUUUUUUUUU M
bUUUUUUUUUUUUUUUUUUUUUUUUUUUUUUUU N
UO
UP
b1111 Q
bUU R
bUUUUUUUUUUUUUUUUUUUUUUUUUUUUUUUU S
bUUUU T
bUUUU U
UV
bUUUUUUUUUUUUUUUUUUUUUUUUUUUUUUUU W
bUUUU X
0Y
bUUUUUUUUUUUUUUUUUUUUUUUUUUUUUUUU Z
bUUUUUUUUUUUUUUUUUUUUUUUUUUUUUUUU [
b00000000000000000000000000000000 \
b00000000000000000000000000000100 ]
b00000000000000000000000000000100 ^
0_
0`
Ua
0b
0c
b00000000000000000000000000000100 d
0e
bUUUUUUUUUUUUUUUUUUUUUUUUUUUUUUUU f
Ug
0h
0i
0j
0k
b1000000 l
Um
bUUUUUUUUUUUUUUUUUUUUUUUUUUUUUUUU n
b11100011111000000000000000000000 o
b0000 p
bUUUU q
0r
0s
0t
0u
1v
bUUUUUUUUUUUUUUUUUUUUUUUUUUUUUUUU w
bUUUUU x
0y
bUUUUUUUUUUUUUUUUUUUUUUUUUUUUUUUU z
0{
bUUUUUUUUUUUUUUUUUUUUUUUUUUUUUUUU |
0}
bUUUUUUUUUUUUUUUUUUUUUUUUUUUUUUUU !"
0""
bUUUUUUUUUUUUUUUUUUUUUUUUUUUUUUUU #"
bUUUUU $"
bUUUUUUUUUUUUUUUUUUUUUUUUUUUUUUUU %"
0&"
0'"
bUUUUUUUUUUUUUUUUUUUUUUUUUUUUUUUU ("
bUUUUUUUUUUUUUUUUUUUUUUUUUUUUUUUU )"
bUUUUUUUUUUUUUUUUUUUUUUUUUUUUUUUU *"
bUUUUUUUUUUUUUUUUUUUUUUUUUUUUUUUU +"
bUUUUUUUUUUUUUUUUUUUUUUUUUUUUUUUU ,"
bUUUUUUUUUUUUUUUUUUUUUUUUUUUUUUUU -"
bUUUUU ."
bUUUUUUUUUUUUUUUUUUUUUUUUUUUUUUUU /"
00"
01"
bUUUUUUUUUUUUUUUUUUUUUUUUUUUUUUUU 2"
bUUUUUUUUUUUUUUUUUUUUUUUUUUUUUUUU 3"
bUUUUUUUUUUUUUUUUUUUUUUUUUUUUUUUU 4"
bUUUUUUUUUUUUUUUUUUUUUUUUUUUUUUUU 5"
bUUUUUUUUUUUUUUUUUUUUUUUUUUUUUUUU 6"
bUUUUUUUUUUUUUUUUUUUUUUUUUUUUUUUU 7"
bUUUUUUUUUUUUUUUUUUUUUUUUUUUUUUUU 8"
bUUUUUUUUUUUUUUUUUUUUUUUUUUUUUUUU 9"
b0 :"
bUU ;"
bUUUUUUUUUUUUUUUUUUUUUUUUUUUUUUUU <"
bUUUUUUUUUUUUUUUUUUUUUUUUUUUUUUUU ="
b1111 >"
bUUUUUUUUUUUUUUUUUUUUUUUUUUUUUUUU ?"
bUUUUUUUUUUUUUUUUUUUUUUUUUUUUUUUU @"
bUUUUUUUUUUUUUUUUUUUUUUUUUUUUUUUU A"
bUUUUUUUUUUUUUUUUUUUUUUUUUUUUUUUU B"
#1000000
0!
0"
0#
0$
0V
0m
#2000000
1!
1#
b00000000000000000000000000000100 &
b0000 '
b00000000000000000000000000000000 +
bUUUUUUUUUUUUUUUUUUUUUUUUUUUUUUUU -
bUUUUUUUUUUUUUUUUUUUUUUUUUUUUUUUU .
bUUUUUUUUUUUUUUUUUUUUUUUUUUUUUUUU /
b000000000000 =
b00000000 >
bUUUUUUU ?
b11100011111000000000000000000000 B
b1 E
b11111111 F
b111000000000000000000000 G
b00000 J
1O
1P
b11100011111000000000000000000000 S
b0000 T
b0000 U
1V
b0000 X
bUUUUUUUUUUUUUUUUUUUUUUUUUUUUUUUU \
bUUUUUUUUUUUUUUUUUUUUUUUUUUUUUUUU ]
bUUUUUUUUUUUUUUUUUUUUUUUUUUUUUUUU ^
Ub
bUUUUUUUUUUUUUUUUUUUUUUUUUUUUUUUU d
b11100011111000000000000000000000 f
0g
bUUUUUUU l
1m
b00000000000000000000000000000000 o
b1110 q
b00000 x
b00000 $"
b00000 ."
b1 :"
#3000000
0!
0#
0V
0m
#4000000
1!
1#
b10111 E
b00000000000000000000000000000000 I
b00000000000000000000000000000000 K
1V
1m
b00000000000000000000000000000000 w
b00000000000000000000000000000000 z
b00000000000000000000000000000000 |
b00000000000000000000000000000000 !"
b00000000000000000000000000000000 #"
b00000000000000000000000000000000 %"
b00000000000000000000000000000000 ("
b00000000000000000000000000000000 )"
b00000000000000000000000000000000 *"
b00000000000000000000000000000000 +"
b00000000000000000000000000000000 ,"
b00000000000000000000000000000000 -"
b00000000000000000000000000000000 /"
b00000000000000000000000000000000 2"
b00000000000000000000000000000000 3"
b00000000000000000000000000000000 4"
b00000000000000000000000000000000 5"
b00000000000000000000000000000000 6"
b00000000000000000000000000000000 7"
b10111 :"
#5000000
0!
0#
0V
0m
#6000000
1!
1#
b00000000000000000000000000000000 -
b11111111111111111111111111111111 /
b00000000000000000000000000000000 A
b11110 E
b00000000000000000000000000000000 N
1V
b00000000000000000000000000000000 ]
b11111111111111111111111111111111 ^
0b
b11111111111111111111111111111111 d
1m
b00000000000000000000000000000000 n
b00000000000000000000000000000000 8"
b11110 :"
b00000000000000000000000000000000 ="
#7000000
0!
0#
0V
0m
#8000000
1!
1#
b11111111111111111111111111111111 )
10
b1111111 ?
b11111111111111111111111111111111 D
b101000 E
b11 R
1V
b11111111111111111111111111111111 W
1Y
b1111111 l
1m
b101000 :"
b11 ;"
#9000000
0!
0#
0V
0m
#10000000
1!
1#
b00000000000000000000000000000100 %
b11111111111111111111111111111111 *
b11100011101000000001000000000010 +
b11111111111111111111111111111111 ,
b00000000000000000000000000000100 -
b00000000000000000000000000000100 .
b00000000000000000000000000001000 /
00
b1000001 ?
b0 E
1V
0Y
b11111111111111111111111111111111 Z
b11111111111111111111111111111111 [
b00000000000000000000000000000100 \
b00000000000000000000000000000100 ]
b00000000000000000000000000001000 ^
1a
b00000000000000000000000000001000 d
b1000001 l
1m
b11100011101000000001000000000010 o
b0 :"
#11000000
0!
0#
0V
0m
#12000000
1!
1#
b00000000000000000000000000001000 &
b0010 '
b00000000000000000000000000000000 +
bUUUUUUUUUUUUUUUUUUUUUUUUUUUUUUUU ,
b00000000000000000000000000000000 -
bUUUUUUUUUUUUUUUUUUUUUUUUUUUUUUUU .
b00000000000000000000000000000000 /
b000000000010 =
b00000010 >
b1111111 ?
b11100011101000000001000000000010 B
b1 E
b101000000001000000000010 G
b11100011101000000001000000000010 S
b0010 U
1V
b0001 X
bUUUUUUUUUUUUUUUUUUUUUUUUUUUUUUUU [
bUUUUUUUUUUUUUUUUUUUUUUUUUUUUUUUU \
b00000000000000000000000000000000 ]
b00000000000000000000000000000000 ^
b00000000000000000000000000000000 d
b11100011101000000001000000000010 f
b1111111 l
1m
b00000000000000000000000000000000 o
b1 :"
#13000000
0!
0#
0V
0m
#14000000
1!
1#
b0001 '
bUUUUUUUUUUUUUUUUUUUUUUUUUUUUUUUU -
b11111111111111111111111111111111 .
bUUUUUUUUUUUUUUUUUUUUUUUUUUUUUUUU /
b11111111111111111111111111111111 @
bUUUUUUUUUUUUUUUUUUUUUUUUUUUUUUUU A
b10111 E
b00000000000000000000000000000010 I
b00000000000000000000000000000010 K
bUUUUUUUUUUUUUUUUUUUUUUUUUUUUUUUU N
b0001 U
1V
b11111111111111111111111111111111 \
bUUUUUUUUUUUUUUUUUUUUUUUUUUUUUUUU ]
bUUUUUUUUUUUUUUUUUUUUUUUUUUUUUUUU ^
Ub
bUUUUUUUUUUUUUUUUUUUUUUUUUUUUUUUU d
1m
bUUUUUUUUUUUUUUUUUUUUUUUUUUUUUUUU n
b00000000000000000000000000000010 w
b00000000000000000000000000000010 z
b00000000000000000000000000000010 |
b00000000000000000000000000000010 !"
b00000000000000000000000000000010 #"
b00000000000000000000000000000010 %"
b00000000000000000000000000000010 ("
b00000000000000000000000000000010 )"
b00000000000000000000000000000010 *"
b00000000000000000000000000000010 +"
b00000000000000000000000000000010 ,"
b00000000000000000000000000000010 -"
b00000000000000000000000000000010 /"
b00000000000000000000000000000010 2"
b00000000000000000000000000000010 3"
b00000000000000000000000000000010 4"
b00000000000000000000000000000010 5"
b00000000000000000000000000000010 6"
bUUUUUUUUUUUUUUUUUUUUUUUUUUUUUUUU 8"
b10111 :"
bUUUUUUUUUUUUUUUUUUUUUUUUUUUUUUUU ="
#15000000
0!
0#
0V
0m
#16000000
1!
1#
b00000000000000000000000000000010 -
b00000000000000000000000000000010 /
b00000000000000000000000000000010 A
b11110 E
b00000000000000000000000000000010 N
1V
b00000000000000000000000000000010 ]
b00000000000000000000000000000010 ^
0b
b00000000000000000000000000000010 d
1m
b00000000000000000000000000000010 n
b00000000000000000000000000000010 8"
b11110 :"
b00000000000000000000000000000010 ="
#17000000
0!
0#
0V
0m
#18000000
1!
1#
b00000000000000000000000000000010 )
10
b0000000 ?
b00000000000000000000000000000010 D
b101000 E
b10 R
1V
b00000000000000000000000000000010 W
1Y
b0000000 l
1m
b101000 :"
b10 ;"
#19000000
0!
0#
0V
0m
#20000000
1!
1#
b00000000000000000000000000001000 %
b11100011101000000011000000000000 +
b00000000000000000000000000000010 ,
b00000000000000000000000000000100 -
b00000000000000000000000000001000 .
b00000000000000000000000000001100 /
00
b1000010 ?
b0 E
1V
0Y
b00000000000000000000000000000010 [
b00000000000000000000000000001000 \
b00000000000000000000000000000100 ]
b00000000000000000000000000001100 ^
b00000000000000000000000000001100 d
b1000010 l
1m
b11100011101000000011000000000000 o
b0 :"
#21000000
0!
0#
0V
0m
#22000000
1!
1#
b00000000000000000000000000001100 &
b0000 '
b00000000000000000000000000000000 +
b11111111111111111111111111111111 ,
b00000000000000000000000000000010 -
b11111111111111111111111111111111 .
b00000000000000000000000000000010 /
b000000000000 =
b00000000 >
b0000000 ?
b11100011101000000011000000000000 B
b1 E
b101000000011000000000000 G
b11100011101000000011000000000000 S
b0000 U
1V
b0011 X
b11111111111111111111111111111111 [
b11111111111111111111111111111111 \
b00000000000000000000000000000010 ]
b00000000000000000000000000000010 ^
b00000000000000000000000000000010 d
b11100011101000000011000000000000 f
b0000000 l
1m
b00000000000000000000000000000000 o
b1 :"
#23000000
0!
0#
0V
0m
#24000000
1!
1#
b0011 '
bUUUUUUUUUUUUUUUUUUUUUUUUUUUUUUUU ,
b11111111111111111111111111111111 -
b11111111111111111111111111111111 /
b11111111111111111111111111111111 A
b10111 E
b00000000000000000000000000000000 I
b00000000000000000000000000000000 K
b11111111111111111111111111111111 N
b0011 U
1V
bUUUUUUUUUUUUUUUUUUUUUUUUUUUUUUUU [
b11111111111111111111111111111111 ]
b11111111111111111111111111111111 ^
1b
b11111111111111111111111111111111 d
1m
b11111111111111111111111111111111 n
b00000000000000000000000000000000 w
b00000000000000000000000000000000 z
b00000000000000000000000000000000 |
b00000000000000000000000000000000 !"
b00000000000000000000000000000000 #"
b00000000000000000000000000000000 %"
b00000000000000000000000000000000 ("
b00000000000000000000000000000000 )"
b00000000000000000000000000000000 *"
b00000000000000000000000000000000 +"
b00000000000000000000000000000000 ,"
b00000000000000000000000000000000 -"
b00000000000000000000000000000000 /"
b00000000000000000000000000000000 2"
b00000000000000000000000000000000 3"
b00000000000000000000000000000000 4"
b00000000000000000000000000000000 5"
b00000000000000000000000000000000 6"
b11111111111111111111111111111111 8"
b10111 :"
b11111111111111111111111111111111 ="
#25000000
0!
0#
0V
0m
#26000000
1!
1#
b00000000000000000000000000000000 -
b00000000000000000000000000000000 /
b00000000000000000000000000000000 A
b11110 E
b00000000000000000000000000000000 N
1V
b00000000000000000000000000000000 ]
b00000000000000000000000000000000 ^
0b
b00000000000000000000000000000000 d
1m
b00000000000000000000000000000000 n
b00000000000000000000000000000000 8"
b11110 :"
b00000000000000000000000000000000 ="
#27000000
0!
0#
0V
0m
#28000000
1!
1#
b00000000000000000000000000000000 )
10
b00000000000000000000000000000000 D
b101000 E
b00 R
1V
b00000000000000000000000000000000 W
1Y
1m
b101000 :"
b00 ;"
#29000000
0!
0#
0V
0m
#30000000
1!
1#
b00000000000000000000000000001100 %
b11100101100000110000000000000000 +
b00000000000000000000000000000000 ,
b00000000000000000000000000000100 -
b00000000000000000000000000001100 .
b00000000000000000000000000010000 /
00
b1000011 ?
b0 E
1V
0Y
b00000000000000000000000000000000 [
b00000000000000000000000000001100 \
b00000000000000000000000000000100 ]
b00000000000000000000000000010000 ^
b00000000000000000000000000010000 d
b1000011 l
1m
b11100101100000110000000000000000 o
b0 :"
#31000000
0!
0#
0V
0m
#32000000
1!
1#
b00000000000000000000000000010000 &
b0000 '
b00000000000000000000000000000000 *
b00000000000000000000000000000000 +
b11111111111111111111111111111111 ,
b00000000000000000000000000000000 -
b11111111111111111111111111111111 .
b11111111111111111111111111111111 /
b0000000 ?
b11100101100000110000000000000000 B
b1 E
b100000110000000000000000 G
0O
b11100101100000110000000000000000 S
b0011 T
b0000 U
1V
b0000 X
b00000000000000000000000000000000 Z
b11111111111111111111111111111111 [
b11111111111111111111111111111111 \
b00000000000000000000000000000000 ]
b11111111111111111111111111111111 ^
0a
b11111111111111111111111111111111 d
b11100101100000110000000000000000 f
b0000000 l
1m
b00000000000000000000000000000000 o
b1 :"
#33000000
0!
0#
0V
0m
#34000000
1!
1#
b11111111111111111111111111111111 -
b00000000000000000000000000000000 .
b00000000000000000000000000000000 @
b11111111111111111111111111111111 A
b11001 E
b11111111111111111111111111111111 I
b11111111111111111111111111111111 K
b11111111111111111111111111111111 N
1V
b00000000000000000000000000000000 \
b11111111111111111111111111111111 ]
1b
1m
b11111111111111111111111111111111 n
b11111111111111111111111111111111 w
b11111111111111111111111111111111 z
b11111111111111111111111111111111 |
b11111111111111111111111111111111 !"
b11111111111111111111111111111111 #"
b11111111111111111111111111111111 %"
b11111111111111111111111111111111 ("
b11111111111111111111111111111111 )"
b11111111111111111111111111111111 *"
b11111111111111111111111111111111 +"
b11111111111111111111111111111111 ,"
b11111111111111111111111111111111 -"
b11111111111111111111111111111111 /"
b11111111111111111111111111111111 2"
b11111111111111111111111111111111 3"
b11111111111111111111111111111111 4"
b11111111111111111111111111111111 5"
b11111111111111111111111111111111 6"
b11111111111111111111111111111111 7"
b11111111111111111111111111111111 8"
b11001 :"
b11111111111111111111111111111111 ="
#35000000
0!
0#
0V
0m
#36000000
1!
1#
b00000000000000000000000000000000 -
b00000000000000000000000000000000 /
b11111 E
b00000000000000000000000000000000 H
1V
b00000000000000000000000000000000 ]
b00000000000000000000000000000000 ^
0b
b00000000000000000000000000000000 d
1m
b11111 :"
#37000000
0!
0#
0V
0m
#38000000
1!
1#
b11111111111111111111111111111111 -
b11111111111111111111111111111111 /
b1111 1
b101001 E
1V
b11111111111111111111111111111111 ]
b11111111111111111111111111111111 ^
1b
b11111111111111111111111111111111 d
1m
b1111 p
b101001 :"
#39000000
0!
0#
0V
0m
#40000000
1!
1#
b00000000000000000000000000010000 %
b11100001110100010010000011110000 +
b00000000000000000000000000000100 -
b00000000000000000000000000010000 .
b00000000000000000000000000010100 /
b0000 1
b1000100 ?
b0 E
1V
b00000000000000000000000000010000 \
b00000000000000000000000000000100 ]
b00000000000000000000000000010100 ^
0b
b00000000000000000000000000010100 d
b1000100 l
1m
b11100001110100010010000011110000 o
b0000 p
b0 :"
#41000000
0!
0#
0V
0m
#42000000
1!
1#
b00000000000000000000000000010100 &
b00000000000000000000000000000010 *
b11111111111111111111111111111111 +
b11111111111111111111111111111111 -
b00000000000000000000000000000000 .
b00000000000000000000000000000000 /
14
05
b000000000000 =
b11110000 >
b0000000 ?
b11100001110100010010000011110000 B
b1 E
b110100010010000011110000 G
b00001 J
1L
b11100001110100010010000011110000 S
b0001 T
1V
b0010 X
b00000000000000000000000000000010 Z
b00000000000000000000000000000000 \
b11111111111111111111111111111111 ]
b00000000000000000000000000000000 ^
1b
b00000000000000000000000000000000 d
b11100001110100010010000011110000 f
1g
1h
0i
b0000000 l
1m
b11111111111111111111111111111111 o
b00001 x
1{
b11111111111111111111111111111110 |
1}
1""
b00001 $"
b11111111111111111111111111111110 %"
1'"
b11111111111111111111111111111110 ("
b11111111111111111111111111111110 )"
b11111111111111111111111111111110 *"
b11111111111111111111111111111110 +"
b11111111111111111111111111111110 ,"
b00001 ."
11"
b1 :"
#43000000
0!
0#
0V
0m
#44000000
1!
1#
b0010 '
bUUUUUUUUUUUUUUUUUUUUUUUUUUUUUUUU ,
b00000000000000000000000000000010 .
b00000000000000000000000000000010 @
b11001 E
b0010 U
1V
bUUUUUUUUUUUUUUUUUUUUUUUUUUUUUUUU [
b00000000000000000000000000000010 \
1m
b11001 :"
#45000000
0!
0#
0V
0m
#46000000
1!
1#
b00000000000000000000000000000000 -
b00000000000000000000000000000010 /
04
b11111 E
1V
b00000000000000000000000000000000 ]
b00000000000000000000000000000010 ^
0b
b00000000000000000000000000000010 d
0h
1m
b11111 :"
#47000000
0!
0#
0V
0m
#48000000
1!
1#
b00000000000000000000000000000010 )
bUUUUUUUUUUUUUUUUUUUUUUUUUUUUUUUU -
b000000000000000000000000000000U0 /
bUUUUUUUUUUUUUUUUUUUUUUUUUUUUUUUU A
b00000000000000000000000000000010 D
b101010 E
bUUUUUUUUUUUUUUUUUUUUUUUUUUUUUUUU I
bUUUUUUUUUUUUUUUUUUUUUUUUUUUUUUUU K
UL
bUUUUUUUUUUUUUUUUUUUUUUUUUUUUUUUU N
b10 R
1V
b00000000000000000000000000000010 W
bUUUUUUUUUUUUUUUUUUUUUUUUUUUUUUUU ]
b000000000000000000000000000000U0 ^
Ub
b000000000000000000000000000000U0 d
1m
bUUUUUUUUUUUUUUUUUUUUUUUUUUUUUUUU n
bUUUUUUUUUUUUUUUUUUUUUUUUUUUUUUUU w
bUUUUUUUUUUUUUUUUUUUUUUUUUUUUUUUU z
U{
bUUUUUUUUUUUUUUUUUUUUUUUUUUUUUUU0 |
U}
bUUUUUUUUUUUUUUUUUUUUUUUUUUUUUUUU !"
U""
bUUUUUUUUUUUUUUUUUUUUUUUUUUUUUUUU #"
bUUUUUUUUUUUUUUUUUUUUUUUUUUUUUUU0 %"
U'"
bUUUUUUUUUUUUUUUUUUUUUUUUUUUUUUU0 ("
bUUUUUUUUUUUUUUUUUUUUUUUUUUUUUUU0 )"
bUUUUUUUUUUUUUUUUUUUUUUUUUUUUUUU0 *"
bUUUUUUUUUUUUUUUUUUUUUUUUUUUUUUU0 +"
bUUUUUUUUUUUUUUUUUUUUUUUUUUUUUUU0 ,"
bUUUUUUUUUUUUUUUUUUUUUUUUUUUUUUUU -"
bUUUUUUUUUUUUUUUUUUUUUUUUUUUUUUUU /"
U1"
bUUUUUUUUUUUUUUUUUUUUUUUUUUUUUUUU 2"
bUUUUUUUUUUUUUUUUUUUUUUUUUUUUUUUU 3"
bUUUUUUUUUUUUUUUUUUUUUUUUUUUUUUUU 4"
bUUUUUUUUUUUUUUUUUUUUUUUUUUUUUUUU 5"
bUUUUUUUUUUUUUUUUUUUUUUUUUUUUUUUU 6"
bUUUUUUUUUUUUUUUUUUUUUUUUUUUUUUUU 7"
bUUUUUUUUUUUUUUUUUUUUUUUUUUUUUUUU 8"
b101010 :"
b10 ;"
bUUUUUUUUUUUUUUUUUUUUUUUUUUUUUUUU ="
#49000000
0!
0#
0V
0m
#50000000
1!
1#
b11111111111111111111111111111111 )
10
b11111111111111111111111111111111 C
b101 E
b11111111111111111111111111111111 M
1V
b11111111111111111111111111111111 W
1Y
1m
b11111111111111111111111111111111 9"
b101 :"
b11111111111111111111111111111111 <"
b11111111111111111111111111111111 ?"
b11111111111111111111111111111111 @"
b11111111111111111111111111111111 A"
b11111111111111111111111111111111 B"
#51000000
0!
0#
0V
0m
#52000000
1!
1#
b00000000000000000000000000010100 %
b00000000000000000000000000000010 )
b11100000110100110010000010110010 +
b11111111111111111111111111111111 ,
b00000000000000000000000000000100 -
b00000000000000000000000000010100 .
b00000000000000000000000000011000 /
00
b1000101 ?
b0 E
1V
b00000000000000000000000000000010 W
0Y
b11111111111111111111111111111111 [
b00000000000000000000000000010100 \
b00000000000000000000000000000100 ]
b00000000000000000000000000011000 ^
0b
b00000000000000000000000000011000 d
b1000101 l
1m
b11100000110100110010000010110010 o
b0 :"
#53000000
0!
0#
0V
0m
#54000000
1!
1#
b00000000000000000000000000011000 &
b00000000000000000000000000000000 *
b11111111111111111111111111111111 +
bUUUUUUUUUUUUUUUUUUUUUUUUUUUUUUUU -
b00000000000000000000000000000010 .
bXXXXXXXXXXXXXXXXXXXXXXXXXXXXXXXX /
X2
X5
U6
X7
b000000000010 =
b10110010 >
b0000000 ?
b11100000110100110010000010110010 B
b1 E
b110100110010000010110010 G
b0UUUUUUUUUUUUUUUUUUUUUUUUUUUUUUU K
0L
b00000000000000001111111111111111 M
0P
b1100 Q
b11100000110100110010000010110010 S
b0011 T
1V
b00000000000000000000000000000000 Z
b00000000000000000000000000000010 \
bUUUUUUUUUUUUUUUUUUUUUUUUUUUUUUUU ]
bXXXXXXXXXXXXXXXXXXXXXXXXXXXXXXXX ^
X`
Ub
Xc
bXXXXXXXXXXXXXXXXXXXXXXXXXXXXXXXX d
b11100000110100110010000010110010 f
Xi
Uj
Xk
b0000000 l
1m
b11111111111111111111111111111111 o
b0UUUUUUUUUUUUUUUUUUUUUUUUUUUUUUU z
0{
b0UUUUUUUUUUUUUUUUUUUUUUUUUUUUUUU !"
0""
b0UUUUUUUUUUUUUUUUUUUUUUUUUUUUUUU /"
01"
b0UUUUUUUUUUUUUUUUUUUUUUUUUUUUUUU 2"
b0UUUUUUUUUUUUUUUUUUUUUUUUUUUUUUU 3"
b0UUUUUUUUUUUUUUUUUUUUUUUUUUUUUUU 4"
b0UUUUUUUUUUUUUUUUUUUUUUUUUUUUUUU 5"
b0UUUUUUUUUUUUUUUUUUUUUUUUUUUUUUU 6"
b1 :"
b00000000000000001111111111111111 <"
b1100 >"
#55000000
0!
0#
0V
0m
