Assignment2/Stage8/wave.vcd
$date
  Sat Apr  2 23:11:47 2022
$end
$version
  GHDL v0
$end
$timescale
  1 fs
$end
$scope module standard $end
$upscope $end
$scope module std_logic_1164 $end
$upscope $end
$scope module numeric_std $end
$upscope $end
$scope module mytypes $end
$upscope $end
$scope module testbench $end
$var reg 1 ! clk $end
$var reg 1 " reset $end
$var reg 32 # input_p[31:0] $end
$scope module uut $end
$var reg 1 $ clk $end
$var reg 1 % reset $end
$var reg 32 & input_p[31:0] $end
$var reg 32 ' pcin[31:0] $end
$var reg 32 ( pcout[31:0] $end
$comment instr_class is not handled $end
$comment op is not handled $end
$comment dp_subclass is not handled $end
$comment dp_operand_src is not handled $end
$comment load_store is not handled $end
$comment dt_offset_sign is not handled $end
$comment store_instr is not handled $end
$comment load_instr is not handled $end
$comment mul_acc is not handled $end
$comment branch_class is not handled $end
$comment return_class is not handled $end
$var reg 4 ) rad1[3:0] $end
$var reg 4 * rad2[3:0] $end
$var reg 32 + wd[31:0] $end
$var reg 32 , rd1[31:0] $end
$var reg 32 - rd[31:0] $end
$var reg 32 . rd2[31:0] $end
$var reg 32 / alu2[31:0] $end
$var reg 32 0 alu1[31:0] $end
$var reg 32 1 result[31:0] $end
$var reg 1 2 rw $end
$var reg 4 3 mw[3:0] $end
$var reg 1 4 cout $end
$var reg 1 5 cin $end
$var reg 1 6 zf $end
$var reg 1 7 nf $end
$var reg 1 8 vf $end
$var reg 1 9 cf $end
$var reg 1 : zflag $end
$var reg 1 ; nflag $end
$var reg 1 < vflag $end
$var reg 1 = cflag $end
$var reg 1 > p $end
$var reg 12 ? offset[11:0] $end
$var reg 8 @ immd[7:0] $end
$var reg 7 A addr[6:0] $end
$var reg 4 B addw[3:0] $end
$comment opalu is not handled $end
$var reg 32 C a[31:0] $end
$var reg 32 D b[31:0] $end
$var reg 32 E ir[31:0] $end
$var reg 32 F dr[31:0] $end
$var reg 32 G res[31:0] $end
$var reg 64 H res_64[63:0] $end
$var reg 32 I rm_val[31:0] $end
$var reg 32 J rn_val[31:0] $end
$var reg 32 K rs_val[31:0] $end
$var reg 32 L rd_val[31:0] $end
$var integer 32 M curr $end
$var reg 8 N s_ext[7:0] $end
$var reg 24 O s_offset[23:0] $end
$var reg 32 P c[31:0] $end
$var reg 32 Q shift_data[31:0] $end
$var reg 5 R shift_amt[4:0] $end
$comment shift_typ is not handled $end
$comment shift_ty is not handled $end
$comment dt_operand_src is not handled $end
$comment shift_operand_src is not handled $end
$var reg 32 S oupt[31:0] $end
$var reg 64 T mul_res[63:0] $end
$var reg 1 U cout_s $end
$var reg 32 V rin[31:0] $end
$var reg 32 W memin[31:0] $end
$var reg 1 X w $end
$var reg 1 Y pi $end
$var reg 4 Z mw_pm[3:0] $end
$var reg 2 [ adr2[1:0] $end
$var reg 1 \ mode $end
$var reg 32 ] prev[31:0] $end
$var reg 32 ^ lr[31:0] $end
$var reg 1 _ isshift $end
$scope module dut1 $end
$var reg 32 ` instruction[31:0] $end
$comment instr_class is not handled $end
$comment operation is not handled $end
$comment dp_subclass is not handled $end
$comment dp_operand_src is not handled $end
$comment dt_operand_src is not handled $end
$comment load_store is not handled $end
$comment dt_offset_sign is not handled $end
$comment load_instr is not handled $end
$comment store_instr is not handled $end
$comment shift_operand_src is not handled $end
$comment shift_typ is not handled $end
$comment mul_acc is not handled $end
$comment branch_class is not handled $end
$comment return_class is not handled $end
$upscope $end
$scope module dut2 $end
$var reg 4 a rd1[3:0] $end
$var reg 4 b rd2[3:0] $end
$var reg 1 c clk $end
$var reg 32 d data[31:0] $end
$var reg 4 e wad[3:0] $end
$var reg 1 f wn $end
$var reg 32 g dd1[31:0] $end
$var reg 32 h dd2[31:0] $end
$comment reg is not handled $end
$upscope $end
$scope module dut3 $end
$var reg 32 i a[31:0] $end
$var reg 32 j b[31:0] $end
$comment opcode is not handled $end
$var reg 32 k res[31:0] $end
$var reg 1 l cin $end
$var reg 1 m cout $end
$upscope $end
$scope module dut4 $end
$var reg 1 n msba $end
$var reg 1 o msbb $end
$var reg 1 p cout $end
$var reg 32 q res[31:0] $end
$var reg 64 r res_64[63:0] $end
$var reg 1 s shiftout $end
$comment instr is not handled $end
$comment mul_acc is not handled $end
$comment opalu is not handled $end
$comment dp_subclass is not handled $end
$var reg 1 t sbit $end
$var reg 1 u zflag $end
$var reg 1 v nflag $end
$var reg 1 w vflag $end
$var reg 1 x cflag $end
$var reg 1 y isshift $end
$upscope $end
$scope module dut5 $end
$var reg 7 z addr[6:0] $end
$var reg 1 { clk $end
$var reg 32 | din[31:0] $end
$var reg 32 } dout[31:0] $end
$var reg 4 !" wn[3:0] $end
$comment dmem is not handled $end
$upscope $end
$scope module dut6 $end
$var reg 4 "" condition[3:0] $end
$var reg 1 #" zflag $end
$var reg 1 $" vflag $end
$var reg 1 %" cflag $end
$var reg 1 &" nflag $end
$var reg 1 '" predicate $end
$upscope $end
$scope module dut7 $end
$var reg 32 (" inp[31:0] $end
$var reg 5 )" amt[4:0] $end
$comment typ is not handled $end
$var reg 1 *" carry_in $end
$var reg 32 +" oupt[31:0] $end
$var reg 1 ," carry_out $end
$var reg 1 -" isshift $end
$var reg 32 ." ouptl[31:0] $end
$var reg 1 /" carry_outl $end
$var reg 32 0" ouptr[31:0] $end
$var reg 1 1" carry_outr $end
$scope module dutl $end
$var reg 32 2" inp[31:0] $end
$var reg 5 3" amt[4:0] $end
$var reg 32 4" oupt[31:0] $end
$var reg 1 5" carry_in $end
$var reg 1 6" carry_out $end
$var reg 32 7" out0[31:0] $end
$var reg 32 8" out1[31:0] $end
$var reg 32 9" out2[31:0] $end
$var reg 32 :" out3[31:0] $end
$var reg 32 ;" out4[31:0] $end
$upscope $end
$scope module dutr $end
$var reg 32 <" inp[31:0] $end
$var reg 5 =" amt[4:0] $end
$comment typ is not handled $end
$var reg 32 >" oupt[31:0] $end
$var reg 1 ?" carry_in $end
$var reg 1 @" carry_out $end
$var reg 32 A" out0[31:0] $end
$var reg 32 B" out1[31:0] $end
$var reg 32 C" out2[31:0] $end
$var reg 32 D" out3[31:0] $end
$var reg 32 E" out4[31:0] $end
$var reg 32 F" sig[31:0] $end
$upscope $end
$upscope $end
$scope module dut8 $end
$var reg 32 G" rout[31:0] $end
$var reg 32 H" memout[31:0] $end
$comment load_instr is not handled $end
$comment store_instr is not handled $end
$var integer 32 I" ctrl_state $end
$var reg 2 J" adr2[1:0] $end
$var reg 32 K" rin[31:0] $end
$var reg 32 L" memin[31:0] $end
$var reg 4 M" mw[3:0] $end
$var reg 32 N" a[31:0] $end
$var reg 32 O" b[31:0] $end
$var reg 32 P" c[31:0] $end
$var reg 32 Q" d[31:0] $end
$upscope $end
$scope module dut9 $end
$var reg 32 R" rd_val[31:0] $end
$var reg 32 S" rn_val[31:0] $end
$var reg 32 T" rs_val[31:0] $end
$var reg 32 U" rm_val[31:0] $end
$comment mul_acc is not handled $end
$var reg 64 V" result[63:0] $end
$var reg 64 W" p_s[63:0] $end
$var reg 64 X" p_u[63:0] $end
$var reg 64 Y" res[63:0] $end
$upscope $end
$upscope $end
$upscope $end
$enddefinitions $end
#0
0!
0"
bUUUUUUUUUUUUUUUUUUUUUUUUUUUUUUUU #
0$
0%
bUUUUUUUUUUUUUUUUUUUUUUUUUUUUUUUU &
bUUUUUUUUUUUUUUUUUUUUUUUUUUUUUUUU '
bUUUUUUUUUUUUUUUUUUUUUUUUUUUUUUUU (
b0000 )
b0000 *
b00000000000000000000000000000000 +
bUUUUUUUUUUUUUUUUUUUUUUUUUUUUUUUU ,
b00000000000000000000000000000000 -
bUUUUUUUUUUUUUUUUUUUUUUUUUUUUUUUU .
b00000000000000000000000000000000 /
b00000000000000000000000000000000 0
b00000000000000000000000000000000 1
02
b0000 3
04
05
06
07
08
09
0:
0;
0<
0=
0>
b000000000000 ?
b00000000 @
b1000000 A
b0000 B
b00000000000000000000000000000000 C
b00000000000000000000000000000000 D
b00000000000000000000000000000000 E
b00000000000000000000000000000000 F
b00000000000000000000000000000000 G
b0000000000000000000000000000000000000000000000000000000000000000 H
b00000000000000000000000000000000 I
b00000000000000000000000000000000 J
b00000000000000000000000000000000 K
b00000000000000000000000000000000 L
b10000000000000000000000000000000 M
b00000000 N
b000000000000000000000000 O
bUUUUUUUUUUUUUUUUUUUUUUUUUUUUUUUU P
b00000000000000000000000000000000 Q
b00000 R
b00000000000000000000000000000000 S
b0000000000000000000000000000000000000000000000000000000000000000 T
0U
b00000000000000000000000000000000 V
b00000000000000000000000000000000 W
0X
0Y
b1111 Z
b00 [
0\
bUUUUUUUUUUUUUUUUUUUUUUUUUUUUUUUU ]
bUUUUUUUUUUUUUUUUUUUUUUUUUUUUUUUU ^
0_
b00000000000000000000000000000000 `
b0000 a
b0000 b
0c
b00000000000000000000000000000000 d
b0000 e
0f
bUUUUUUUUUUUUUUUUUUUUUUUUUUUUUUUU g
bUUUUUUUUUUUUUUUUUUUUUUUUUUUUUUUU h
b00000000000000000000000000000000 i
b00000000000000000000000000000000 j
b00000000000000000000000000000000 k
0l
0m
0n
0o
0p
b00000000000000000000000000000000 q
b0000000000000000000000000000000000000000000000000000000000000000 r
0s
0t
0u
0v
0w
0x
0y
b1000000 z
0{
b00000000000000000000000000000000 |
b00000000000000000000000000000000 }
b0000 !"
b0000 ""
0#"
0$"
0%"
0&"
0'"
b00000000000000000000000000000000 ("
b00000 )"
0*"
b00000000000000000000000000000000 +"
0,"
0-"
b00000000000000000000000000000000 ."
0/"
b00000000000000000000000000000000 0"
01"
b00000000000000000000000000000000 2"
b00000 3"
b00000000000000000000000000000000 4"
05"
06"
b00000000000000000000000000000000 7"
b00000000000000000000000000000000 8"
b00000000000000000000000000000000 9"
b00000000000000000000000000000000 :"
b00000000000000000000000000000000 ;"
b00000000000000000000000000000000 <"
b00000 ="
b00000000000000000000000000000000 >"
0?"
0@"
b00000000000000000000000000000000 A"
b00000000000000000000000000000000 B"
b00000000000000000000000000000000 C"
b00000000000000000000000000000000 D"
b00000000000000000000000000000000 E"
b00000000000000000000000000000000 F"
b00000000000000000000000000000000 G"
b00000000000000000000000000000000 H"
b10000000000000000000000000000000 I"
b00 J"
b00000000000000000000000000000000 K"
b00000000000000000000000000000000 L"
b1111 M"
b00000000000000000000000000000000 N"
b00000000000000000000000000000000 O"
b00000000000000000000000000000000 P"
b00000000000000000000000000000000 Q"
b00000000000000000000000000000000 R"
b00000000000000000000000000000000 S"
b00000000000000000000000000000000 T"
b00000000000000000000000000000000 U"
b0000000000000000000000000000000000000000000000000000000000000000 V"
b0000000000000000000000000000000000000000000000000000000000000000 W"
b0000000000000000000000000000000000000000000000000000000000000000 X"
b0000000000000000000000000000000000000000000000000000000000000000 Y"
#1000000
1!
1$
b00000000000000000000000000000000 '
b11101111000000000000000000000000 -
b00000000000000000000000000000100 /
b00000000000000000000000000000100 1
b1100000 A
b0 M
1c
b00000000000000000000000000000100 j
b00000000000000000000000000000100 k
b00000000000000000000000000000100 q
b1100000 z
1{
b11101111000000000000000000000000 }
b0 I"
#2000000
0!
0$
0c
0{
#3000000
1!
1$
b00000000000000000000000000000100 (
b00000000000000000000000000000000 -
b00000000000000000000000000000000 /
b00000000000000000000000000000000 1
1>
b1000000 A
b11101111000000000000000000000000 E
b1 M
1Y
b11101111000000000000000000000000 `
1c
b00000000000000000000000000000000 j
b00000000000000000000000000000000 k
b00000000000000000000000000000000 q
b1000000 z
1{
b00000000000000000000000000000000 }
b1110 ""
1'"
b1 I"
#4000000
0!
0$
0c
0{
#5000000
1!
1$
bUUUUUUUUUUUUUUUUUUUUUUUUUUUUUUUU /
bUUUUUUUUUUUUUUUUUUUUUUUUUUUUUUUU 0
bUUUUUUUUUUUUUUUUUUUUUUUUUUUUUUUU 1
bUUUUUUUUUUUUUUUUUUUUUUUUUUUUUUUU C
bUUUUUUUUUUUUUUUUUUUUUUUUUUUUUUUU D
b100011 M
bUUUUUUUUUUUUUUUUUUUUUUUUUUUUUUUU Q
bUUUUUUUUUUUUUUUUUUUUUUUUUUUUUUUU S
bUUUUUUUUUUUUUUUUUUUUUUUUUUUUUUUU W
0_
1c
bUUUUUUUUUUUUUUUUUUUUUUUUUUUUUUUU i
bUUUUUUUUUUUUUUUUUUUUUUUUUUUUUUUU j
bUUUUUUUUUUUUUUUUUUUUUUUUUUUUUUUU k
Un
Uo
bUUUUUUUUUUUUUUUUUUUUUUUUUUUUUUUU q
0y
1{
bUUUUUUUUUUUUUUUUUUUUUUUUUUUUUUUU |
bUUUUUUUUUUUUUUUUUUUUUUUUUUUUUUUU ("
bUUUUUUUUUUUUUUUUUUUUUUUUUUUUUUUU +"
0-"
bUUUUUUUUUUUUUUUUUUUUUUUUUUUUUUUU ."
bUUUUUUUUUUUUUUUUUUUUUUUUUUUUUUUU 0"
bUUUUUUUUUUUUUUUUUUUUUUUUUUUUUUUU 2"
bUUUUUUUUUUUUUUUUUUUUUUUUUUUUUUUU 4"
bUUUUUUUUUUUUUUUUUUUUUUUUUUUUUUUU 7"
bUUUUUUUUUUUUUUUUUUUUUUUUUUUUUUUU 8"
bUUUUUUUUUUUUUUUUUUUUUUUUUUUUUUUU 9"
bUUUUUUUUUUUUUUUUUUUUUUUUUUUUUUUU :"
bUUUUUUUUUUUUUUUUUUUUUUUUUUUUUUUU ;"
bUUUUUUUUUUUUUUUUUUUUUUUUUUUUUUUU <"
bUUUUUUUUUUUUUUUUUUUUUUUUUUUUUUUU >"
bUUUUUUUUUUUUUUUUUUUUUUUUUUUUUUUU A"
bUUUUUUUUUUUUUUUUUUUUUUUUUUUUUUUU B"
bUUUUUUUUUUUUUUUUUUUUUUUUUUUUUUUU C"
bUUUUUUUUUUUUUUUUUUUUUUUUUUUUUUUU D"
bUUUUUUUUUUUUUUUUUUUUUUUUUUUUUUUU E"
bUUUUUUUUUUUUUUUUUUUUUUUUUUUUUUUU F"
bUUUUUUUUUUUUUUUUUUUUUUUUUUUUUUUU G"
b100011 I"
bUUUUUUUUUUUUUUUUUUUUUUUUUUUUUUUU L"
#6000000
0!
0$
0c
0{
#7000000
1!
1$
b00000000000000000000000000001000 '
b11101010000000000000000000001100 -
b00000000000000000000000000000100 /
b00000000000000000000000000001000 0
b00000000000000000000000000001100 1
b0000010 A
b0 M
1\
b00000000000000000000000000000100 ^
1c
b00000000000000000000000000001000 i
b00000000000000000000000000000100 j
b00000000000000000000000000001100 k
0n
0o
b00000000000000000000000000001100 q
b0000010 z
1{
b11101010000000000000000000001100 }
b0 I"
#8000000
0!
0$
0c
0{
#9000000
1!
1$
b00000000000000000000000000001100 (
b1100 *
b11101010000000000000000000000110 -
bUUUUUUUUUUUUUUUUUUUUUUUUUUUUUUUU /
bUUUUUUUUUUUUUUUUUUUUUUUUUUUUUUUU 0
bUUUUUUUUUUUUUUUUUUUUUUUUUUUUUUUU 1
b000000001100 ?
b00001100 @
bXXXXXXX A
b11101010000000000000000000001100 E
b1 M
b000000000000000000001100 O
0Y
bUU [
b11101010000000000000000000001100 `
b1100 b
1c
bUUUUUUUUUUUUUUUUUUUUUUUUUUUUUUUU i
bUUUUUUUUUUUUUUUUUUUUUUUUUUUUUUUU j
bUUUUUUUUUUUUUUUUUUUUUUUUUUUUUUUU k
Un
Uo
bUUUUUUUUUUUUUUUUUUUUUUUUUUUUUUUU q
bXXXXXXX z
1{
b11101010000000000000000000000110 }
b1 I"
bUU J"
#10000000
0!
0$
0c
0{
#11000000
1!
1$
b0000 *
b00000000000000000000000000001100 /
b00000000000000000000000000000011 0
b00000000000000000000000000010000 1
15
b100000 M
b0000 b
1c
b00000000000000000000000000000011 i
b00000000000000000000000000001100 j
b00000000000000000000000000010000 k
1l
0m
0n
0o
b00000000000000000000000000010000 q
1{
b100000 I"
#12000000
0!
0$
0c
0{
#13000000
1!
1$
b00000000000000000000000001000000 '
b11100101100100000000000000000000 -
b00000000000000000000000000000100 /
b00000000000000000000000001000000 0
b00000000000000000000000001000100 1
05
b0010000 A
b0 M
1c
b00000000000000000000000001000000 i
b00000000000000000000000000000100 j
b00000000000000000000000001000100 k
0l
b00000000000000000000000001000100 q
b0010000 z
1{
b11100101100100000000000000000000 }
b0 I"
#14000000
0!
0$
0c
0{
#15000000
1!
1$
b00000000000000000000000001000100 (
b00000000000000000000000000000000 -
bUUUUUUUUUUUUUUUUUUUUUUUUUUUUUUUU /
bUUUUUUUUUUUUUUUUUUUUUUUUUUUUUUUU 0
bUUUUUUUUUUUUUUUUUUUUUUUUUUUUUUUU 1
b000000000000 ?
b00000000 @
b1000000 A
b11100101100100000000000000000000 E
b1 M
b11111111 N
b100100000000000000000000 O
1Y
b00 [
b11100101100100000000000000000000 `
1c
bUUUUUUUUUUUUUUUUUUUUUUUUUUUUUUUU i
bUUUUUUUUUUUUUUUUUUUUUUUUUUUUUUUU j
bUUUUUUUUUUUUUUUUUUUUUUUUUUUUUUUU k
Un
Uo
bUUUUUUUUUUUUUUUUUUUUUUUUUUUUUUUU q
1t
b1000000 z
1{
b00000000000000000000000000000000 }
b1 I"
b00 J"
#16000000
0!
0$
0c
0{
#17000000
1!
1$
b11001 M
1c
1{
b11001 I"
#18000000
0!
0$
0c
0{
#19000000
1!
1$
b00000000000000000000000000000000 /
bXXXXXXXXXXXXXXXXXXXXXXXXXXXXXXXX 1
X4
U8
b11111 M
b00000000000000000000000000000000 P
1c
b00000000000000000000000000000000 j
bXXXXXXXXXXXXXXXXXXXXXXXXXXXXXXXX k
Xm
0o
Xp
bXXXXXXXXXXXXXXXXXXXXXXXXXXXXXXXX q
Uw
1{
b11111 I"
#20000000
0!
0$
0c
0{
#21000000
1!
1$
bXXXXXXXXXXXXXXXXXXXXXXXXXXXXXXXX +
b11101010000000000000000000000110 -
bUUUUUUUUUUUUUUUUUUUUUUUUUUUUUUUU /
bUUUUUUUUUUUUUUUUUUUUUUUUUUUUUUUU 1
04
08
bXXXXXXX A
bXXXXXXXXXXXXXXXXXXXXXXXXXXXXXXXX G
b101010 M
bXX [
1c
bXXXXXXXXXXXXXXXXXXXXXXXXXXXXXXXX d
bUUUUUUUUUUUUUUUUUUUUUUUUUUUUUUUU j
bUUUUUUUUUUUUUUUUUUUUUUUUUUUUUUUU k
0m
Uo
0p
bUUUUUUUUUUUUUUUUUUUUUUUUUUUUUUUU q
0w
bXXXXXXX z
1{
b11101010000000000000000000000110 }
b101010 I"
bXX J"
#22000000
0!
0$
0c
0{
#23000000
1!
1$
b11101010000000000000000000000110 +
12
b11101010000000000000000000000110 F
b110010 M
b11101010000000000000000000000110 V
1c
b11101010000000000000000000000110 d
1f
1{
b11101010000000000000000000000110 H"
b110010 I"
b11101010000000000000000000000110 K"
b11111111111111111111111111111111 Q"
#24000000
0!
0$
0c
0{
#25000000
1!
1$
b00000000000000000000000001000100 '
bXXXXXXXXXXXXXXXXXXXXXXXXXXXXXXXX +
b11101010000000000000000000000110 ,
b11100110000000000000000000010001 -
b11101010000000000000000000000110 .
b00000000000000000000000000000100 /
b00000000000000000000000001000100 0
b00000000000000000000000001001000 1
02
08
b0010001 A
b0 M
1c
bXXXXXXXXXXXXXXXXXXXXXXXXXXXXXXXX d
0f
b11101010000000000000000000000110 g
b11101010000000000000000000000110 h
b00000000000000000000000001000100 i
b00000000000000000000000000000100 j
b00000000000000000000000001001000 k
0n
0o
b00000000000000000000000001001000 q
0w
b0010001 z
1{
b11100110000000000000000000010001 }
b0 I"
#26000000
0!
0$
0c
0{
#27000000
1!
1$
b00000000000000000000000001001000 (
b0001 *
b11101010000000000000000000000110 -
bUUUUUUUUUUUUUUUUUUUUUUUUUUUUUUUU .
bUUUUUUUUUUUUUUUUUUUUUUUUUUUUUUUU /
bUUUUUUUUUUUUUUUUUUUUUUUUUUUUUUUU 0
bUUUUUUUUUUUUUUUUUUUUUUUUUUUUUUUU 1
b000000010001 ?
b00010001 @
bXXXXXXX A
b11100110000000000000000000010001 E
b1 M
b00000000 N
b000000000000000000010001 O
0Y
bUU [
b11100110000000000000000000010001 `
b0001 b
1c
bUUUUUUUUUUUUUUUUUUUUUUUUUUUUUUUU h
bUUUUUUUUUUUUUUUUUUUUUUUUUUUUUUUU i
bUUUUUUUUUUUUUUUUUUUUUUUUUUUUUUUU j
bUUUUUUUUUUUUUUUUUUUUUUUUUUUUUUUU k
Un
Uo
bUUUUUUUUUUUUUUUUUUUUUUUUUUUUUUUU q
0t
bXXXXXXX z
1{
b11101010000000000000000000000110 }
b1 I"
bUU J"
#28000000
0!
0$
0c
0{
#29000000
1!
1$
b1110 )
b0000 *
bUUUUUUUUUUUUUUUUUUUUUUUUUUUUUUUU ,
b00000000000000000000000000000000 -
b11101010000000000000000000000110 .
b00000000000000000000000000010001 /
b00000000000000000000000000010010 0
b00000000000000000000000000010000 1
b1000001 A
b11101010000000000000000000000110 C
b100010 M
b10 [
b1110 a
b0000 b
1c
bUUUUUUUUUUUUUUUUUUUUUUUUUUUUUUUU g
b11101010000000000000000000000110 h
b00000000000000000000000000010010 i
b00000000000000000000000000010001 j
b00000000000000000000000000010000 k
0n
0o
b00000000000000000000000000010000 q
b1000001 z
1{
b00000000000000000000000000000000 }
b100010 I"
b10 J"
#30000000
0!
0$
0c
0{
#31000000
1!
1$
b0000 )
b11101010000000000000000000000110 ,
bUUUUUUUUUUUUUUUUUUUUUUUUUUUUUUUU /
b11101010000000000000000000000110 0
bUUU0U0U0000000000000000000000UU0 1
b101100 M
bUUUUUUUUUUUUUUUUUUUUUUUUUUUUUUUU ^
b0000 a
1c
b11101010000000000000000000000110 g
b11101010000000000000000000000110 i
bUUUUUUUUUUUUUUUUUUUUUUUUUUUUUUUU j
bUUU0U0U0000000000000000000000UU0 k
1n
Uo
bUUU0U0U0000000000000000000000UU0 q
1{
b101100 I"
#32000000
0!
0$
0c
0{
#33000000
1!
1$
bUUUUUUUUUUUUUUUUUUUUUUUUUUUUUUUU '
b11101010000000000000000000000110 -
b00000000000000000000000000000100 /
bUUUUUUUUUUUUUUUUUUUUUUUUUUUUUUUU 0
bXXXXXXXXXXXXXXXXXXXXXXXXXXXXXXXX 1
X4
bXXXXXXX A
b0 M
0\
1c
bUUUUUUUUUUUUUUUUUUUUUUUUUUUUUUUU i
b00000000000000000000000000000100 j
bXXXXXXXXXXXXXXXXXXXXXXXXXXXXXXXX k
Xm
Un
0o
Xp
bXXXXXXXXXXXXXXXXXXXXXXXXXXXXXXXX q
bXXXXXXX z
1{
b11101010000000000000000000000110 }
b0 I"
#34000000
0!
0$
0c
0{
#35000000
1!
1$
bXXXXXXXXXXXXXXXXXXXXXXXXXXXXXXXX (
b0110 *
b00000000000000000000000000000000 -
bUUUUUUUUUUUUUUUUUUUUUUUUUUUUUUUU .
bUUUUUUUUUUUUUUUUUUUUUUUUUUUUUUUU /
b11101010000000000000000000000110 0
bUUU0U0U0000000000000000000000UU0 1
04
b000000000110 ?
b00000110 @
b1000001 A
b11101010000000000000000000000110 E
b1 M
b000000000000000000000110 O
b11101010000000000000000000000110 `
b0110 b
1c
bUUUUUUUUUUUUUUUUUUUUUUUUUUUUUUUU h
b11101010000000000000000000000110 i
bUUUUUUUUUUUUUUUUUUUUUUUUUUUUUUUU j
bUUU0U0U0000000000000000000000UU0 k
0m
1n
Uo
0p
bUUU0U0U0000000000000000000000UU0 q
b1000001 z
1{
b00000000000000000000000000000000 }
b1 I"
#36000000
0!
0$
0c
0{
#37000000
1!
1$
b0000 *
b11101010000000000000000000000110 .
b00000000000000000000000000000110 /
b00XXXXXXXXXXXXXXXXXXXXXXXXXXXXXX 0
bXXXXXXXXXXXXXXXXXXXXXXXXXXXXXXXX 1
X4
15
b100000 M
b0000 b
1c
b11101010000000000000000000000110 h
b00XXXXXXXXXXXXXXXXXXXXXXXXXXXXXX i
b00000000000000000000000000000110 j
bXXXXXXXXXXXXXXXXXXXXXXXXXXXXXXXX k
1l
Xm
0n
0o
Xp
bXXXXXXXXXXXXXXXXXXXXXXXXXXXXXXXX q
1{
b100000 I"
#38000000
0!
0$
0c
0{
#39000000
1!
1$
bXXXXXXXXXXXXXXXXXXXXXXXXXXXXXX00 '
b11101010000000000000000000000110 -
b00000000000000000000000000000100 /
bXXXXXXXXXXXXXXXXXXXXXXXXXXXXXX00 0
05
bXXXXXXX A
b0 M
1c
bXXXXXXXXXXXXXXXXXXXXXXXXXXXXXX00 i
b00000000000000000000000000000100 j
0l
Xm
Xn
bXXXXXXX z
1{
b11101010000000000000000000000110 }
b0 I"
#40000000
0!
0$
0c
0{
#41000000
1!
1$
b0110 *
b00000000000000000000000000000000 -
bUUUUUUUUUUUUUUUUUUUUUUUUUUUUUUUU .
bUUUUUUUUUUUUUUUUUUUUUUUUUUUUUUUU /
b11101010000000000000000000000110 0
bUUU0U0U0000000000000000000000UU0 1
04
b1000001 A
b1 M
b0110 b
1c
bUUUUUUUUUUUUUUUUUUUUUUUUUUUUUUUU h
b11101010000000000000000000000110 i
bUUUUUUUUUUUUUUUUUUUUUUUUUUUUUUUU j
bUUU0U0U0000000000000000000000UU0 k
0m
1n
Uo
0p
bUUU0U0U0000000000000000000000UU0 q
b1000001 z
1{
b00000000000000000000000000000000 }
b1 I"
#42000000
0!
0$
0c
0{
#43000000
1!
1$
b0000 *
b11101010000000000000000000000110 .
b00000000000000000000000000000110 /
b00XXXXXXXXXXXXXXXXXXXXXXXXXXXXXX 0
bXXXXXXXXXXXXXXXXXXXXXXXXXXXXXXXX 1
X4
15
b100000 M
b0000 b
1c
b11101010000000000000000000000110 h
b00XXXXXXXXXXXXXXXXXXXXXXXXXXXXXX i
b00000000000000000000000000000110 j
bXXXXXXXXXXXXXXXXXXXXXXXXXXXXXXXX k
1l
Xm
0n
0o
Xp
bXXXXXXXXXXXXXXXXXXXXXXXXXXXXXXXX q
1{
b100000 I"
#44000000
0!
0$
0c
0{
#45000000
1!
1$
b11101010000000000000000000000110 -
b00000000000000000000000000000100 /
bXXXXXXXXXXXXXXXXXXXXXXXXXXXXXX00 0
05
bXXXXXXX A
b0 M
1c
bXXXXXXXXXXXXXXXXXXXXXXXXXXXXXX00 i
b00000000000000000000000000000100 j
0l
Xm
Xn
bXXXXXXX z
1{
b11101010000000000000000000000110 }
b0 I"
#46000000
0!
0$
0c
0{
#47000000
1!
1$
b0110 *
b00000000000000000000000000000000 -
bUUUUUUUUUUUUUUUUUUUUUUUUUUUUUUUU .
bUUUUUUUUUUUUUUUUUUUUUUUUUUUUUUUU /
b11101010000000000000000000000110 0
bUUU0U0U0000000000000000000000UU0 1
04
b1000001 A
b1 M
b0110 b
1c
bUUUUUUUUUUUUUUUUUUUUUUUUUUUUUUUU h
b11101010000000000000000000000110 i
bUUUUUUUUUUUUUUUUUUUUUUUUUUUUUUUU j
bUUU0U0U0000000000000000000000UU0 k
0m
1n
Uo
0p
bUUU0U0U0000000000000000000000UU0 q
b1000001 z
1{
b00000000000000000000000000000000 }
b1 I"
#48000000
0!
0$
0c
0{
#49000000
1!
1$
b0000 *
b11101010000000000000000000000110 .
b00000000000000000000000000000110 /
b00XXXXXXXXXXXXXXXXXXXXXXXXXXXXXX 0
bXXXXXXXXXXXXXXXXXXXXXXXXXXXXXXXX 1
X4
15
b100000 M
b0000 b
1c
b11101010000000000000000000000110 h
b00XXXXXXXXXXXXXXXXXXXXXXXXXXXXXX i
b00000000000000000000000000000110 j
bXXXXXXXXXXXXXXXXXXXXXXXXXXXXXXXX k
1l
Xm
0n
0o
Xp
bXXXXXXXXXXXXXXXXXXXXXXXXXXXXXXXX q
1{
b100000 I"
#50000000
0!
0$
0c
0{
#51000000
1!
1$
b11101010000000000000000000000110 -
b00000000000000000000000000000100 /
bXXXXXXXXXXXXXXXXXXXXXXXXXXXXXX00 0
05
bXXXXXXX A
b0 M
1c
bXXXXXXXXXXXXXXXXXXXXXXXXXXXXXX00 i
b00000000000000000000000000000100 j
0l
Xm
Xn
bXXXXXXX z
1{
b11101010000000000000000000000110 }
b0 I"
#52000000
0!
0$
0c
0{
#53000000
1!
1$
b0110 *
b00000000000000000000000000000000 -
bUUUUUUUUUUUUUUUUUUUUUUUUUUUUUUUU .
bUUUUUUUUUUUUUUUUUUUUUUUUUUUUUUUU /
b11101010000000000000000000000110 0
bUUU0U0U0000000000000000000000UU0 1
04
b1000001 A
b1 M
b0110 b
1c
bUUUUUUUUUUUUUUUUUUUUUUUUUUUUUUUU h
b11101010000000000000000000000110 i
bUUUUUUUUUUUUUUUUUUUUUUUUUUUUUUUU j
bUUU0U0U0000000000000000000000UU0 k
0m
1n
Uo
0p
bUUU0U0U0000000000000000000000UU0 q
b1000001 z
1{
b00000000000000000000000000000000 }
b1 I"
#54000000
0!
0$
0c
0{
#55000000
1!
1$
b0000 *
b11101010000000000000000000000110 .
b00000000000000000000000000000110 /
b00XXXXXXXXXXXXXXXXXXXXXXXXXXXXXX 0
bXXXXXXXXXXXXXXXXXXXXXXXXXXXXXXXX 1
X4
15
b100000 M
b0000 b
1c
b11101010000000000000000000000110 h
b00XXXXXXXXXXXXXXXXXXXXXXXXXXXXXX i
b00000000000000000000000000000110 j
bXXXXXXXXXXXXXXXXXXXXXXXXXXXXXXXX k
1l
Xm
0n
0o
Xp
bXXXXXXXXXXXXXXXXXXXXXXXXXXXXXXXX q
1{
b100000 I"
#56000000
0!
0$
0c
0{
#57000000
1!
1$
b11101010000000000000000000000110 -
b00000000000000000000000000000100 /
bXXXXXXXXXXXXXXXXXXXXXXXXXXXXXX00 0
05
bXXXXXXX A
b0 M
1c
bXXXXXXXXXXXXXXXXXXXXXXXXXXXXXX00 i
b00000000000000000000000000000100 j
0l
Xm
Xn
bXXXXXXX z
1{
b11101010000000000000000000000110 }
b0 I"
#58000000
0!
0$
0c
0{
