Assignment2/Stage5/wave.vcd
$date
  Sat Mar 12 23:09:07 2022
$end
$version
  GHDL v0
$end
$timescale
  1 fs
$end
$scope module standard $end
$upscope $end
$scope module std_logic_1164 $end
$upscope $end
$scope module numeric_std $end
$upscope $end
$scope module mytypes $end
$upscope $end
$scope module testbench $end
$var reg 1 ! clk $end
$var reg 1 " reset $end
$scope module uut $end
$var reg 1 # clk $end
$var reg 1 $ reset $end
$var reg 32 % pcin[31:0] $end
$var reg 32 & pcout[31:0] $end
$comment instr_class is not handled $end
$comment op is not handled $end
$comment dp_subclass is not handled $end
$comment dp_operand_src is not handled $end
$comment load_store is not handled $end
$comment dt_offset_sign is not handled $end
$var reg 4 ' rad2[3:0] $end
$var reg 1 ( sbit $end
$var reg 32 ) wd[31:0] $end
$var reg 32 * rd1[31:0] $end
$var reg 32 + rd[31:0] $end
$var reg 32 , rd2[31:0] $end
$var reg 32 - alu2[31:0] $end
$var reg 32 . alu1[31:0] $end
$var reg 32 / result[31:0] $end
$var reg 1 0 rw $end
$var reg 4 1 mw[3:0] $end
$var reg 1 2 cout $end
$var reg 1 3 cin $end
$var reg 1 4 zf $end
$var reg 1 5 nf $end
$var reg 1 6 vf $end
$var reg 1 7 cf $end
$var reg 1 8 zflag $end
$var reg 1 9 nflag $end
$var reg 1 : vflag $end
$var reg 1 ; cflag $end
$var reg 1 < p $end
$var reg 12 = offset[11:0] $end
$var reg 8 > immd[7:0] $end
$var reg 7 ? addr[6:0] $end
$comment opalu is not handled $end
$var reg 32 @ a[31:0] $end
$var reg 32 A b[31:0] $end
$var reg 32 B ir[31:0] $end
$var reg 32 C dr[31:0] $end
$var reg 32 D res[31:0] $end
$var integer 32 E curr $end
$var reg 8 F s_ext[7:0] $end
$var reg 24 G s_offset[23:0] $end
$var reg 32 H c[31:0] $end
$var reg 32 I shift_data[31:0] $end
$var reg 5 J shift_amt[4:0] $end
$comment shift_typ is not handled $end
$comment shift_ty is not handled $end
$comment dt_operand_src is not handled $end
$comment shift_operand_src is not handled $end
$var reg 32 K oupt[31:0] $end
$var reg 1 L cout_s $end
$scope module dut1 $end
$var reg 32 M instruction[31:0] $end
$comment instr_class is not handled $end
$comment operation is not handled $end
$comment dp_subclass is not handled $end
$comment dp_operand_src is not handled $end
$comment dt_operand_src is not handled $end
$comment load_store is not handled $end
$comment dt_offset_sign is not handled $end
$comment shift_operand_src is not handled $end
$comment shift_typ is not handled $end
$upscope $end
$scope module dut2 $end
$var reg 4 N rd1[3:0] $end
$var reg 4 O rd2[3:0] $end
$var reg 1 P clk $end
$var reg 32 Q data[31:0] $end
$var reg 4 R wad[3:0] $end
$var reg 1 S wn $end
$var reg 32 T dd1[31:0] $end
$var reg 32 U dd2[31:0] $end
$comment reg is not handled $end
$upscope $end
$scope module dut3 $end
$var reg 32 V a[31:0] $end
$var reg 32 W b[31:0] $end
$comment opcode is not handled $end
$var reg 32 X res[31:0] $end
$var reg 1 Y cin $end
$var reg 1 Z cout $end
$upscope $end
$scope module dut4 $end
$var reg 1 [ msba $end
$var reg 1 \ msbb $end
$var reg 1 ] cout $end
$var reg 32 ^ res[31:0] $end
$var reg 1 _ shiftout $end
$var reg 32 ` instr[31:0] $end
$comment dp_subclass is not handled $end
$var reg 1 a sbit $end
$var reg 1 b zflag $end
$var reg 1 c nflag $end
$var reg 1 d vflag $end
$var reg 1 e cflag $end
$upscope $end
$scope module dut5 $end
$var reg 7 f addr[6:0] $end
$var reg 1 g clk $end
$var reg 32 h din[31:0] $end
$var reg 32 i dout[31:0] $end
$var reg 4 j wn[3:0] $end
$comment dmem is not handled $end
$upscope $end
$scope module dut6 $end
$var reg 4 k condition[3:0] $end
$var reg 1 l zflag $end
$var reg 1 m vflag $end
$var reg 1 n cflag $end
$var reg 1 o nflag $end
$var reg 1 p predicate $end
$upscope $end
$scope module dut7 $end
$var reg 32 q inp[31:0] $end
$var reg 5 r amt[4:0] $end
$comment typ is not handled $end
$var reg 1 s carry_in $end
$var reg 32 t oupt[31:0] $end
$var reg 1 u carry_out $end
$var reg 32 v ouptl[31:0] $end
$var reg 1 w carry_outl $end
$var reg 32 x ouptr[31:0] $end
$var reg 1 y carry_outr $end
$scope module dutl $end
$var reg 32 z inp[31:0] $end
$var reg 5 { amt[4:0] $end
$var reg 32 | oupt[31:0] $end
$var reg 1 } carry_in $end
$var reg 1 !" carry_out $end
$var reg 32 "" out0[31:0] $end
$var reg 32 #" out1[31:0] $end
$var reg 32 $" out2[31:0] $end
$var reg 32 %" out3[31:0] $end
$var reg 32 &" out4[31:0] $end
$upscope $end
$scope module dutr $end
$var reg 32 '" inp[31:0] $end
$var reg 5 (" amt[4:0] $end
$comment typ is not handled $end
$var reg 32 )" oupt[31:0] $end
$var reg 1 *" carry_in $end
$var reg 1 +" carry_out $end
$var reg 32 ," out0[31:0] $end
$var reg 32 -" out1[31:0] $end
$var reg 32 ." out2[31:0] $end
$var reg 32 /" out3[31:0] $end
$var reg 32 0" out4[31:0] $end
$var reg 32 1" sig[31:0] $end
$upscope $end
$upscope $end
$upscope $end
$upscope $end
$enddefinitions $end
#0
U!
1"
U#
1$
b00000000000000000000000000000000 %
bUUUUUUUUUUUUUUUUUUUUUUUUUUUUUUUU &
bUUUU '
0(
bUUUUUUUUUUUUUUUUUUUUUUUUUUUUUUUU )
bUUUUUUUUUUUUUUUUUUUUUUUUUUUUUUUU *
b11100011101000000000000000000000 +
bUUUUUUUUUUUUUUUUUUUUUUUUUUUUUUUU ,
b00000000000000000000000000000100 -
b00000000000000000000000000000000 .
b00000000000000000000000000000100 /
00
b0000 1
02
03
04
05
06
07
08
09
0:
0;
1<
bUUUUUUUUUUUU =
bUUUUUUUU >
b1000000 ?
bUUUUUUUUUUUUUUUUUUUUUUUUUUUUUUUU @
bUUUUUUUUUUUUUUUUUUUUUUUUUUUUUUUU A
bUUUUUUUUUUUUUUUUUUUUUUUUUUUUUUUU B
bUUUUUUUUUUUUUUUUUUUUUUUUUUUUUUUU C
bUUUUUUUUUUUUUUUUUUUUUUUUUUUUUUUU D
b0 E
b00000000 F
bUUUUUUUUUUUUUUUUUUUUUUUU G
bUUUUUUUUUUUUUUUUUUUUUUUUUUUUUUUU H
bUUUUUUUUUUUUUUUUUUUUUUUUUUUUUUUU I
bUUUUU J
bUUUUUUUUUUUUUUUUUUUUUUUUUUUUUUUU K
0L
bUUUUUUUUUUUUUUUUUUUUUUUUUUUUUUUU M
bUUUU N
bUUUU O
UP
bUUUUUUUUUUUUUUUUUUUUUUUUUUUUUUUU Q
bUUUU R
0S
bUUUUUUUUUUUUUUUUUUUUUUUUUUUUUUUU T
bUUUUUUUUUUUUUUUUUUUUUUUUUUUUUUUU U
b00000000000000000000000000000000 V
b00000000000000000000000000000100 W
b00000000000000000000000000000100 X
0Y
0Z
U[
0\
0]
b00000000000000000000000000000100 ^
0_
bUUUUUUUUUUUUUUUUUUUUUUUUUUUUUUUU `
Ua
0b
0c
0d
0e
b1000000 f
Ug
bUUUUUUUUUUUUUUUUUUUUUUUUUUUUUUUU h
b11100011101000000000000000000000 i
b0000 j
bUUUU k
0l
0m
0n
0o
1p
bUUUUUUUUUUUUUUUUUUUUUUUUUUUUUUUU q
bUUUUU r
0s
bUUUUUUUUUUUUUUUUUUUUUUUUUUUUUUUU t
0u
bUUUUUUUUUUUUUUUUUUUUUUUUUUUUUUUU v
0w
bUUUUUUUUUUUUUUUUUUUUUUUUUUUUUUUU x
0y
bUUUUUUUUUUUUUUUUUUUUUUUUUUUUUUUU z
bUUUUU {
bUUUUUUUUUUUUUUUUUUUUUUUUUUUUUUUU |
0}
0!"
bUUUUUUUUUUUUUUUUUUUUUUUUUUUUUUUU ""
bUUUUUUUUUUUUUUUUUUUUUUUUUUUUUUUU #"
bUUUUUUUUUUUUUUUUUUUUUUUUUUUUUUUU $"
bUUUUUUUUUUUUUUUUUUUUUUUUUUUUUUUU %"
bUUUUUUUUUUUUUUUUUUUUUUUUUUUUUUUU &"
bUUUUUUUUUUUUUUUUUUUUUUUUUUUUUUUU '"
bUUUUU ("
bUUUUUUUUUUUUUUUUUUUUUUUUUUUUUUUU )"
0*"
0+"
bUUUUUUUUUUUUUUUUUUUUUUUUUUUUUUUU ,"
bUUUUUUUUUUUUUUUUUUUUUUUUUUUUUUUU -"
bUUUUUUUUUUUUUUUUUUUUUUUUUUUUUUUU ."
bUUUUUUUUUUUUUUUUUUUUUUUUUUUUUUUU /"
bUUUUUUUUUUUUUUUUUUUUUUUUUUUUUUUU 0"
bUUUUUUUUUUUUUUUUUUUUUUUUUUUUUUUU 1"
#1000000
0!
0"
0#
0$
0P
0g
#2000000
1!
1#
b00000000000000000000000000000100 &
b0000 '
b00000000000000000000000000000000 +
bUUUUUUUUUUUUUUUUUUUUUUUUUUUUUUUU -
bUUUUUUUUUUUUUUUUUUUUUUUUUUUUUUUU .
bUUUUUUUUUUUUUUUUUUUUUUUUUUUUUUUU /
b000000000000 =
b00000000 >
bUUUUUUU ?
b11100011101000000000000000000000 B
b1 E
b11111111 F
b101000000000000000000000 G
b00000 J
b11100011101000000000000000000000 M
b0000 N
b0000 O
1P
b0000 R
bUUUUUUUUUUUUUUUUUUUUUUUUUUUUUUUU V
bUUUUUUUUUUUUUUUUUUUUUUUUUUUUUUUU W
bUUUUUUUUUUUUUUUUUUUUUUUUUUUUUUUU X
U\
bUUUUUUUUUUUUUUUUUUUUUUUUUUUUUUUU ^
b11100011101000000000000000000000 `
0a
bUUUUUUU f
1g
b00000000000000000000000000000000 i
b1110 k
b00000 r
b00000 {
b00000 ("
#3000000
0!
0#
0P
0g
#4000000
1!
1#
b10111 E
b00000000000000000000000000000000 I
b00000000000000000000000000000000 K
1P
1g
b00000000000000000000000000000000 q
b00000000000000000000000000000000 t
b00000000000000000000000000000000 v
b00000000000000000000000000000000 x
b00000000000000000000000000000000 z
b00000000000000000000000000000000 |
b00000000000000000000000000000000 ""
b00000000000000000000000000000000 #"
b00000000000000000000000000000000 $"
b00000000000000000000000000000000 %"
b00000000000000000000000000000000 &"
b00000000000000000000000000000000 '"
b00000000000000000000000000000000 )"
b00000000000000000000000000000000 ,"
b00000000000000000000000000000000 -"
b00000000000000000000000000000000 ."
b00000000000000000000000000000000 /"
b00000000000000000000000000000000 0"
b00000000000000000000000000000000 1"
#5000000
0!
0#
0P
0g
#6000000
1!
1#
b00000000000000000000000000000000 -
b00000000000000000000000000000000 /
b00000000000000000000000000000000 A
b11110 E
1P
b00000000000000000000000000000000 W
b00000000000000000000000000000000 X
0\
b00000000000000000000000000000000 ^
1g
b00000000000000000000000000000000 h
#7000000
0!
0#
0P
0g
#8000000
1!
1#
b00000000000000000000000000000000 )
10
b0000000 ?
b00000000000000000000000000000000 D
b101000 E
1P
b00000000000000000000000000000000 Q
1S
b0000000 f
1g
#9000000
0!
0#
0P
0g
#10000000
1!
1#
b00000000000000000000000000000100 %
b00000000000000000000000000000000 *
b11100011101000000001000000000000 +
b00000000000000000000000000000000 ,
b00000000000000000000000000000100 -
b00000000000000000000000000000100 .
b00000000000000000000000000001000 /
00
b1000001 ?
b0 E
1P
0S
b00000000000000000000000000000000 T
b00000000000000000000000000000000 U
b00000000000000000000000000000100 V
b00000000000000000000000000000100 W
b00000000000000000000000000001000 X
0[
b00000000000000000000000000001000 ^
b1000001 f
1g
b11100011101000000001000000000000 i
#11000000
0!
0#
0P
0g
#12000000
1!
1#
b00000000000000000000000000001000 &
b00000000000000000000000000000000 +
b00000000000000000000000000000000 -
bUUUUUUUUUUUUUUUUUUUUUUUUUUUUUUUU .
b00000000000000000000000000000000 /
b0000000 ?
b11100011101000000001000000000000 B
b1 E
b101000000001000000000000 G
b11100011101000000001000000000000 M
1P
b0001 R
bUUUUUUUUUUUUUUUUUUUUUUUUUUUUUUUU V
b00000000000000000000000000000000 W
b00000000000000000000000000000000 X
b00000000000000000000000000000000 ^
b11100011101000000001000000000000 `
b0000000 f
1g
b00000000000000000000000000000000 i
#13000000
0!
0#
0P
0g
#14000000
1!
1#
b0001 '
bUUUUUUUUUUUUUUUUUUUUUUUUUUUUUUUU ,
b00000000000000000000000000000000 .
b00000000000000000000000000000000 @
b10111 E
b0001 O
1P
bUUUUUUUUUUUUUUUUUUUUUUUUUUUUUUUU U
b00000000000000000000000000000000 V
1g
#15000000
0!
0#
0P
0g
#16000000
1!
1#
b11110 E
1P
1g
#17000000
0!
0#
0P
0g
#18000000
1!
1#
10
b101000 E
1P
1S
1g
#19000000
0!
0#
0P
0g
#20000000
1!
1#
b00000000000000000000000000001000 %
b11100000100000000000000000000001 +
b00000000000000000000000000000000 ,
b00000000000000000000000000000100 -
b00000000000000000000000000001000 .
b00000000000000000000000000001100 /
00
b1000010 ?
b0 E
1P
0S
b00000000000000000000000000000000 U
b00000000000000000000000000001000 V
b00000000000000000000000000000100 W
b00000000000000000000000000001100 X
b00000000000000000000000000001100 ^
b1000010 f
1g
b11100000100000000000000000000001 i
#21000000
0!
0#
0P
0g
#22000000
1!
1#
b00000000000000000000000000001100 &
b00000000000000000000000000000000 +
b00000000000000000000000000000000 -
b00000000000000000000000000000000 .
b00000000000000000000000000000000 /
b000000000001 =
b00000001 >
b0000000 ?
b11100000100000000000000000000001 B
b1 E
b100000000000000000000001 G
b11100000100000000000000000000001 M
1P
b0000 R
b00000000000000000000000000000000 V
b00000000000000000000000000000000 W
b00000000000000000000000000000000 X
b00000000000000000000000000000000 ^
b11100000100000000000000000000001 `
b0000000 f
1g
b00000000000000000000000000000000 i
#23000000
0!
0#
0P
0g
#24000000
1!
1#
b0000 '
b10100 E
b0000 O
1P
1g
#25000000
0!
0#
0P
0g
#26000000
1!
1#
b11110 E
1P
1g
#27000000
0!
0#
0P
0g
#28000000
1!
1#
10
b101000 E
1P
1S
1g
#29000000
0!
0#
0P
0g
#30000000
1!
1#
b00000000000000000000000000001100 %
b11100010100000010001000000000001 +
b00000000000000000000000000000100 -
b00000000000000000000000000001100 .
b00000000000000000000000000010000 /
00
b1000011 ?
b0 E
1P
0S
b00000000000000000000000000001100 V
b00000000000000000000000000000100 W
b00000000000000000000000000010000 X
b00000000000000000000000000010000 ^
b1000011 f
1g
b11100010100000010001000000000001 i
#31000000
0!
0#
0P
0g
#32000000
1!
1#
b00000000000000000000000000010000 &
b0001 '
b00000000000000000000000000000000 +
b00000000000000000000000000000000 -
b00000000000000000000000000000000 .
b00000000000000000000000000000000 /
b0000000 ?
b11100010100000010001000000000001 B
b1 E
b100000010001000000000001 G
b11100010100000010001000000000001 M
b0001 N
b0001 O
1P
b0001 R
b00000000000000000000000000000000 V
b00000000000000000000000000000000 W
b00000000000000000000000000000000 X
b00000000000000000000000000000000 ^
b11100010100000010001000000000001 `
b0000000 f
1g
b00000000000000000000000000000000 i
#33000000
0!
0#
0P
0g
#34000000
1!
1#
b10111 E
b00000000000000000000000000000001 I
b00000000000000000000000000000001 K
1P
1g
b00000000000000000000000000000001 q
b00000000000000000000000000000001 t
b00000000000000000000000000000001 v
b00000000000000000000000000000001 x
b00000000000000000000000000000001 z
b00000000000000000000000000000001 |
b00000000000000000000000000000001 ""
b00000000000000000000000000000001 #"
b00000000000000000000000000000001 $"
b00000000000000000000000000000001 %"
b00000000000000000000000000000001 &"
b00000000000000000000000000000001 '"
b00000000000000000000000000000001 )"
b00000000000000000000000000000001 ,"
b00000000000000000000000000000001 -"
b00000000000000000000000000000001 ."
b00000000000000000000000000000001 /"
b00000000000000000000000000000001 0"
#35000000
0!
0#
0P
0g
#36000000
1!
1#
b00000000000000000000000000000001 -
b00000000000000000000000000000001 /
b00000000000000000000000000000001 A
b11110 E
1P
b00000000000000000000000000000001 W
b00000000000000000000000000000001 X
b00000000000000000000000000000001 ^
1g
b00000000000000000000000000000001 h
#37000000
0!
0#
0P
0g
#38000000
1!
1#
b00000000000000000000000000000001 )
10
b00000000000000000000000000000001 D
b101000 E
1P
b00000000000000000000000000000001 Q
1S
1g
#39000000
0!
0#
0P
0g
#40000000
1!
1#
b00000000000000000000000000010000 %
b00000000000000000000000000000001 *
b11100011010100010000000000000011 +
b00000000000000000000000000000001 ,
b00000000000000000000000000000100 -
b00000000000000000000000000010000 .
b00000000000000000000000000010100 /
00
b1000100 ?
b0 E
1P
0S
b00000000000000000000000000000001 T
b00000000000000000000000000000001 U
b00000000000000000000000000010000 V
b00000000000000000000000000000100 W
b00000000000000000000000000010100 X
b00000000000000000000000000010100 ^
b1000100 f
1g
b11100011010100010000000000000011 i
#41000000
0!
0#
0P
0g
#42000000
1!
1#
b00000000000000000000000000010100 &
b0011 '
b00000000000000000000000000000000 +
bUUUUUUUUUUUUUUUUUUUUUUUUUUUUUUUU ,
b00000000000000000000000000000001 -
b00000000000000000000000000000000 .
b11111111111111111111111111111111 /
15
16
b000000000011 =
b00000011 >
b0000000 ?
b11100011010100010000000000000011 B
b1 E
b00000000 F
b010100010000000000000011 G
b11100011010100010000000000000011 M
b0011 O
1P
b0000 R
bUUUUUUUUUUUUUUUUUUUUUUUUUUUUUUUU U
b00000000000000000000000000000000 V
b00000000000000000000000000000001 W
b11111111111111111111111111111111 X
b11111111111111111111111111111111 ^
b11100011010100010000000000000011 `
1a
1c
1d
b0000000 f
1g
b00000000000000000000000000000000 i
#43000000
0!
0#
0P
0g
#44000000
1!
1#
b0000 '
b00000000000000000000000000000000 ,
bUUUUUUUUUUUUUUUUUUUUUUUUUUUUUUUU -
b00000000000000000000000000000001 .
bXXXXXXXXXXXXXXXXXXXXXXXXXXXXXXXX /
X2
X5
U6
X7
b00000000000000000000000000000001 @
bUUUUUUUUUUUUUUUUUUUUUUUUUUUUUUUU A
b10111 E
b00000000000000000000000000000011 I
b00000000000000000000000000000011 K
b0000 O
1P
b00000000000000000000000000000000 U
b00000000000000000000000000000001 V
bUUUUUUUUUUUUUUUUUUUUUUUUUUUUUUUU W
bXXXXXXXXXXXXXXXXXXXXXXXXXXXXXXXX X
XZ
U\
X]
bXXXXXXXXXXXXXXXXXXXXXXXXXXXXXXXX ^
Xc
Ud
Xe
1g
bUUUUUUUUUUUUUUUUUUUUUUUUUUUUUUUU h
b00000000000000000000000000000011 q
b00000000000000000000000000000011 t
b00000000000000000000000000000011 v
b00000000000000000000000000000011 x
b00000000000000000000000000000011 z
b00000000000000000000000000000011 |
b00000000000000000000000000000011 ""
b00000000000000000000000000000011 #"
b00000000000000000000000000000011 $"
b00000000000000000000000000000011 %"
b00000000000000000000000000000011 &"
b00000000000000000000000000000011 '"
b00000000000000000000000000000011 )"
b00000000000000000000000000000011 ,"
b00000000000000000000000000000011 -"
b00000000000000000000000000000011 ."
b00000000000000000000000000000011 /"
b00000000000000000000000000000011 0"
#45000000
0!
0#
0P
0g
#46000000
1!
1#
b00000000000000000000000000000011 -
b11111111111111111111111111111110 /
02
15
16
07
b00000000000000000000000000000011 A
b11110 E
1P
b00000000000000000000000000000011 W
b11111111111111111111111111111110 X
0Z
0\
0]
b11111111111111111111111111111110 ^
1c
1d
0e
1g
b00000000000000000000000000000011 h
#47000000
0!
0#
0P
0g
#48000000
1!
1#
b11111111111111111111111111111110 )
19
1:
b1111111 ?
b11111111111111111111111111111110 D
b101000 E
1P
b11111111111111111111111111111110 Q
b1111111 f
1g
1m
1o
#49000000
0!
0#
0P
0g
#50000000
1!
1#
b00000000000000000000000000010100 %
b00011010111111111111111111111011 +
b00000000000000000000000000000100 -
b00000000000000000000000000010100 .
b00000000000000000000000000011000 /
05
06
b1000101 ?
b0 E
1P
b00000000000000000000000000010100 V
b00000000000000000000000000000100 W
b00000000000000000000000000011000 X
b00000000000000000000000000011000 ^
0c
0d
b1000101 f
1g
b00011010111111111111111111111011 i
#51000000
0!
0#
0P
0g
#52000000
1!
1#
b00000000000000000000000000011000 &
b1011 '
bUUUUUUUUUUUUUUUUUUUUUUUUUUUUUUUU *
b00000000000000000000000000000000 +
bUUUUUUUUUUUUUUUUUUUUUUUUUUUUUUUU ,
b00000000000000000000000000000011 -
b00000000000000000000000000000001 .
b00000000000000000000000000000001 /
12
05
06
17
b111111111011 =
b11111011 >
b1111111 ?
b00011010111111111111111111111011 B
b1 E
b11111111 F
b111111111111111111111011 G
b11111 J
b00000000000000000000000000000110 K
0L
b00011010111111111111111111111011 M
b1111 N
b1011 O
1P
b1111 R
bUUUUUUUUUUUUUUUUUUUUUUUUUUUUUUUU T
bUUUUUUUUUUUUUUUUUUUUUUUUUUUUUUUU U
b00000000000000000000000000000001 V
b00000000000000000000000000000011 W
b00000000000000000000000000000001 X
1Z
U[
1]
b00000000000000000000000000000001 ^
b00011010111111111111111111111011 `
0c
0d
1e
b1111111 f
1g
b00000000000000000000000000000000 i
b0001 k
b11111 r
b00000000000000000000000000000110 t
0u
b10000000000000000000000000000000 v
0w
b00000000000000000000000000000110 x
0y
b11111 {
b10000000000000000000000000000000 |
0!"
b00000000000000000000000000000110 ""
b00000000000000000000000000011000 #"
b00000000000000000000000110000000 $"
b00000000000000011000000000000000 %"
b10000000000000000000000000000000 &"
b11111 ("
b00000000000000000000000000000110 )"
0+"
b10000000000000000000000000000001 ,"
b01100000000000000000000000000000 -"
b00000110000000000000000000000000 ."
b00000000000001100000000000000000 /"
b00000000000000000000000000000110 0"
#53000000
0!
0#
0P
0g
#54000000
1!
1#
b1111 '
b11111111111111111111111111111011 -
b00000000000000000000000000000110 .
b00000000000000000000000000000010 /
13
U6
bUUUUUUUUUUUUUUUUUUUUUUUUUUUUUUUU @
bUUUUUUUUUUUUUUUUUUUUUUUUUUUUUUUU A
b100000 E
bUUUUUUUUUUUUUUUUUUUUUUUUUUUUUUUU I
bUUUUUUUUUUUUUUUUUUUUUUUUUUUUUUUU K
UL
b1111 O
1P
b00000000000000000000000000000110 V
b11111111111111111111111111111011 W
b00000000000000000000000000000010 X
1Y
1\
b00000000000000000000000000000010 ^
Ud
1g
bUUUUUUUUUUUUUUUUUUUUUUUUUUUUUUUU h
bUUUUUUUUUUUUUUUUUUUUUUUUUUUUUUUU q
bUUUUUUUUUUUUUUUUUUUUUUUUUUUUUUUU t
Uu
bU0000000000000000000000000000000 v
bUUUUUUUUUUUUUUUUUUUUUUUUUUUUUUUU x
Uy
bUUUUUUUUUUUUUUUUUUUUUUUUUUUUUUUU z
bU0000000000000000000000000000000 |
bUUUUUUUUUUUUUUUUUUUUUUUUUUUUUUU0 ""
bUUUUUUUUUUUUUUUUUUUUUUUUUUUUU000 #"
bUUUUUUUUUUUUUUUUUUUUUUUUU0000000 $"
bUUUUUUUUUUUUUUUUU000000000000000 %"
bU0000000000000000000000000000000 &"
bUUUUUUUUUUUUUUUUUUUUUUUUUUUUUUUU '"
bUUUUUUUUUUUUUUUUUUUUUUUUUUUUUUUU )"
U+"
bUUUUUUUUUUUUUUUUUUUUUUUUUUUUUUUU ,"
bUUUUUUUUUUUUUUUUUUUUUUUUUUUUUUUU -"
bUUUUUUUUUUUUUUUUUUUUUUUUUUUUUUUU ."
bUUUUUUUUUUUUUUUUUUUUUUUUUUUUUUUU /"
bUUUUUUUUUUUUUUUUUUUUUUUUUUUUUUUU 0"
bUUUUUUUUUUUUUUUUUUUUUUUUUUUUUUUU 1"
#55000000
0!
0#
0P
0g
#56000000
1!
1#
b00000000000000000000000000001000 %
b11100000100000000000000000000001 +
b00000000000000000000000000000100 -
b00000000000000000000000000001000 .
b00000000000000000000000000001100 /
02
03
06
07
b1000010 ?
b0 E
1P
b00000000000000000000000000001000 V
b00000000000000000000000000000100 W
b00000000000000000000000000001100 X
0Y
0Z
0\
0]
b00000000000000000000000000001100 ^
0d
0e
b1000010 f
1g
b11100000100000000000000000000001 i
#57000000
0!
0#
0P
0g
#58000000
1!
1#
b00000000000000000000000000001100 &
b0001 '
b00000000000000000000000000000000 *
b00000000000000000000000000000000 +
b00000000000000000000000000000001 ,
bUUUUUUUUUUUUUUUUUUUUUUUUUUUUUUUU -
bUUUUUUUUUUUUUUUUUUUUUUUUUUUUUUUU .
bXXXXXXXXXXXXXXXXXXXXXXXXXXXXXXXX /
X2
b000000000001 =
b00000001 >
b1111111 ?
b11100000100000000000000000000001 B
b1 E
b100000000000000000000001 G
b00000 J
bUUUUUUUUUUUUUUUUUUUUUUUUUUUUUUUU K
0L
b11100000100000000000000000000001 M
b0000 N
b0001 O
1P
b0000 R
b00000000000000000000000000000000 T
b00000000000000000000000000000001 U
bUUUUUUUUUUUUUUUUUUUUUUUUUUUUUUUU V
bUUUUUUUUUUUUUUUUUUUUUUUUUUUUUUUU W
bXXXXXXXXXXXXXXXXXXXXXXXXXXXXXXXX X
XZ
0[
U\
X]
bXXXXXXXXXXXXXXXXXXXXXXXXXXXXXXXX ^
b11100000100000000000000000000001 `
0a
b1111111 f
1g
b00000000000000000000000000000000 i
b1110 k
b00000 r
bUUUUUUUUUUUUUUUUUUUUUUUUUUUUUUUU t
0u
bUUUUUUUUUUUUUUUUUUUUUUUUUUUUUUUU v
0y
b00000 {
bUUUUUUUUUUUUUUUUUUUUUUUUUUUUUUUU |
bUUUUUUUUUUUUUUUUUUUUUUUUUUUUUUUU ""
bUUUUUUUUUUUUUUUUUUUUUUUUUUUUUUUU #"
bUUUUUUUUUUUUUUUUUUUUUUUUUUUUUUUU $"
bUUUUUUUUUUUUUUUUUUUUUUUUUUUUUUUU %"
bUUUUUUUUUUUUUUUUUUUUUUUUUUUUUUUU &"
b00000 ("
0+"
#59000000
0!
0#
0P
0g
#60000000
1!
1#
b0000 '
b00000000000000000000000000000000 ,
b00000000000000000000000000000001 -
b00000000000000000000000000000000 .
b00000000000000000000000000000001 /
02
b00000000000000000000000000000000 @
b00000000000000000000000000000001 A
b10100 E
b00000000000000000000000000000001 I
b00000000000000000000000000000001 K
b0000 O
1P
b00000000000000000000000000000000 U
b00000000000000000000000000000000 V
b00000000000000000000000000000001 W
b00000000000000000000000000000001 X
0Z
0\
0]
b00000000000000000000000000000001 ^
1g
b00000000000000000000000000000001 h
b00000000000000000000000000000001 q
b00000000000000000000000000000001 t
b00000000000000000000000000000001 v
b00000000000000000000000000000001 x
b00000000000000000000000000000001 z
b00000000000000000000000000000001 |
b00000000000000000000000000000001 ""
b00000000000000000000000000000001 #"
b00000000000000000000000000000001 $"
b00000000000000000000000000000001 %"
b00000000000000000000000000000001 &"
b00000000000000000000000000000001 '"
b00000000000000000000000000000001 )"
b00000000000000000000000000000001 ,"
b00000000000000000000000000000001 -"
b00000000000000000000000000000001 ."
b00000000000000000000000000000001 /"
b00000000000000000000000000000001 0"
b00000000000000000000000000000000 1"
#61000000
0!
0#
0P
0g
#62000000
1!
1#
b11110 E
1P
1g
#63000000
0!
0#
0P
0g
#64000000
1!
1#
b00000000000000000000000000000001 )
10
b0000000 ?
b00000000000000000000000000000001 D
b101000 E
1P
b00000000000000000000000000000001 Q
1S
b0000000 f
1g
#65000000
0!
0#
0P
0g
#66000000
1!
1#
b00000000000000000000000000001100 %
b00000000000000000000000000000001 *
b11100010100000010001000000000001 +
b00000000000000000000000000000001 ,
b00000000000000000000000000000100 -
b00000000000000000000000000001100 .
b00000000000000000000000000010000 /
00
b1000011 ?
b0 E
1P
0S
b00000000000000000000000000000001 T
b00000000000000000000000000000001 U
b00000000000000000000000000001100 V
b00000000000000000000000000000100 W
b00000000000000000000000000010000 X
b00000000000000000000000000010000 ^
b1000011 f
1g
b11100010100000010001000000000001 i
#67000000
0!
0#
0P
0g
#68000000
1!
1#
b00000000000000000000000000010000 &
b0001 '
b00000000000000000000000000000000 +
b00000000000000000000000000000001 -
b00000000000000000000000000000000 .
b00000000000000000000000000000001 /
b0000000 ?
b11100010100000010001000000000001 B
b1 E
b100000010001000000000001 G
b11100010100000010001000000000001 M
b0001 N
b0001 O
1P
b0001 R
b00000000000000000000000000000000 V
b00000000000000000000000000000001 W
b00000000000000000000000000000001 X
b00000000000000000000000000000001 ^
b11100010100000010001000000000001 `
b0000000 f
1g
b00000000000000000000000000000000 i
#69000000
0!
0#
0P
0g
#70000000
1!
1#
b00000000000000000000000000000001 .
b00000000000000000000000000000010 /
b00000000000000000000000000000001 @
b10111 E
1P
b00000000000000000000000000000001 V
b00000000000000000000000000000010 X
b00000000000000000000000000000010 ^
1g
#71000000
0!
0#
0P
0g
#72000000
1!
1#
b11110 E
1P
1g
#73000000
0!
0#
0P
0g
#74000000
1!
1#
b00000000000000000000000000000010 )
10
b00000000000000000000000000000010 D
b101000 E
1P
b00000000000000000000000000000010 Q
1S
1g
#75000000
0!
0#
0P
0g
#76000000
1!
1#
b00000000000000000000000000010000 %
b00000000000000000000000000000010 *
b11100011010100010000000000000011 +
b00000000000000000000000000000010 ,
b00000000000000000000000000000100 -
b00000000000000000000000000010000 .
b00000000000000000000000000010100 /
00
b1000100 ?
b0 E
1P
0S
b00000000000000000000000000000010 T
b00000000000000000000000000000010 U
b00000000000000000000000000010000 V
b00000000000000000000000000000100 W
b00000000000000000000000000010100 X
b00000000000000000000000000010100 ^
b1000100 f
1g
b11100011010100010000000000000011 i
#77000000
0!
0#
0P
0g
